# Key:

## Basics:

{} - room contents
> - where you enter the first time
() - note or along-the-way, e.g., (E) means Elevator on the path
("note) - unstructured note
0-9 - nth action in this room
[] - accessibility/visibility info
@0-9[] - change in accessibility/visibility after @ pickup
-item@N- - got new major item; Nth item in game
-i- - got more ammo (m=missiles; s=supers; b=power bombs)
<> - boss
~ stuff - visible route not taken


## Location Suffixes

_[RLTB]# - room exits, counted from top/left to bottom/right on each edge
_I# - items
_lowercase - specific movement/action in room


## Events:

(S) - Found secret (oS obvious, hS hinted, iS implied, tS total)
(O) - Got one-wayed
(o) - Got "one-wayed"
(E) - Elevator
(tut:X) - tutorial for X
(B > where) - Back-track (aB) is acknowledged; (fB) is far; (cB) is close
(R > where) - Return
(b) - back-track within room, or out exit you just entered
(d) - decorated
(f) - fork
(V) - visited


## Accessibility/visibility labels:

S - secret (hS hinted, tS total)
L - locked
l - (un)locked
I - Inaccessible (but visible, unless paired with S)
i - inaccessible without some basic tricks like wall-jump
H - hinted
C - close
F - far
O - (apparent) one-way
W - wrong-way
w - "wrong-way"
B - boss door



# The map

Landing_Site_recharge 3
4 (fB > GOLDEN_FOUR)
  ("Note that at this point, one option is to do a lot of exploring and
  revisits, perhaps even starting with this room. Whether you even remember
  golden four or have to re-discover it is a big question. It does have an open
  edge on the map to hint that there's more to see there.)
Landing_Site_L2 1 {
> Parlor_R1 
  Parlor_R2 [I] @1[F+O] @3[H] 5 (O) { <Bomb_Torizo> -bombs@4- } (tut:bosses)
   Parlor_alcatraz_escape 6 (tut:bomb_blocks+Osafe)
  Parlor_down 1 (tut:no_pit)
  Parlor_L1 [hS+I] @3[H+I] @4[H+C] 8 (hS) (-energy_tank-) (tut:angle_combat) {
  > Green_Pirates_R2
    Green_Pirates_R1 [tS+W]
    Green_Pirates_fight (tut:enemy_vulns)
    Green_Pirates_R3 [l] 1 (d) {
    > GOLDEN_FOUR_L
      GOLDEN_FOUR_statues (hint:bosses)
      1 (b)
      GOLDEN_FOUR_B [I] @R[H+F] 2 (E) {
      > Tourian_Entrance_T
        ("Note that the map of Tourian is revealed automatically as you enter
        it, so you can see e.g., the save points.)
        Tourian_Entrance_R 1 { save }
        Tourian_Entrance_L 2 {
        > Baby_Territory_T
          ("You have to fight through the metroids along the way, which are
          scary enemies.)
          Baby_Territory_baby 1
          Baby_Territory_L 2 {
          > Seaweed_Garden_R1
            Seaweed_Garden_L 1 { energy_recharge }
            Seaweed_Garden_R2 [l] 2 {
            > Pre_MB_R1
              Pre_MB_R2 1 { save }
              Pre_MB_R3 2 {
              > Mother_Brain_R
                Mother_Brain_zebetites @MB[I] 1
                <Mother_Brain> 2
                  ("The truly epic final boss!)
                Mother_Brain_I 3 -rainbow_beam@22-
                Mother_Brain_L [I] @MB[H+C] 4 {
                > Escape_Shutters_R
                  Escape_Shutters_shutters 1
                  Escape_Shutters_B 2 {
                  > Escape_Hole_T
                    Escape_Hole_R 1 {
                    > Escape_Maze_L
                      ("This room is misleading, and without speed booster, may
                      lead to backtracking...)
                      Escape_Maze_R 1 {
                      > Escape_Theater_L
                        Escape_Theater_R -- Climb_L
                          ("Another epic return.)
                      }
                    }
                  }
                }
              }
            }
          }
        }
      }
    }
    Green_Pirates_L (tut:immune_enemies+farming) (E) (fresh_map) {
    > GBr_Main_T
      GBr_Main_L1 [l] 4 {
      > GBr_Map_Cooridor_R
        GBr_Map_Cooridor_L [hS] 1 { -map:brinstar@7- }
      }
      GBr_Main_L2 [l] 3 { save }
      GBr_Main_L3 [l] 1 (tut:firefiles) (tut:missile_refill)
      GBr_Main_R1 [l] @7[C+H] 5 {
      > Early_Supers_L
        Early_Supers_I1 1 -m- (tut:speed_hint) ("consolation prize)
        Early_Supers_I2 [I+tS] @10[iS+F]
        Early_Supers_R [I] @10[F]
        2 (B > Big_Pink_L2)
      }
      GBr_Main_R2 [l] 2 (hS) {
      > Dachora_L1
        Dachora_R 1 {
        > Big_Pink_L2 (f)
          Big_Pink_hopper_tank 1 (tut:crumbles)
          Big_Pink_I1 [o+i] @8[i+F] @13[F]
          Big_Pink_L3 [o+L+hS] @12[l+hS]
          Big_Pink_R2 [L] @12[l+F]
          Big_Pink_pipes 2 (tut:farming)
          Big_Pink_R3 [tS+L] @6[tS+l] (R 7)
          Big_Pink_L4 [tS+W]
          Big_Pink_I2 3 -m-
          Big_Pink_I3 [hS] 4 -charge_beam@5- (b)
          Big_Pink_L5 [tS+L] @7[iS+L] @12[iS+l+F]
          Big_Pink_R4 [L] @6[l] 8 {
          > Green_Hill_Zone_L
            Green_Hill_Zone_R1 [hS+I+L] @8[hS+L+F] @12[hS+l+F]
            Green_Hill_Zone_I [tS] 1 -m-
            Green_Hill_Zone_R2 [O] 2 (tut:gates) (O) (tut:running) {
            > Red_Tower_L1
              Red_Tower_ascent [i+I] @11[H+F] 4
              Red_Tower_R1 [I] @11[] 5 (tut:platforming_control) (O) {
              > RBr_Elevator_L2
                RBr_Elevator_R2 1 { save }
                RBr_Elevator_L1 [l] 2 5 {
                > RBr_Side_Hoppers_R
                  1 (tut:surprise_combat) (b)
                  RBr_Side_Hoppers_I [hS+L] @12[H+C+l] 2 -b- (b)
                }
                RBr_Elevator_T 3 {
                > RBr_Elevator_Top_B
                  RBr_Elevator_Top_T [L] @12[H+C+l] 2 -- Crateria_Kihunters_B
                  1 (b)
                    ("At this point, we're locked between two orange
                    doors, with one room that's got a power-bomb-block
                    floor, and we've even saved the game in this trap! So
                    the game is explicitly forcing the player to search
                    for well-hidden, secrets, rather than just
                    telegraphed secrets.)
                }
                RBr_Elevator_L3 [tS+l] 4 {
                > RBr_Power_Bombs_R
                  RBr_Power_Bombs_I1 1 -power_bombs@12-
                    ("This pickup opens up a whole host of new
                    possibilities that we've spotted before, both
                    throughout Brinstar and down in Norfair.
                    Interestingly, in Norfair the power bomb blocks in
                    Ice_Beam_Shutters are explicit (they might be the
                    only explicit blocks in the game). Meanwhile, the
                    Kronic_Boost_L3 door is farther away and has only
                    disappointment/foreshadowing behind it for now.
                    Immediately getting back to Red_Tower_L2 comes to
                    mind, as does going up to RBr_Elevator_Top_T.)
                  RBr_Power_Bombs_I2 [tS] 2 (b)
                    ("Note that I2 here is very slightly implied: you
                    might want to use your new powerup against the Boyons
                    or just test it, and if you do, you're rewarded. But
                    neither the architecture of the room nor the map
                    strongly hints or even implies the second item.)
                }
                RBr_Elevator_R1 [tS+W]
              }
              Red_Tower_L2 [hS+L] @12[H+C+l] 6 {
              > XRay_Gauntlet_R
                1 (B > Green_Hill_Zone_R2)
                  ("Note: it's possible to simply tank the spikes and
                  make it to X-Ray. But that's pretty hard, and the
                  +-blocks indicate that it's not yet time. Now a
                  decision must be made about exploring green Brinstar
                  vs. heading back to Norfair. With so much juicy map in
                  green Brinstar open, and only one hint in Norfair
                  (Ice_Beam_Shutters_L3), we'll head to green Brinstar
                  first.)
                XRay_Gauntlet_L [i+l] @13[H+F+l] 2 { -xray@14- (tut:xray) (b) }
                (B > Moat_L)
                  ("With all of our selectables filled out, we're now
                  ready to seriously find secrets. Next destination is
                  the grapple block point that the post-grapple tutorials
                  evoked: Moat.)
              }
              Red_Tower_descent [hS+O] 1 (O) @11[]
              ("L2 hints to bomb/shoot the area which reveals path down)
              Red_Tower_L3 [l] 2 (tut:energy_recharge)
              Red_Tower_R2 3 (tut:water) {
              > Below_Spazer_L
                Below_Spazer_R1 [hS+l] 1 { -spazer@8- }
                Below_Spazer_bottom 2 (tut:grabbers)
                Below_Spazer_R2 3 {
                > Glass_Tube_L
                  ("Neither other exit is visible, and the map doesn't
                  imply anything!)
                  Glass_Tube_break [S+I] @12[S] @19[H+C] 2
                  Glass_Tube_R2 [S+I] @12[S] @19[H+C] 3 { save }
                  Glass_Tube_T [S+I] @12[S] @19[H+C] 4 {
                  > Main_St_B
                    Main_St_R4 [l] 1 -- (O) Crab_Hole_L1 (B > Main_St_B)
                    Main_St_R3 2 {
                    > Fish_Tank_L
                      Fish_Tank_T1 [i]
                      Fish_Tank_T2 [i] (V)
                        ("The pink pirates are deadly, and don't care
                        about any of our current weapons. If you fall
                        down on the right and don't know how to
                        wall-jump, you're actually trapped and will die
                        to the pirate, unless you find that the wall to
                        the left is fake. This hints the R exit, although
                        with the pirate down there and without a map
                        segment, it's iffy.)
                      Fish_Tank_R [tS+i+l] [S+l] 2 {
                      > Mama_Turtle_L
                        ("The first item is obvious, figuring out how to
                        get it is not. The second item is not really
                        reasonable, as it can't be seen with xray
                        (nowhere to stand) and isn't indicated on the
                        map.)
                        Mama_Turtle_I1 [hS] 1 -et-
                        Mama_Turtle_I2 [tS+i]
                        2 (B > Everest_B1)
                      }
                      1 (b)
                    }
                    Main_St_R2 [iS+I]
                    Main_St_R1 3 {
                    > Everest_L1
                      Everest_L2 [iS] 1 { -s- (b) }
                        ("Here L2 is heavily implied and supers are quite
                        valuable at this point, so we get it.)
                      ("At this point, we can see on the map that B1 and
                      B2 lead down to Fish_Tank, but we don't know
                      whether progress lies there or somewhere else.
                      Taking B2 seems reasonable since it's easy to
                      access and leads to a new part of Fish_Tank.)
                      Everest_B1 (V)
                      Everest_B2 2 -- Fish_Tank_T2
                      Everest_T 3 {
                      > Red_Fish_B
                        ("There must be something up here, and xray shows
                        the way.)
                        Red_Fish_L [iS] 1 -- RBr_Elevator_R1 (b)
                        ("Here we decline the green gate, seeing on the
                        map where we've returned to, but someone less
                        map-aware might not, and if they transition out
                        of RBr_Elevator (e.g., to save) they'll need to
                        re-enter Maridia through the Glass_Tube_T.)
                      }
                      Everest_R 4 {
                      > Crab_Shaft_L
                        ("Here there's no reason to suspect a path down,
                        which the map doesn't indicate or imply.)
                        Crab_Shaft_T 1 {
                        > Pseudo_Plasma_Spark_B
                          ("The map invites us to investigate the left
                          and bottom areas of this room...)
                          Pseudo_Plasma_Spark_pit 1
                          Pseudo_Plasma_Spark_I [iS] 2 -m-
                          Pseudo_Plasma_Spark_L 3 {
                          > NW_Maridia_Bugs_R
                            NW_Maridia_Bugs_transition [hS] 1
                            NW_Maridia_Bugs_L [hS] 2 {
                            > Watering_Hole_L
                              ("This room can't just be a dead end, and
                              if we descend the pit the camera obliges.)
                              Watering_Hole_I1 [hS] 1
                              Watering_Hole_I2 [hS] 2
                              ("At this point, we need to look at the map
                              to figure out where to explore.)
                              3 (B > Crab_Shaft_T)
                            }
                          }
                        }
                        ("Returning to this room from the top, if we fall
                        on the right side, a crab from below scoots past
                        the secret near when we reach the middle door.
                        This crab takes long enough to reach this point
                        that entering from the left it won't show up
                        until the player has moved upwards in all
                        likelihood.)
                        Crab_Shaft_R [S] [hS] 2 {
                        > Aqueduct_L1
                          Aqueduct_L2 [l] 1 { save }
                          Aqueduct_R 4 {
                            ("This is a great dead-end, which seems like
                            it definitely should connect towards Draygon
                            from the map, but there aren't any secrets to
                            find after all...)
                            (b)
                          }
                          ("The items in this room require a shine spark,
                          and are liberally hinted so that you can see
                          the speed blocks in an otherwise unbreakable
                          configuration. It's not the Dachora, but since
                          the demo screen shows shinesparking, this isn't
                          a bad time to "learn" that.)
                          Aqueduct_I1 [hS+i] 2 -m- (tut:shine_spark_ish)
                          Aqueduct_I2 [hS+i] 3 -s-
                          Aqueduct_ascent (tut:grapple_wall_jumps)
                          Aqueduct_T 5 {
                          > Mocktroid_Maze_B
                            ("It's a bit of a puzzle how to progress, but
                            there's no question that this is the right
                            way, given the presence of the mocktroids.)
                            Mocktroid_Maze_R [hS] 1 {
                            > Botwoon_L
                              <Botwoon> 1
                              Botwoon_R 2 {
                              > Botwoon_ET_L
                                ("Having been down a sand pit before, and
                                given the room layout, it's not totally
                                unobvious that you can do that here. But
                                it's not a particularly attractive option
                                when Draygon is still to the left on the
                                map.)
                                Botwoon_ET_R [hS] 1 {
                                > Halfie_Climb_L2
                                  ("The map hints Halfie_Climb_R2, but
                                  doesn't completely imply it as the
                                  entrance to that stuff could be from
                                  above. The room geometry doesn't hint
                                  it at all.)
                                  Halfie_Climb_L1 [I] @D[C] 2 -- Butterfly_Room_R
                                  Halfie_Climb_R1 1 {
                                  > Coliseum_L
                                    Coliseum_traversal [i]
                                    ("There's an energy station after
                                    the save too.)
                                    Coliseum_R1 [i+l] 1 { save }
                                    Coliseum_R2 [i+l] 2 {
                                    > Draygon_Eye_Door_L1
                                      Draygon_Eye_Door_I [hS] 1 -m-
                                      ("The grapple crumble that takes
                                      you to I1 in this room doesn't
                                      regenerate, leaving you stuck! Xray
                                      tells you the spikes are fake, but
                                      whether you actually drop down to
                                      the eye door isn't certain, and the
                                      screen doesn't scroll until you
                                      enter the lower area. One
                                      possibility map-wise is to look for
                                      (and maybe find) Halfie_Climb_R2,
                                      but here we simply "discover" the
                                      secret.)
                                      Draygon_Eye_Door_L2 2 {
                                      > Draygon_R
                                        ("Trying to be a bit naive, I
                                        didn't kill the turrets or use
                                        any fancy moves. Ended up with 46
                                        health left (but also reserves),
                                        so it was a great fight. Ran out
                                        of missiles and supers just at
                                        the end.)
                                        Draygon_descent [O] @20[] 1
                                        <Draygon> 2
                                        Draygon_L 3 { -space_jump@20- }
                                        ("At this point, the entire map
                                        is pretty much open to you,
                                        especially if you've learned to
                                        shine-spark. Power bombs tend to
                                        enable you to do anything that
                                        might seem to maybe require screw
                                        attack. And there's still a whole
                                        sub-area plus boss left in the
                                        game.)
                                        Draygon_ascent 4 (tut:space_jump)
                                        5 (fB > Halfie_Climb_R1)
                                      }
                                    }
                                  }
                                  Halfie_Climb_R2 [S]
                                }
                                Botwoon_ET_B1 [S]
                                Botwoon_ET_B2 [S]
                              }
                            }
                          }
                          Aqueduct_B1 [S]
                          Aqueduct_B2 [S]
                        }
                      }
                    }
                    Main_St_I1 [hS+i]
                    Main_St_I2 [hS+I]
                  }
                  Glass_Tube_R1 1 {
                  > Boyon_Gate_Hall_L 3
                    Boyon_Gate_Hall_R1 [tS+W] (V+O)
                    Boyon_Gate_Hall_descent [o] 2 4 (o)
                      ("On the revisit here, having taken down Draygon,
                      we exit to see the Brinstar map.)
                    Boyon_Gate_Hall_R2 1 5 {
                    > Warehouse_Entrance_L
                      Warehouse_Entrance_R [hS] 1 [L+I] @8[hS+L] 3 {
                      > Warehouse_Zeelas_L1
                        Warehouse_Zeelas_L2 [I] @K[C] 2 {
                          [iS] -et- (B > Business_Center_T)
                        }
                        Warehouse_Zeelas_T [itS] 1 (tut:map_lies) {
                        > Warehouse_Kihunters_B
                          Warehouse_Kihunters_R1 [hS] 1 (save)
                          Warehouse_Kihunters_R2 [hS] 2 {
                          > Mini_Kraid_L
                            Mini_Kraid_fight 1 (tut:miniboss) (stat_check)
                            Mini_Kraid_R 2 {
                            > Kraid_Eye_Door_L
                              Kraid_Eye_Door_R1 [hS+l] 1 { em_recharge }
                              Kraid_Eye_Door_R2 [B] 2 { <Kraid> -varia@9- }
                              3 (B > Warehouse_Zeelas_T)
                            }
                          }
                        }
                      }
                      Warehouse_Entrance_B 2 4 {
                      > Business_Center_T
                        Business_Center_L1 [l] 1 {
                        > Ice_Beam_Shutters_R 5
                          ("Get stuck in shutters first)
                          1 (tut:test_panels) (b)
                          Ice_Beam_Shutters_L2 [I] @10[H] 2 {
                          > Ice_Beam_Snake_R3
                            Ice_Beam_Snake_R2 [hS] 2 { -ice_beam@11- (b) }
                            Ice_Beam_Snake_R1 1 4 {
                            > Lava_Boyons_L
                              Lava_Boyons_traversal 2
                                (tut:platforming_on_frozen_enemies)
                              Lava_Boyons_R [hS+i] @11[hS+H+C] 3
                                -- Ice_Beam_Shutters_L1
                              1 (b)
                            }
                            3 (tut:freezing_enemies)
                          }
                          Ice_Beam_Shutters_descent [hS+L] @10[H+L] @12[H+F+l] 6
                            (tut:unmapped_regions)
                          Ice_Beam_Shutters_L3 [hS+L] @10[H+L] @12[H+F+l] 7 {
                          > Crumble_Shaft_R1 (o)
                            Crumble_Shaft_I [tS+i]
                            Crumble_Shaft_R2 1 {
                            > Croc_Speedway_L2
                              Croc_Speedway_speed [l] (tut:speed_kills)
                              Croc_Speedway_R2 1 {
                              > Acid_Snakes_Tunnel_L
                                Acid_Snakes_Tunnel_T 1 (b) ~ [O] UN_Farm_L2
                                Acid_Snakes_Tunnel_R 2 5 {
                                > Acid_Grabbers_L
                                  Acid_Grabbers_traversal [i] @13[H+C] 2
                                    (tut:fast_grappling)
                                  Acid_Grabbers_R [i] @13[H+C] 3
                                    ("Technically you could just go for
                                    it... but without knowing how far,
                                    that seems inadvisable)
                                    -- Kronic_Boost_L2
                                  1 (b)
                                }
                              }
                              Croc_Speedway_B [l] 4 {
                              > Crocamire_T 5
                                <Crocamire> 1
                                Crocamire_I [i] @13[H+C] 3
                                  ("Here you can yeet yourself most of
                                  the way with speed booster. But you
                                  don't know ahead of time what's over
                                  there...)
                                Crocamire_L 2 {
                                > Post_Croc_Farm_R1 6
                                  Post_Croc_Farm_farm 1
                                  Post_Croc_Farm_R2 2 { save }
                                  Post_Croc_Farm_swing [I] @13[h] 5
                                    (tut:ripper_swinging)
                                  Post_Croc_Farm_L [l+i] 3 { -b- (b) } @13[l+C]
                                    ("You can dodge the enemies to use
                                    speed to jump up here, or do some
                                    clever wall jumps.)
                                  Post_Croc_Farm_B 4 {
                                  > Post_Croc_Shaft_T 5
                                    Post_Croc_Shaft_L 1 {
                                    > Grapple_GG_R 2
                                      Grapple_GG_traversal
                                        (tut:grapple_over_water)
                                        ("Note: This particular tutorial
                                        being repeated thrice feels like
                                        it's trying to evoke Moat a bit.)
                                      Grapple_GG_L [W] (V)
                                      1 (b)
                                    }
                                    Post_Croc_Shaft_descent [hS+o] 2 (o)
                                    Post_Croc_Shaft_R [hS+o] 3 { -m- (b) }
                                    Post_Croc_Shaft_B [hS+o] 4 {
                                    > Grapple_Jump_T
                                      Grapple_Jump_L [hS+i] 1 {
                                      > Grapple_Beam_R1
                                        Grapple_Beam_I 1 -grapple_beam@13-
                                          ("We just unlocked OPTIONS!
                                          Nearby, there's Croc item and
                                          the acid grabbers room, plus
                                          wave beam slightly further
                                          afield. Moat and the XRay
                                          gauntlet are also relevant.)
                                        Grapple_Beam_ascent 2 (tut:grapple)
                                        Grapple_Beam_R2 3 (tut:grapple_2_3)
                                          -- Grapple_GG_L
                                      }
                                      Grapple_Jump_I [S+i]
                                        ("This item is not visible as you
                                        jump across at all, the only hint
                                        is the presence of gray rippers
                                        that you can see as you fly
                                        across, but that's a very slim
                                        hint.)
                                    }
                                  }
                                }
                              }
                              Croc_Speedway_R1 2 { save }
                                ("It feels as though even if you went B
                                first, if you died to Crocamire and lost
                                progress you'd probably want to explore
                                this.)
                              Croc_Speedway_L1 3 -- Croc_Escape_R
                            }
                          }
                          Ice_Beam_Shutters_L1 [tS+W] 3 (V)
                          Ice_Beam_Shutters_attic 4 (tut:crawlspaces)
                        }
                        Business_Center_R1 2 7 {
                        > Varia_Hoppers_L
                          1 (tut:heated_rooms) (b)
                          Varia_Hoppers_R [I] @9[C] 2 {
                          > Cathedral_L
                            Cathedral_I [tS:i] 1 -m-
                            Cathedral_R [l] 2 {
                            > Bubble_Mountain_L3
                              Bubble_Mountain_I [hS] 1 -m-
                              Bubble_Mountain_L2 2 { save }
                              Bubble_Mountain_L1 [i+l] @13[l+F] 8 {
                              > Bubble_Attic_R
                                Bubble_Attic_I 1 -m-
                                Bubble_Attic_L [tS]
                                2 (fB > Landing_Site_R2)
                              }
                              Bubble_Mountain_R1 [i+l] 6 [l] {
                              > Speed_Booster_Farm_L
                                Speed_Booster_Farm_R [iS] 1 {
                                > Speedway_L
                                  Speedway_I [tS]
                                  Speedway_R 1 -speed_booster@10-
                                    (aB > Bubble_Mountain_R1)
                                }
                              }
                              Bubble_Mountain_R2 [i] 5 (V)
                                ("Coming here after Ridley, we're at least
                                curious what's being L1..)
                              Bubble_Mountain_L4 [hS] 3 7 {
                              > UN_Farm_R
                                UN_Farm_descent [hS] 1 (hS) (tut:namahe)
                                UN_Farm_L2 [hS+W] [W] (tut:shutters)
                                UN_Farm_L1 2 -- Frog_Speedway_R (b)
                              }
                              Bubble_Mountain_B [hS] 4 {
                              > Purple_Shaft_T
                                Purple_Shaft_R1 1 {
                                > Purple_Farm_L
                                  Purple_Farm_farm 2
                                  1 (b)
                                  3 (B > Main_Hall_T)
                                    ("Now we're ready to head back into
                                    lower Norfair.)
                                }
                                Purple_Shaft_R2 2 {
                                > Kronic_Boost_L1
                                  Kronic_Boost_R 1 {
                                  > Volcano_L2
                                    Volcano_ascent [oS] 1 (oS)
                                    Volcano_L1 2 (tut:trippers) {
                                    > Single_Chamber_R4
                                      Single_Chamber_R3 1 {
                                      > Double_Chamber_L2
                                        Double_Chamber_L1 [i+H] 2 (V)
                                        Double_Chamber_R [i+H] @13[F]
                                        Double_Chamber_I 3 -m-
                                        1 4 (b)
                                        ("Note: the extra visibility for
                                        Double_Chamber_R plus the
                                        difficulty of the Namahe
                                        platforming segment and the
                                        shutter all create a strong
                                        impression that Double_Chamber_R
                                        is juicy, and create a pull to go
                                        for it.)
                                      }
                                      Single_Chamber_R2 [l] 2
                                        (R Double_Chamber_L1)
                                      Single_Chamber_L 3 4
                                        (R > Bubble_Mountain_R2)
                                      Single_Chamber_R1 [tS+W] (V)
                                        ("This is an epic revisit, but with
                                        little taste for items having beaten
                                        Ridley and without wave beam marked on
                                        the map, we're planning to head back to
                                        the statues room, via red tower and
                                        landing site.)
                                    }
                                  }
                                  Kronic_Boost_L2 [tS+W] (V+O)
                                    ("At this point as you re-enter
                                    post-croc, if your memory is good
                                    you'll want to go up to get wave
                                    beam, but if not, you may simply
                                    return to the business center and
                                    exit Norfair without it. We'll take
                                    the former option to see how it plays
                                    out. Note that this entrance is a
                                    one-way without wave beam!)
                                  Kronic_Boost_L3 [L] @12[l+F] 2 {
                                  > Lava_Dive_R
                                    Lava_Dive_dive [hS+I] @18[hS+I] @20[hS+F] 2
                                    Lava_Dive_L [hS+I] @18[hS+I] @20[hS+F] 3 {
                                    > LN_Elevator_Top_R
                                      ("The placement of an elevator here
                                      is a clear signal that we've found
                                      what we're looking for!)
                                      LN_Elevator_Top_L 1 { save }
                                      LN_Elevator_Top_B (E) {
                                      > Main_Hall_T (f)
                                        ("This fork has basically no
                                        strong indicator either way. In
                                        this playthrough we decide to
                                        head right first.)
                                        Main_Hall_R 1 {
                                        > Pseudo_WRITG_L1
                                          ("Here a power bomb is a
                                          natural choice for seeing if we
                                          can damage the golden pirates,
                                          and it turns out we can! This
                                          also clears the floor.)
                                          Pseudo_WRITG_R1 1 {
                                          > Mickey_Mouse_L
                                            Mickey_Mouse_I [W+hS] [hS] 2 -m-
                                            Mickey_Mouse_R [W] (V)
                                            1 (b)
                                              ("Note that when we can't
                                              progress upwards we scan
                                              the ceiling and are hinted
                                              that there's a secret in
                                              this room.)
                                            3 (B > Main_Hall_R)
                                              ("We just want to save, get
                                              our resources back up and
                                              not die.)
                                          }
                                          Pseudo_WRITG_descent [hS] (f)
                                          Pseudo_WRITG_L2 [hS] 2 {
                                          > Rippers_GG_R 2
                                            Rippers_GG_L [W] (V)
                                              (tut:screw_attack)
                                            1 (b)
                                          }
                                          Pseudo_WRITG_R2 [hS] 3 4 {
                                          > Pillars_L
                                            ("This room is killer,
                                            because you don't know how
                                            many pillars there are as the
                                            acid rises, but once halfway
                                            across there's a better
                                            forward than back mentality.
                                            Honestly, many would probably
                                            take the prudent option and
                                            return to Main_Hall_L thereby
                                            eventually finding screw
                                            attack, and coming back via
                                            Rippers_GG_L. But some might
                                            as I've done here do one more
                                            power bomb and make it out.)
                                            Pillars_R [i] @21[C] 1 2 {
                                            > WRITG_L2
                                              ("At this point I'm already
                                              low on health, and end up
                                              using up my reserves since
                                              things in LN deal buckets
                                              of damage. Map hints and a
                                              stray shot might find L1,
                                              which feels attractive at
                                              this point: I want to make
                                              it out.)
                                              WRITG_ascent [i] @21[C] 1 3
                                              WRITG_R [i] @21[] 4 {
                                              > Amphitheater_L
                                                Amphitheater_crossing [O] 1 (O)
                                                ("An epic room.)
                                                Amphitheater_R 2 {
                                                > Red_Kihunters_L
                                                  Red_Kihunters_R1 1 {
                                                  > LN_Firefleas_L2
                                                    LN_Firefleas_L1 [tS] 2 {
                                                    > LN_Springball_Puzzle_R
                                                      LN_Springball_Puzzle_L 2 {
                                                      > Three_Musketeers_R
                                                        Three_Musketeers_I [tS]
                                                        Three_Musketeers_L
                                                          [hS] 1
                                                          -- Single_Chamber_R1
                                                      }
                                                      LN_Springball_Puzzle_I 1
                                                        -m-
                                                      LN_Springball_Puzzle_B
                                                        [hS]
                                                    }
                                                      ("Neither secret in
                                                      this room shows up
                                                      with xray, and
                                                      neither is
                                                      map-hinted. With
                                                      amphitheater flooded with
                                                      acid, it's the only way
                                                      out, but it's one of the
                                                      trickiest secrets in the
                                                      game, with absolutely
                                                      zero hinting or
                                                      discoverability, other
                                                      than the desperation to
                                                      find some way out.)
                                                    LN_Firefleas_I [tS]
                                                    LN_Firefleas_R 1 {
                                                    > LN_Escape_Item_L
                                                      LN_Escape_Item_T [W]
                                                      LN_Escape_Item_I [W]
                                                      1 (cB > Red_Kihunters_R1)
                                                        ("We thought we
                                                        were going
                                                        somewhere, but
                                                        now we're canned
                                                        between this room
                                                        and Amphitheater.
                                                        So we need to
                                                        explore.
                                                        Kihunters is the
                                                        place where xray
                                                        reveals a new
                                                        path.)
                                                    }
                                                  }
                                                  Red_Kihunters_descent [S] 2
                                                  Red_Kihunters_R2 [tS] 3 5
                                                    { save }
                                                  6 (B > LN_Firefleas_L2)
                                                  Red_Kihunters_B [tS+l] 4 {
                                                  > Wasteland_T
                                                    Wasteland_tunnel [hS] 1
                                                    Wasteland_I [hS] 2 -b-
                                                    Wasteland_L [hS+l] 3 {
                                                    > Metal_Pirates_R
                                                      ("Another epic room)
                                                      Metal_Pirates_fight 1
                                                      Metal_Pirates_L 2 {
                                                      > Pre_Ridley_Farm_R
                                                        Pre_Ridley_Farm_farm 1
                                                        Pre_Ridley_Farm_L 2 {
                                                        > Ridley_R
                                                          <Ridley> 1
                                                            ("Anther fight
                                                            ended at <2 e tanks
                                                            and empty on
                                                            missiles. Would be
                                                            really hard without
                                                            screw attack to
                                                            dodge most of his
                                                            BS.)
                                                          Ridley_L 2 { -et- }
                                                          3 (B >
                                                            Red_Kihunters_B)
                                                        }
                                                      }
                                                    }
                                                  }
                                                }
                                              }
                                              WRITG_L1 [hS] 2 -- Mickey_Mouse_R
                                            }
                                          }
                                        }
                                        2 (B > Purple_Farm_L)
                                          ("We're retreating from LN to
                                          get our resources back up.)
                                        Main_Hall_L 3 {
                                        > Water_Closet_R1
                                          Water_Closet_flush [hS+l] 1
                                            ("This sequence reinforces
                                            the notion that there's
                                            something big to discover
                                            here.)
                                          Water_Closet_R2 [hS+l] 2 {
                                          > Golden_Torizo_L
                                            Golden_Torizo_I1 [i]
                                            Golden_Torizo_fall [tS+O] 1 (O)
                                              ("This is the second
                                              instance (with the maridia
                                              sand pit grabbers being the
                                              first) of a really
                                              unintended transition
                                              that doesn't happen after a
                                              door.)
                                            <Golden_Torizo> 2
                                            Golden_Torizo_I2 [hS] 3
                                              ("This is shown on the map,
                                              and attempts to get I1 also
                                              kinda hint it. It's way
                                              more valuable than I1 at
                                              this point so we're
                                              consoled of the loss of I1.)
                                            Golden_Torizo_R 4 {
                                            > Screw_Attack_L
                                              Screw_Attack_ascent 1
                                                (tut:screw_attack)
                                              Screw_Attack_R1 [hS+i] @21[hS] 2 {
                                                energy_refill
                                              }
                                              Screw_Attack_R2 [hS+i] @21[hS] 3
                                                -- Rippers_GG_L
                                            }
                                          }
                                        }
                                      }
                                    }
                                    1 (b)
                                  }
                                  3 (fB > XRay_Gauntlet_R)
                                    ("Having newly acquired grapple beam,
                                    the +-blocks are calling to us, but
                                    simulating a hazy memory, we'll
                                    ignore wave beam for now and focus on
                                    more recent/evocative examples,
                                    including XRay_Gauntlet and Moat.
                                    Since XRay_Gauntlet is on the way to
                                    Moat, we'll stop there next. Note
                                    that we'd like to first, go down at
                                    bubble mountain to pick up the
                                    missiles in Croc_Escape on our way
                                    back out of Norfair, but our path is
                                    blocked at UN_Farm without wave
                                    beam!)
                                }
                              }
                            }
                          }
                        }
                        Business_Center_L2 [L] @12[l+F]
                        Business_Center_L3 [l] 3 {
                        > Fast_Crawler_R
                          Fast_Crawler_I1 1 -et-
                          Fast_Crawler_I2 [i] @8[C+H] 3 -m-
                          Fast_Crawler_L {
                          > High_Jump_R
                            High_Jump_I 1 -high_jump@8- (tut:shot_blocks)
                            2 (tut:high_jump) (b)
                          }
                          4 (tut:fight_rooms_2) (b)
                        }
                        Business_Center_R2 4 (save) {
                        > Frog_Speedway_L
                          1 (tut:hoppers) (b)
                          Frog_Speedway_R [hS+I] 2 (V) @10[H+C] 3
                          (tut:speed_blocks)
                          4 (B > Ice_Beam_Shutters_R)
                            ("This is a mid-range backtrack, although
                            it's kinda the next obvious thing to try on
                            the map.)
                        }
                        Business_Center_R3 [hS] 5 (hS) {
                        > Croc_Escape_L
                          (tut:heated_rooms)
                          Croc_Escape_I [H+W] [H+I] @13[F]
                          Croc_Escape_R [W] (V)
                          1 2 (b)
                            ("First you're shuttered so you back out L,
                            next you can't reach the missiles, so you
                            back out R.)
                        }
                        6 (B > Warehouse_Entrance_B)
                          ("At this point, exploration is forced! Need to
                          find Warehouse Entrance, and the map hints at it,
                          but it's in a different zone, so if we missed it
                          the first time, it could be hard!)
                        7 (B > Warehouse_Entrance_B)
                          ("At this point, exploration is forced once
                          more. We have just gotten speed booster and ice
                          beam, and know that +-blocks and orange doors
                          will need opening with tools we don't have. The
                          Norfair map is completely explored, as far as
                          we know, besides a wrong-way at the bottom of
                          business center, the plus blocks pit in double
                          chamber, and the orange door at the bottom of
                          Kronic boost. It's time to head out of Norfair
                          and look for other places to use our new
                          powers, with the Dachora room being probably
                          the most obvious, which means heading back up
                          red tower.)
                        8 (B > Lava_Dive_R)
                          ("Entering Norfair for exploration/pickups
                          after Draygon, we look at the map. Nothing is
                          blue, but lava dive stands out as unexplored,
                          so we'll head over in that direction. Note that
                          wave beam is not marked on the map, and by this
                          point we've likely forgotten about it. We might
                          pass through Bubble_Mountain on our return to
                          Lava_Dive, but that's as close as we get to a
                          revisit of Double_Chamber.)
                      }
                        ("On the revisit here after Draygon, we can look
                        at the map, and there are two tempting options:
                        revisit green Brinstar for items/exploration, or
                        revisit Norfair for the same. However, without
                        wave beam, revisiting Green Brinstar requires
                        going all the way up to Crateria, so down to
                        Norfair is more tempting.) 
                      4 (B > Red_Tower_R2)
                        ("Having returned to Brinstar with high jump, ice
                        beam and speed booster, our map shows us the
                        following unexplored regions: 1. The top of Red
                        Tower (previously inaccessible without high
                        jump), 2. X-Ray Scope (behind an orange door), 3.
                        Big Pink R2 (orange), 4. Green_Hill_Zone_R1
                        (orange), 5. Big_Pink_L5 (disjointed, and behind
                        a power bomb block), 6. Early_Supers_R
                        (previously inaccessible without speed booster).
                        Red Tower is the closest and the bottom must be
                        traversed to access any of the other areas.)
                    }
                  }
                }
              }
            }
            3 (fB > Ice_Beam_Shutters_L3)
              (" From Red Tower, attempting to visit areas of green
              Brinstar is stymied by the gate at the bottom of Green Hill
              Zone, unless we (lightly) sequence broke wave beam. At the
              revisit to the landing site we could have chosen to
              re-explore green Brinstar instead of heading for
              Red_Tower_L2, but now that we're here, it seems a waste to
              head all the way back up and around. So we'll go to Norfair
              instead.)
          }
          Big_Pink_L1 [hS] 5 { save }
          Big_Pink_R1 [l] 6 (tut:fight_doors) 5 (<Spore_Spawn>) (O)
                          (-super_missiles@6-) (tut:hidden_enemies)
                          (tut:sm_blocks) (tut:hidden_backtracks)
                          (R > Big_Pink_R3)
          8 ("here we have a choice: go back to explore GBR_Main stuff we
             missed, or use supers to keep going?)
            (B > GBr_Main_R2)
        }
        Dachora_L2 [hS+L] (tut:new_blocks) @10[hS+F]
      }
      GBr_Main_L4 [hS+L] @12[hS+l+F]
      GBr_Main_R3 [hS+W]
      GBr_Main_R4 [tS+W]
    }
  }
  Parlor_L2 [I] @1[F] @3[H] 4 { save }
  Parlor_R3 [L] @1[F] 3 { -map:crateria@3- } (tut:exploration)
  Parlor_L3 > ([I] @1[I] @3[I+H] @4[H+C]) 7 { -m- } (tut:safe_statues+overlays)
  Parlor_B 2 {
  > Climb_T 3
    Climb_R1 [tS+W]
    Climb_R2 [tS+L] @12[tS+l+F]
    Climb_L [tS+W]
    Climb_up 2 (tut:platforming+combat)
    Climb_R3 1 {
    > Old_Mother_Brain_L
      Old_Mother_Brain_I [tS+I] @4[tS+F]
      Old_Mother_Brain_R (E) {
      > Morph_T
        Morph_I [H] 2 -morph@1-
        Morph_L [tS+L] @12[tS+l+F]
        Morph_R 1 {
        > Construction_Center_L1
          Construction_Center_R [L] @2[C] 2 {
          > Seeing_Eye_L2
            Seeing_Eye_I1 [tS+I] @8[tS+F] @15[S+F]
            Seeing_Eye_under 1 (tut:dead_ends)
            Seeing_Eye_I2 2 -m- (faB > Parlor_B) 
            Seeing_Eye_L1 [tS+I] @4[tS+i] @12[tS+F] @15[S+F]
          }
          Construction_Center_L2 [I] @1[C] 1 { -missiles@2- }
        }
      }
    }
    4 (B > Landing_Site_L2)
      ("During the escape, it's an epic climb, although space jump makes it
      easier. We then continue without choices due to locked doors through
      parlor to landing site and escape.)
  }
}
Landing_Site_R2 [hS+L] @6[hS+l+F] {
> Crateria_Kihunters_L 2
  Crateria_Kihunters_R [l] 1 {
  > Moat_L
    Moat_left (tut:water_jumping)
    Moat_I [I] @13[H+F] 2 -m-
    Moat_R [I] @13[H+F] 3 {
    > West_Ocean_L
      West_Ocean_I1 [tS]
      West_Ocean_R4 [W] (tut:swimming)
        ("The return here with gravity suit dumps you into the water in
        most cases, which instantly shows you what the new suit can do.
        Next stop is back into the wrecked ship to explore more, since
        it's nearby and the map shows that through it we can get to
        Maridia. Notably, the acquisition of gravity suit itself hasn't
        immediately opened up any new routes we know of, since we didn't
        break glass tube early.) 
      West_Ocean_R5 [l] 1 5 {
      > WS_Main_L1 (f)
          ("Despite the fork here, without finding any secrets one
          quickly returns to R1 as the only viable exit...)
        WS_Main_R1 1 {
        > WS_Main_Save_L
          WS_Main_Save_save [I] @15[H+C] (tut:unpowered_rooms)
          1 (b)
            ("At this point, wrecked ship seems like a dead end...
            perhaps some external power source is necessary? But by now,
            the player should be used to hunting beyond the surface, and
            there's a lot to discover in the WS main shaft.)
        }
        WS_Main_T [S] 2 5 {
        > Attic_B
          Attic_R [I] @15[H+C] 2 { -m- (b) }
          Attic_L [I] @15[H+C] 3 -- West_Ocean_R1
          1 (b)
          ("The fight in attic on the second visit makes it easier to
          leave to the left, but an item is marked to the right.)
        }
        WS_Main_R2 [I] @15[H+C] 6 (tut:bulls) {
        > Electric_Death_L2
          Electric_Death_R 2 {
          > Crab_Maze_T
              ("It's obvious where you're going in the crab maze and
              there's no way there isn't a path through, but it's still
              hard to find it...)
            Crab_Maze_L [iS] 1 (E) {
            > Maridia_Elevator_T
              Maridia_Elevator_R [l] 1 { save }
              Maridia_Elevator_L 2 {
              > Bug_Sand_Pit_R
                Bug_Sand_Pit_L [i]
                  ("This is 'inaccessible' because chances are you'll get
                  pulled down as you try to cross the room. This is the
                  first (and probably only?) instance really of being
                  pulled unintentionally into a transition, although
                  Ice_Beam_Shutters_L1 and Crumble_Shaft_R1 are
                  post-transition surprises, along with others involving
                  combat like Big_Pink_R2 or RBr_Elevator_L1. You're able
                  to quickly return if you want to of course.)
                Bug_Sand_Pit_B [tS] (tut:sand_pits) 1 (O) {
                > Butterfly_Room_T
                  Butterfly_Room_R [I] @D[] (V)
                  Butterfly_Room_L 1 2 {
                  > Plasma_Spark_R3
                    Plasma_Spark_R2
                      ("the map shows we don't need to explore this.)
                    Plasma_Spark_R1 [I] @D[H+C] 2 {
                    > Plasma_Farm_L
                      Plasma_Farm_farm 2 (tut:plasma_beam)
                      Plasma_Farm_R 1 {
                      > Plasma_L
                        Plasma_I 1 -plasma_beam-
                        Plasma_escape 2 (tut:plasma_beam_power)
                        ("At this point, we're done with Maridia (some
                        might explore Halfie_Climb_R2, of course, but
                        that and pants are all that's left for cleanup
                        mostly). We've got two choices on the map: head
                        down to Glass_Tube, or head up to Crateria via
                        East_Ocean. Heading up seems mostly pointless,
                        so we'll go down instead.)
                        3 (fB > Boyon_Gate_Hall_R1)
                      }
                    }
                      ("Coming back through after Draygon, this is
                      somewhat missable depending on your memory of the
                      locked door and/or whether you check the map.)
                    Plasma_Spark_B [l] 1 {
                    > Oasis_T (f)
                      ("The transition into this room is via the tube,
                      which if you look carefully shows off some
                      pseudo-metroids, hinting that the stuff in between
                      is important!)
                      Oasis_L 2 {
                      > West_Sand_Hall_R
                        West_Sand_Hall_T [tS+W]
                        West_Sand_Hall_L 1 {
                        > Crab_Hole_R1
                          Crab_Hole_L1
                          Crab_Hole_descent [hS] 1 (o)
                          Crab_Hole_R2 [hS+l] 2 { -map:maridia@19- (b) }
                          Crab_Hole_L2 [hS] 3 -- Boyon_Gate_Hall_R1
                        }
                      }
                      Oasis_R 1 {
                      > East_Sand_Hall_L
                        East_Sand_Hall_T [tS+W]
                        East_Sand_Hall_R 1 {
                        > Pants_L
                          Pants_underneath 1 (b)
                            ("There's nowhere to go from the bottom of
                            pants right side, and XRay scope shows this
                            if you want to be thorough. In the process,
                            the top of pants left side is implied.)
                          2 (B > Oasis_R)
                          Pants_traversal [hS+i] @20[hS+F]
                            ("Wall jumping is required here at first
                            entry, or you'd have to come back with space
                            jump.)
                          Pants_R [hS+i] @20[hS+F]
                        }
                      }
                    }
                  }
                }
              }
            }
          }
          Electric_Death_L1 [S] 1 { -et- (b) }
            ("The camera when standing even with R doesn't even show most
            of the top tiles you'd have to scan to see this secret with
            X-ray scope. But you have had to break some ceilings in this
            room already to get here, and the wrecked ship is full of
            secrets...)
        }
        WS_Main_I [tS]
        WS_Main_L2 [I] @15[H+C] 4 { -s- (b) (tut:electricity) }
          ("At this point, we have a choice about going to the right at
          WS_Main_R2, or going back up to attic. The map marks items up
          in attic, so we'll head there first.)
        WS_Main_R3 [tS]
        WS_Main_B [S] 3 {
        > Basement_T 4
          Basement_L 1 3 {
          > WS_Map_Room_L
            WS_Map_Room_map [I] @15[H+C] 2 -map:wrecked_ship@16-
            1 3 (b)
          }
          Basement_R [hS+B] 2 { <Phantoon> -ship_power@15- (b) }
        }
      }
      West_Ocean_descent [tS+W]
      West_Ocean_R1 [iS+W] (V)
      West_Ocean_R2 [iS+W] []
      West_Ocean_R3 [iS+W] [] 4 {
      > Bowling_Alley_L1 (O)
        Bowling_Alley_strut [hS] 1 (tut:chozo_claw_morph)
          ("Honestly, it's less of a tutorial and more of a good luck
          guessing, although being locked in the room helps a bit.)
        Bowling_Alley_I1 [tS] 2
          ("Especially if you didn't visit the viewing gallery, these
          items are hard to find. If you did, they're lightly implied.)
        Bowling_Alley_I2 [tS] [tS] 3 -reserve_tank@17-
          ("Even after getting I1, unless implied by the viewing gallery,
          I2 is hard to spot.)
        Bowling_Alley_L2 [hS] 4 (-gravity_suit@18-) -- West_Ocean_R4 (O)
      }
      West_Ocean_I2 [hS+W] [hS] 3 -m-
        ("This item is marked on the map.)
      West_Ocean_I3 [iS+W] 2 -m-
        ("This item is implied lightly by the existence of the trippers
        in this room, but it's not marked on the map. After exploring
        these tunnels, finding R3 feels like a natural next move.)
    }
    1 (b)
      ("This is tantalizing, but the +-blocks are clearly unclaimed tech
      at this point. A motivated player can sequence break the missiles
      in a few ways, but without having visited the Dachora room,
      sequence breaking to west ocean seems implausible, although it also
      seems that the ocean fly was not unintentional(?).)
  }
  Crateria_Kihunters_B [l]
}
2 (fB > Red_Tower_L2)
  ("This triumphant return to the landing site, with many upgrades, feels
  good, but leaves the question: where to next? Exploring landing site
  itself is actually rewarding, but not necessarily an obvious move, and
  without having visited the Dachora, the secrets still don't feel
  accessible. With the wrecked ship locked off, The two obvious options
  would be to re-visit green Brinstar, or to go back the way you came to
  Red_Tower_L2 at least. In this playthrough, I've taken the latter
  option, although the former option mostly ends up depositing you back
  at Red Tower after picking up some notable upgrades along the way,
  including an extra E-Tank and the knowledge of wall-jumping from the
  Etecoons.)
Landing_Site_L1 [tS+I] @10[tS+i]
Landing_Site_R1 [tS+I+L] @10[tS+i+L] @12[tS+i+l]
Landing_Site_escape 4

# Items:

@1: morph
@2: missiles
@3: map:crateria
@4: bombs
@5: charge_beam
@6: super_missiles
@7: map:brinstar
@8: high_jump
@9: varia
@10: speed_booster
@11: ice_beam
@12: power_bombs
@13: grapple_beam
@14: xray
@15: ship_power
@16: map:wrecked_ship
@17: reserve_tank
@18: gravity_suit
@19: map:maridia
@20: space_jump
@21: screw_attack
@22: rainbow_beam

# Notes

- 3:19 IGT for this playthrough. Not realistic for a first playthrough
    probably.
- 57% Items for this playthrough. It was quite intentionally light; the average
    player would likely do a bit more revisits and exploring naturally.
