<?xml version="1.0" encoding="UTF-8" standalone="no"?>
<!DOCTYPE svg PUBLIC "-//W3C//DTD SVG 1.1//EN"
 "http://www.w3.org/Graphics/SVG/1.1/DTD/svg11.dtd">
<!-- Generated by graphviz version 8.0.2 (0)
 -->
<!-- Pages: 1 -->
<svg width="2645pt" height="218pt"
 viewBox="0.00 0.00 2644.62 218.00" xmlns="http://www.w3.org/2000/svg" xmlns:xlink="http://www.w3.org/1999/xlink">
<g id="graph0" class="graph" transform="scale(1 1) rotate(0) translate(4 214)">
<polygon fill="white" stroke="none" points="-4,4 -4,-214 2640.62,-214 2640.62,4 -4,4"/>
<!-- Start -->
<g id="node1" class="node">
<title>Start</title>
<ellipse fill="none" stroke="black" cx="146.6" cy="-192" rx="32.49" ry="18"/>
<text text-anchor="middle" x="146.6" y="-188.3" font-family="Times,serif" font-size="14.00">Start</text>
</g>
<!-- _u.0 -->
<g id="node2" class="node">
<title>_u.0</title>
<ellipse fill="none" stroke="black" cx="28.6" cy="-105" rx="28.7" ry="18"/>
<text text-anchor="middle" x="28.6" y="-101.3" font-family="Times,serif" font-size="14.00">_u.0</text>
</g>
<!-- Start&#45;&gt;_u.0 -->
<g id="edge1" class="edge">
<title>Start&#45;&gt;_u.0</title>
<path fill="none" stroke="black" d="M113.88,-190.4C87.6,-188.02 51.97,-180.14 32.6,-156 27.63,-149.81 25.69,-141.7 25.26,-133.82"/>
<polygon fill="black" stroke="black" points="28.77,-134.11 25.48,-124.04 21.77,-133.97 28.77,-134.11"/>
<text text-anchor="middle" x="41.6" y="-144.8" font-family="Times,serif" font-size="14.00">up</text>
</g>
<!-- left_nook -->
<g id="node3" class="node">
<title>left_nook</title>
<ellipse fill="none" stroke="black" cx="127.6" cy="-105" rx="51.99" ry="18"/>
<text text-anchor="middle" x="127.6" y="-101.3" font-family="Times,serif" font-size="14.00">left_nook</text>
</g>
<!-- Start&#45;&gt;left_nook -->
<g id="edge2" class="edge">
<title>Start&#45;&gt;left_nook</title>
<path fill="none" stroke="black" d="M134.03,-175.18C130.23,-169.47 126.55,-162.76 124.6,-156 122.61,-149.09 122.21,-141.43 122.6,-134.22"/>
<polygon fill="black" stroke="black" points="126.16,-134.75 123.71,-124.44 119.2,-134.03 126.16,-134.75"/>
<text text-anchor="middle" x="136.1" y="-144.8" font-family="Times,serif" font-size="14.00">left</text>
</g>
<!-- _u.3 -->
<g id="node4" class="node">
<title>_u.3</title>
<ellipse fill="none" stroke="black" cx="274.6" cy="-105" rx="28.7" ry="18"/>
<text text-anchor="middle" x="274.6" y="-101.3" font-family="Times,serif" font-size="14.00">_u.3</text>
</g>
<!-- Start&#45;&gt;_u.3 -->
<g id="edge3" class="edge">
<title>Start&#45;&gt;_u.3</title>
<path fill="none" stroke="black" d="M166.88,-177.53C188.29,-163.32 222.2,-140.8 246.24,-124.83"/>
<polygon fill="black" stroke="black" points="247.85,-127.3 254.25,-118.85 243.98,-121.47 247.85,-127.3"/>
<text text-anchor="middle" x="233.1" y="-144.8" font-family="Times,serif" font-size="14.00">rght</text>
</g>
<!-- _u.0&#45;&gt;Start -->
<g id="edge4" class="edge">
<title>_u.0&#45;&gt;Start</title>
<path fill="none" stroke="black" d="M45.02,-120.14C57.27,-130.47 74.6,-144.61 90.6,-156 98.52,-161.64 107.34,-167.38 115.59,-172.54"/>
<polygon fill="black" stroke="black" points="113.58,-176.03 123.93,-178.29 117.25,-170.07 113.58,-176.03"/>
<text text-anchor="middle" x="104.6" y="-144.8" font-family="Times,serif" font-size="14.00">rtrn</text>
</g>
<!-- left_nook&#45;&gt;Start -->
<g id="edge5" class="edge">
<title>left_nook&#45;&gt;Start</title>
<path fill="none" stroke="black" d="M139.46,-122.67C142.76,-128.23 145.91,-134.64 147.6,-141 149.44,-147.94 149.99,-155.61 149.89,-162.82"/>
<polygon fill="black" stroke="black" points="146.35,-162.41 149.28,-172.59 153.34,-162.81 146.35,-162.41"/>
<text text-anchor="middle" x="165.1" y="-144.8" font-family="Times,serif" font-size="14.00">rght</text>
</g>
<!-- left_nook&#45;&gt;left_nook -->
<g id="edge6" class="edge">
<title>left_nook&#45;&gt;left_nook</title>
<path fill="none" stroke="black" d="M174.7,-113.11C187.68,-112.71 197.59,-110.01 197.59,-105 197.59,-101.48 192.69,-99.09 185.27,-97.85"/>
<polygon fill="black" stroke="black" points="185.98,-94.31 175.7,-96.89 185.35,-101.28 185.98,-94.31"/>
<text text-anchor="middle" x="212.59" y="-101.3" font-family="Times,serif" font-size="14.00">grck</text>
</g>
<!-- _u.2 -->
<g id="node5" class="node">
<title>_u.2</title>
<ellipse fill="none" stroke="black" cx="127.6" cy="-18" rx="28.7" ry="18"/>
<text text-anchor="middle" x="127.6" y="-14.3" font-family="Times,serif" font-size="14.00">_u.2</text>
</g>
<!-- left_nook&#45;&gt;_u.2 -->
<g id="edge7" class="edge">
<title>left_nook&#45;&gt;_u.2</title>
<path fill="none" stroke="black" d="M116.32,-87.26C113.18,-81.69 110.2,-75.3 108.6,-69 106.55,-60.96 108.25,-52.43 111.33,-44.75"/>
<polygon fill="black" stroke="black" points="114.9,-46.43 116.16,-35.91 108.61,-43.35 114.9,-46.43"/>
<text text-anchor="middle" x="117.6" y="-57.8" font-family="Times,serif" font-size="14.00">up</text>
</g>
<!-- _u.3&#45;&gt;Start -->
<g id="edge9" class="edge">
<title>_u.3&#45;&gt;Start</title>
<path fill="none" stroke="black" d="M270.69,-123.1C267.35,-133.98 261.48,-147.56 251.6,-156 229.13,-175.19 215.52,-164.32 187.6,-174 185.63,-174.68 183.62,-175.41 181.61,-176.16"/>
<polygon fill="black" stroke="black" points="180.6,-173.19 172.57,-180.09 183.16,-179.71 180.6,-173.19"/>
<text text-anchor="middle" x="276.6" y="-144.8" font-family="Times,serif" font-size="14.00">rtrn</text>
</g>
<!-- _u.2&#45;&gt;left_nook -->
<g id="edge8" class="edge">
<title>_u.2&#45;&gt;left_nook</title>
<path fill="none" stroke="black" d="M127.6,-36.47C127.6,-47.86 127.6,-62.97 127.6,-76.02"/>
<polygon fill="black" stroke="black" points="124.1,-75.8 127.6,-85.8 131.1,-75.8 124.1,-75.8"/>
<text text-anchor="middle" x="141.6" y="-57.8" font-family="Times,serif" font-size="14.00">rtrn</text>
</g>
<!-- A = &quot;_flight&quot; -->
<g id="node6" class="node">
<title>A = &quot;_flight&quot;</title>
<ellipse fill="none" stroke="black" cx="258.6" cy="-192" rx="61.99" ry="18"/>
<text text-anchor="middle" x="258.6" y="-188.3" font-family="Times,serif" font-size="14.00">A = &quot;_flight&quot;</text>
</g>
<!-- B = &quot;O&quot; -->
<g id="node7" class="node">
<title>B = &quot;O&quot;</title>
<ellipse fill="none" stroke="black" cx="379.6" cy="-192" rx="40.89" ry="18"/>
<text text-anchor="middle" x="379.6" y="-188.3" font-family="Times,serif" font-size="14.00">B = &quot;O&quot;</text>
</g>
<!-- C = &quot;attack&quot; -->
<g id="node8" class="node">
<title>C = &quot;attack&quot;</title>
<ellipse fill="none" stroke="black" cx="499.6" cy="-192" rx="61.19" ry="18"/>
<text text-anchor="middle" x="499.6" y="-188.3" font-family="Times,serif" font-size="14.00">C = &quot;attack&quot;</text>
</g>
<!-- D = &quot;X&quot; -->
<g id="node9" class="node">
<title>D = &quot;X&quot;</title>
<ellipse fill="none" stroke="black" cx="619.6" cy="-192" rx="40.89" ry="18"/>
<text text-anchor="middle" x="619.6" y="-188.3" font-family="Times,serif" font-size="14.00">D = &quot;X&quot;</text>
</g>
<!-- E = &quot;_tall_narrow&quot; -->
<g id="node10" class="node">
<title>E = &quot;_tall_narrow&quot;</title>
<ellipse fill="none" stroke="black" cx="769.6" cy="-192" rx="90.98" ry="18"/>
<text text-anchor="middle" x="769.6" y="-188.3" font-family="Times,serif" font-size="14.00">E = &quot;_tall_narrow&quot;</text>
</g>
<!-- A = &quot;[]&quot; -->
<g id="node11" class="node">
<title>A = &quot;[]&quot;</title>
<ellipse fill="none" stroke="black" cx="920.6" cy="-192" rx="41.69" ry="18"/>
<text text-anchor="middle" x="920.6" y="-188.3" font-family="Times,serif" font-size="14.00">A = &quot;[]&quot;</text>
</g>
<!-- B = &quot;[{\\&quot;charges\\&quot;: null, \\&quot;delay\\&quot;: null, \\&quot;type\\&quot;: \\&quot;gain\\&quot;, \\&quot;value\\&quot;: {\\&quot;__decode_as__\\&quot;: \\&quot;tuple\\&quot;, \\&quot;values\\&quot;: [\\&quot;geo\\&quot;, 15]}}, {\\&quot;charges\\&quot;: null, \\&quot;delay\\&quot;: null, \\&quot;type\\&quot;: \\&quot;deactivate\\&quot;, \\&quot;value\\&quot;: null}]&quot; -->
<g id="node12" class="node">
<title>B = &quot;[{\\&quot;charges\\&quot;: null, \\&quot;delay\\&quot;: null, \\&quot;type\\&quot;: \\&quot;gain\\&quot;, \\&quot;value\\&quot;: {\\&quot;__decode_as__\\&quot;: \\&quot;tuple\\&quot;, \\&quot;values\\&quot;: [\\&quot;geo\\&quot;, 15]}}, {\\&quot;charges\\&quot;: null, \\&quot;delay\\&quot;: null, \\&quot;type\\&quot;: \\&quot;deactivate\\&quot;, \\&quot;value\\&quot;: null}]&quot;</title>
<ellipse fill="none" stroke="black" cx="1808.6" cy="-192" rx="828.05" ry="18"/>
<text text-anchor="middle" x="1808.6" y="-188.3" font-family="Times,serif" font-size="14.00">B = &quot;[{\&quot;charges\&quot;: null, \&quot;delay\&quot;: null, \&quot;type\&quot;: \&quot;gain\&quot;, \&quot;value\&quot;: {\&quot;__decode_as__\&quot;: \&quot;tuple\&quot;, \&quot;values\&quot;: [\&quot;geo\&quot;, 15]}}, {\&quot;charges\&quot;: null, \&quot;delay\&quot;: null, \&quot;type\&quot;: \&quot;deactivate\&quot;, \&quot;value\&quot;: null}]&quot;</text>
</g>
</g>
</svg>
