digraph {
  unknownCount=4

  "Start" [
    z_Wilds=1
    ann="[]"
  ]
    "Start" -> "_u.0" [
      label="up"
      fullLabel="up"
      reciprocal="return"
      req=A
      ann="[]"
    ]
    "Start" -> "left_nook" [
      label="left"
      fullLabel="left"
      reciprocal="right"
      req=B
      effects=A
      ann="[]"
    ]
    "Start" -> "_u.3" [
      label="rght"
      fullLabel="right"
      reciprocal="return"
      req=C
      ann="[]"
    ]
  "_u.0" [
    t_unknown="1"
    ann="[]"
  ]
    "_u.0" -> "Start" [
      label="rtrn"
      fullLabel="return"
      reciprocal="up"
      ann="[]"
    ]
  "left_nook" [
    z_Wilds=1
    ann="[]"
  ]
    "left_nook" -> "Start" [
      label="rght"
      fullLabel="right"
      reciprocal="left"
      req=B
      effects=A
      ann="[]"
    ]
    "left_nook" -> "left_nook" [
      label="grck"
      fullLabel="geo_rock"
      req=D
      effects=B
      ann="[]"
    ]
    "left_nook" -> "_u.2" [
      label="up"
      fullLabel="up"
      reciprocal="return"
      req=E
      ann="[]"
    ]
  "_u.2" [
    t_unknown="1"
    ann="[]"
  ]
    "_u.2" -> "left_nook" [
      label="rtrn"
      fullLabel="return"
      reciprocal="up"
      ann="[]"
    ]
  "_u.3" [
    t_unknown="1"
    ann="[]"
  ]
    "_u.3" -> "Start" [
      label="rtrn"
      fullLabel="return"
      reciprocal="right"
      ann="[]"
    ]
  subgraph "_Wilds" {
    label=Wilds
    level=1
    parents="[]"
    "Start"
    "left_nook"
  }
  equivalences="{}"
  subgraph __requirements__ {
    "A = \"_flight\""
    "B = \"O\""
    "C = \"attack\""
    "D = \"X\""
    "E = \"_tall_narrow\""
  }
  subgraph __effects__ {
    "A = \"[]\""
    "B = \"[{\\\"charges\\\": null, \\\"delay\\\": null, \\\"type\\\": \\\"gain\\\", \\\"value\\\": {\\\"__decode_as__\\\": \\\"tuple\\\", \\\"values\\\": [\\\"geo\\\", 15]}}, {\\\"charges\\\": null, \\\"delay\\\": null, \\\"type\\\": \\\"deactivate\\\", \\\"value\\\": null}]\""
  }
}
