<?xml version="1.0" encoding="UTF-8" standalone="no"?>
<!DOCTYPE svg PUBLIC "-//W3C//DTD SVG 1.1//EN"
 "http://www.w3.org/Graphics/SVG/1.1/DTD/svg11.dtd">
<!-- Generated by graphviz version 7.1.0 (0)
 -->
<!-- Pages: 1 -->
<svg width="1836pt" height="1388pt"
 viewBox="0.00 0.00 1835.74 1388.00" xmlns="http://www.w3.org/2000/svg" xmlns:xlink="http://www.w3.org/1999/xlink">
<g id="graph0" class="graph" transform="scale(1 1) rotate(0) translate(4 1384)">
<polygon fill="white" stroke="none" points="-4,4 -4,-1384 1831.74,-1384 1831.74,4 -4,4"/>
<g id="clust1" class="cluster">
<title>cluster_Mokumana_beach</title>
<polygon fill="none" stroke="black" points="8,-253 8,-1372 557,-1372 557,-253 8,-253"/>
<text text-anchor="middle" x="282.5" y="-1356.8" font-family="Times,serif" font-size="14.00">Mokumana_beach</text>
</g>
<!-- Start -->
<g id="node1" class="node">
<title>Start</title>
<ellipse fill="none" stroke="black" cx="504" cy="-1323" rx="32.49" ry="18"/>
<text text-anchor="middle" x="504" y="-1319.3" font-family="Times,serif" font-size="14.00">Start</text>
</g>
<!-- _u.1 -->
<g id="node2" class="node">
<title>_u.1</title>
<ellipse fill="none" stroke="black" cx="595" cy="-1236" rx="28.7" ry="18"/>
<text text-anchor="middle" x="595" y="-1232.3" font-family="Times,serif" font-size="14.00">_u.1</text>
</g>
<!-- Start&#45;&gt;_u.1 -->
<g id="edge1" class="edge">
<title>Start&#45;&gt;_u.1</title>
<path fill="none" stroke="black" d="M516.32,-1306.37C524.74,-1296.1 536.44,-1282.66 548,-1272 553.83,-1266.63 560.47,-1261.28 566.88,-1256.44"/>
<polygon fill="black" stroke="black" points="568.77,-1259.4 574.77,-1250.67 564.63,-1253.75 568.77,-1259.4"/>
<text text-anchor="middle" x="559.5" y="-1275.8" font-family="Times,serif" font-size="14.00">left</text>
</g>
<!-- Mokumana_beach_inland -->
<g id="node3" class="node">
<title>Mokumana_beach_inland</title>
<ellipse fill="none" stroke="black" cx="424" cy="-1236" rx="124.28" ry="18"/>
<text text-anchor="middle" x="424" y="-1232.3" font-family="Times,serif" font-size="14.00">Mokumana_beach_inland</text>
</g>
<!-- Start&#45;&gt;Mokumana_beach_inland -->
<g id="edge2" class="edge">
<title>Start&#45;&gt;Mokumana_beach_inland</title>
<path fill="none" stroke="black" d="M476.87,-1312.64C464.1,-1307 449.59,-1298.62 440,-1287 434.91,-1280.84 431.44,-1273.03 429.06,-1265.43"/>
<polygon fill="black" stroke="black" points="432.46,-1264.6 426.61,-1255.76 425.67,-1266.32 432.46,-1264.6"/>
<text text-anchor="middle" x="454.5" y="-1275.8" font-family="Times,serif" font-size="14.00">rght</text>
</g>
<!-- _u.1&#45;&gt;Start -->
<g id="edge3" class="edge">
<title>_u.1&#45;&gt;Start</title>
<path fill="none" stroke="black" d="M589.95,-1253.92C586.12,-1264.46 579.97,-1277.72 571,-1287 562.72,-1295.56 551.89,-1302.45 541.36,-1307.78"/>
<polygon fill="black" stroke="black" points="540,-1304.56 532.41,-1311.95 542.95,-1310.9 540,-1304.56"/>
<text text-anchor="middle" x="596" y="-1275.8" font-family="Times,serif" font-size="14.00">rtrn</text>
</g>
<!-- Mokumana_beach_inland&#45;&gt;Start -->
<g id="edge4" class="edge">
<title>Mokumana_beach_inland&#45;&gt;Start</title>
<path fill="none" stroke="black" d="M448.48,-1253.92C455.48,-1259.3 462.86,-1265.54 469,-1272 475.96,-1279.32 482.58,-1288.11 488.16,-1296.27"/>
<polygon fill="black" stroke="black" points="485.15,-1298.06 493.57,-1304.5 491,-1294.22 485.15,-1298.06"/>
<text text-anchor="middle" x="492.5" y="-1275.8" font-family="Times,serif" font-size="14.00">left</text>
</g>
<!-- Mokumana_forest -->
<g id="node4" class="node">
<title>Mokumana_forest</title>
<ellipse fill="none" stroke="black" cx="442" cy="-1149" rx="90.98" ry="18"/>
<text text-anchor="middle" x="442" y="-1145.3" font-family="Times,serif" font-size="14.00">Mokumana_forest</text>
</g>
<!-- Mokumana_beach_inland&#45;&gt;Mokumana_forest -->
<g id="edge5" class="edge">
<title>Mokumana_beach_inland&#45;&gt;Mokumana_forest</title>
<path fill="none" stroke="black" d="M412.47,-1217.65C407.49,-1207.92 403.68,-1195.64 408,-1185 409.33,-1181.73 411.12,-1178.6 413.2,-1175.64"/>
<polygon fill="black" stroke="black" points="415.84,-1177.94 419.58,-1168.03 410.48,-1173.44 415.84,-1177.94"/>
<text text-anchor="middle" x="422.5" y="-1188.8" font-family="Times,serif" font-size="14.00">rght</text>
</g>
<!-- Mokumana_forest&#45;&gt;Mokumana_beach_inland -->
<g id="edge6" class="edge">
<title>Mokumana_forest&#45;&gt;Mokumana_beach_inland</title>
<path fill="none" stroke="black" d="M441.36,-1167.3C440.73,-1177.01 439.48,-1189.29 437,-1200 436.46,-1202.32 435.81,-1204.69 435.09,-1207.06"/>
<polygon fill="black" stroke="black" points="431.82,-1205.8 431.87,-1216.39 438.44,-1208.08 431.82,-1205.8"/>
<text text-anchor="middle" x="451.5" y="-1188.8" font-family="Times,serif" font-size="14.00">left</text>
</g>
<!-- hole -->
<g id="node5" class="node">
<title>hole</title>
<ellipse fill="none" stroke="black" cx="482" cy="-1062" rx="29.8" ry="18"/>
<text text-anchor="middle" x="482" y="-1058.3" font-family="Times,serif" font-size="14.00">hole</text>
</g>
<!-- Mokumana_forest&#45;&gt;hole -->
<g id="edge7" class="edge">
<title>Mokumana_forest&#45;&gt;hole</title>
<path fill="none" stroke="black" d="M436.92,-1130.54C434.97,-1120.55 434.22,-1108.05 439,-1098 441.91,-1091.87 446.48,-1086.47 451.57,-1081.85"/>
<polygon fill="black" stroke="black" points="453.58,-1084.73 459.24,-1075.78 449.23,-1079.24 453.58,-1084.73"/>
<text text-anchor="middle" x="453.5" y="-1101.8" font-family="Times,serif" font-size="14.00">rght</text>
</g>
<!-- hole&#45;&gt;Mokumana_forest -->
<g id="edge8" class="edge">
<title>hole&#45;&gt;Mokumana_forest</title>
<path fill="none" stroke="black" d="M478.81,-1080.23C476.58,-1090.14 473.08,-1102.64 468,-1113 466.56,-1115.93 464.87,-1118.87 463.05,-1121.72"/>
<polygon fill="black" stroke="black" points="460.29,-1119.57 457.43,-1129.77 466.03,-1123.58 460.29,-1119.57"/>
<text text-anchor="middle" x="485.5" y="-1101.8" font-family="Times,serif" font-size="14.00">left</text>
</g>
<!-- forsfor_lake -->
<g id="node6" class="node">
<title>forsfor_lake</title>
<ellipse fill="none" stroke="black" cx="485" cy="-975" rx="63.89" ry="18"/>
<text text-anchor="middle" x="485" y="-971.3" font-family="Times,serif" font-size="14.00">forsfor_lake</text>
</g>
<!-- hole&#45;&gt;forsfor_lake -->
<g id="edge9" class="edge">
<title>hole&#45;&gt;forsfor_lake</title>
<path fill="none" stroke="black" d="M460.31,-1049.15C446.2,-1039.75 431.68,-1025.77 439,-1011 441.27,-1006.43 444.45,-1002.29 448.1,-998.59"/>
<polygon fill="black" stroke="black" points="450.21,-1001.39 455.49,-992.2 445.64,-996.09 450.21,-1001.39"/>
<text text-anchor="middle" x="453.5" y="-1014.8" font-family="Times,serif" font-size="14.00">rght</text>
</g>
<!-- forsfor_lake&#45;&gt;hole -->
<g id="edge10" class="edge">
<title>forsfor_lake&#45;&gt;hole</title>
<path fill="none" stroke="black" d="M484.38,-993.47C483.99,-1004.74 483.46,-1019.67 483,-1032.62"/>
<polygon fill="black" stroke="black" points="479.52,-1032.17 482.66,-1042.29 486.51,-1032.42 479.52,-1032.17"/>
<text text-anchor="middle" x="495.5" y="-1014.8" font-family="Times,serif" font-size="14.00">left</text>
</g>
<!-- _u.5 -->
<g id="node7" class="node">
<title>_u.5</title>
<ellipse fill="none" stroke="black" cx="594" cy="-888" rx="28.7" ry="18"/>
<text text-anchor="middle" x="594" y="-884.3" font-family="Times,serif" font-size="14.00">_u.5</text>
</g>
<!-- forsfor_lake&#45;&gt;_u.5 -->
<g id="edge11" class="edge">
<title>forsfor_lake&#45;&gt;_u.5</title>
<path fill="none" stroke="black" d="M491.89,-956.72C496.91,-946.05 504.64,-932.76 515,-924 531.77,-909.83 540.99,-915.04 561,-906 561.47,-905.79 561.94,-905.57 562.42,-905.35"/>
<polygon fill="black" stroke="black" points="563.66,-908.64 571.14,-901.14 560.61,-902.34 563.66,-908.64"/>
<text text-anchor="middle" x="529" y="-927.8" font-family="Times,serif" font-size="14.00">uplf</text>
</g>
<!-- _u.6 -->
<g id="node8" class="node">
<title>_u.6</title>
<ellipse fill="none" stroke="black" cx="671" cy="-888" rx="28.7" ry="18"/>
<text text-anchor="middle" x="671" y="-884.3" font-family="Times,serif" font-size="14.00">_u.6</text>
</g>
<!-- forsfor_lake&#45;&gt;_u.6 -->
<g id="edge12" class="edge">
<title>forsfor_lake&#45;&gt;_u.6</title>
<path fill="none" stroke="black" d="M530.21,-961.93C549.65,-956.05 572.37,-948.24 592,-939 597.3,-936.5 621.75,-920.92 642.06,-907.8"/>
<polygon fill="black" stroke="black" points="643.83,-910.83 650.33,-902.46 640.03,-904.95 643.83,-910.83"/>
<text text-anchor="middle" x="632" y="-927.8" font-family="Times,serif" font-size="14.00">uprg</text>
</g>
<!-- forsfor_pool -->
<g id="node9" class="node">
<title>forsfor_pool</title>
<ellipse fill="none" stroke="black" cx="435" cy="-888" rx="64.19" ry="18"/>
<text text-anchor="middle" x="435" y="-884.3" font-family="Times,serif" font-size="14.00">forsfor_pool</text>
</g>
<!-- forsfor_lake&#45;&gt;forsfor_pool -->
<g id="edge13" class="edge">
<title>forsfor_lake&#45;&gt;forsfor_pool</title>
<path fill="none" stroke="black" d="M442.73,-961.09C432.57,-955.9 422.95,-948.75 417,-939 412.71,-931.96 413.6,-923.74 416.59,-916.03"/>
<polygon fill="black" stroke="black" points="419.6,-917.83 420.99,-907.32 413.36,-914.67 419.6,-917.83"/>
<text text-anchor="middle" x="431.5" y="-927.8" font-family="Times,serif" font-size="14.00">rght</text>
</g>
<!-- _u.5&#45;&gt;forsfor_lake -->
<g id="edge14" class="edge">
<title>_u.5&#45;&gt;forsfor_lake</title>
<path fill="none" stroke="black" d="M580.53,-903.95C570.69,-914.41 556.72,-928.37 543,-939 536.88,-943.74 530.07,-948.36 523.33,-952.61"/>
<polygon fill="black" stroke="black" points="521.61,-949.55 514.89,-957.74 525.25,-955.53 521.61,-949.55"/>
<text text-anchor="middle" x="574" y="-927.8" font-family="Times,serif" font-size="14.00">rtrn</text>
</g>
<!-- _u.6&#45;&gt;forsfor_lake -->
<g id="edge15" class="edge">
<title>_u.6&#45;&gt;forsfor_lake</title>
<path fill="none" stroke="black" d="M667.62,-906.29C664.59,-917.25 659,-930.86 649,-939 634.31,-950.96 592.16,-959.81 554.28,-965.61"/>
<polygon fill="black" stroke="black" points="554.1,-962.1 544.71,-967.02 555.12,-969.03 554.1,-962.1"/>
<text text-anchor="middle" x="674" y="-927.8" font-family="Times,serif" font-size="14.00">rtrn</text>
</g>
<!-- forsfor_pool&#45;&gt;forsfor_lake -->
<g id="edge16" class="edge">
<title>forsfor_pool&#45;&gt;forsfor_lake</title>
<path fill="none" stroke="black" d="M445.1,-906.18C452.01,-917.92 461.31,-933.73 469.19,-947.13"/>
<polygon fill="black" stroke="black" points="466.03,-948.65 474.11,-955.49 472.06,-945.1 466.03,-948.65"/>
<text text-anchor="middle" x="474.5" y="-927.8" font-family="Times,serif" font-size="14.00">left</text>
</g>
<!-- fosfor_lake_ledge -->
<g id="node10" class="node">
<title>fosfor_lake_ledge</title>
<ellipse fill="none" stroke="black" cx="396" cy="-801" rx="87.18" ry="18"/>
<text text-anchor="middle" x="396" y="-797.3" font-family="Times,serif" font-size="14.00">fosfor_lake_ledge</text>
</g>
<!-- forsfor_pool&#45;&gt;fosfor_lake_ledge -->
<g id="edge17" class="edge">
<title>forsfor_pool&#45;&gt;fosfor_lake_ledge</title>
<path fill="none" stroke="black" d="M410.87,-871.01C404.89,-865.73 399.26,-859.31 396,-852 393.06,-845.42 392.03,-837.85 391.98,-830.63"/>
<polygon fill="black" stroke="black" points="395.46,-831.08 392.52,-820.9 388.47,-830.69 395.46,-831.08"/>
<text text-anchor="middle" x="405" y="-840.8" font-family="Times,serif" font-size="14.00">up</text>
</g>
<!-- fosfor_lake_ledge&#45;&gt;forsfor_pool -->
<g id="edge18" class="edge">
<title>fosfor_lake_ledge&#45;&gt;forsfor_pool</title>
<path fill="none" stroke="black" d="M405.24,-819.32C408.14,-824.91 411.29,-831.18 414,-837 417.33,-844.14 420.73,-851.95 423.79,-859.24"/>
<polygon fill="black" stroke="black" points="420.5,-860.43 427.55,-868.33 426.96,-857.75 420.5,-860.43"/>
<text text-anchor="middle" x="440" y="-840.8" font-family="Times,serif" font-size="14.00">down</text>
</g>
<!-- fosfor_lake_lledge -->
<g id="node11" class="node">
<title>fosfor_lake_lledge</title>
<ellipse fill="none" stroke="black" cx="268" cy="-714" rx="89.88" ry="18"/>
<text text-anchor="middle" x="268" y="-710.3" font-family="Times,serif" font-size="14.00">fosfor_lake_lledge</text>
</g>
<!-- fosfor_lake_ledge&#45;&gt;fosfor_lake_lledge -->
<g id="edge19" class="edge">
<title>fosfor_lake_ledge&#45;&gt;fosfor_lake_lledge</title>
<path fill="none" stroke="black" d="M325.43,-790.12C309.42,-784.92 293.71,-777 282,-765 276.33,-759.19 272.92,-751.28 270.88,-743.47"/>
<polygon fill="black" stroke="black" points="274.35,-743.01 269.04,-733.84 267.48,-744.32 274.35,-743.01"/>
<text text-anchor="middle" x="293.5" y="-753.8" font-family="Times,serif" font-size="14.00">left</text>
</g>
<!-- mushroom_ledge -->
<g id="node12" class="node">
<title>mushroom_ledge</title>
<ellipse fill="none" stroke="black" cx="462" cy="-714" rx="86.38" ry="18"/>
<text text-anchor="middle" x="462" y="-710.3" font-family="Times,serif" font-size="14.00">mushroom_ledge</text>
</g>
<!-- fosfor_lake_ledge&#45;&gt;mushroom_ledge -->
<g id="edge20" class="edge">
<title>fosfor_lake_ledge&#45;&gt;mushroom_ledge</title>
<path fill="none" stroke="black" d="M394.4,-782.96C394.27,-772.64 395.67,-759.65 402,-750 405.23,-745.09 409.4,-740.77 414.04,-737.01"/>
<polygon fill="black" stroke="black" points="416,-739.92 422.19,-731.32 411.99,-734.18 416,-739.92"/>
<text text-anchor="middle" x="416.5" y="-753.8" font-family="Times,serif" font-size="14.00">rght</text>
</g>
<!-- fosfor_lake_lledge&#45;&gt;fosfor_lake_ledge -->
<g id="edge21" class="edge">
<title>fosfor_lake_lledge&#45;&gt;fosfor_lake_ledge</title>
<path fill="none" stroke="black" d="M292.92,-731.55C312.46,-744.53 339.88,-762.73 361.53,-777.11"/>
<polygon fill="black" stroke="black" points="359.49,-779.96 369.76,-782.57 363.36,-774.12 359.49,-779.96"/>
<text text-anchor="middle" x="354.5" y="-753.8" font-family="Times,serif" font-size="14.00">rght</text>
</g>
<!-- heart_shaped_cavern -->
<g id="node13" class="node">
<title>heart_shaped_cavern</title>
<ellipse fill="none" stroke="black" cx="269" cy="-627" rx="104.78" ry="18"/>
<text text-anchor="middle" x="269" y="-623.3" font-family="Times,serif" font-size="14.00">heart_shaped_cavern</text>
</g>
<!-- fosfor_lake_lledge&#45;&gt;heart_shaped_cavern -->
<g id="edge22" class="edge">
<title>fosfor_lake_lledge&#45;&gt;heart_shaped_cavern</title>
<path fill="none" stroke="black" d="M248.12,-696.25C239.55,-686.91 232.42,-674.81 237,-663 238.2,-659.91 239.82,-656.92 241.69,-654.08"/>
<polygon fill="black" stroke="black" points="244.41,-656.28 247.86,-646.26 238.92,-651.94 244.41,-656.28"/>
<text text-anchor="middle" x="248.5" y="-666.8" font-family="Times,serif" font-size="14.00">left</text>
</g>
<!-- mushroom_ledge&#45;&gt;fosfor_lake_ledge -->
<g id="edge46" class="edge">
<title>mushroom_ledge&#45;&gt;fosfor_lake_ledge</title>
<path fill="none" stroke="black" d="M452.59,-732.32C446.87,-742.25 439.12,-754.75 431,-765 428.39,-768.29 425.5,-771.6 422.54,-774.8"/>
<polygon fill="black" stroke="black" points="420.15,-772.24 415.7,-781.85 425.17,-777.11 420.15,-772.24"/>
<text text-anchor="middle" x="453.5" y="-753.8" font-family="Times,serif" font-size="14.00">left</text>
</g>
<!-- heart_shaped_cavern&#45;&gt;fosfor_lake_lledge -->
<g id="edge23" class="edge">
<title>heart_shaped_cavern&#45;&gt;fosfor_lake_lledge</title>
<path fill="none" stroke="black" d="M268.79,-645.47C268.66,-656.74 268.49,-671.67 268.33,-684.62"/>
<polygon fill="black" stroke="black" points="264.84,-684.25 268.22,-694.29 271.84,-684.33 264.84,-684.25"/>
<text text-anchor="middle" x="283.5" y="-666.8" font-family="Times,serif" font-size="14.00">rght</text>
</g>
<!-- high_Mokumana_forest -->
<g id="node14" class="node">
<title>high_Mokumana_forest</title>
<ellipse fill="none" stroke="black" cx="275" cy="-540" rx="115.08" ry="18"/>
<text text-anchor="middle" x="275" y="-536.3" font-family="Times,serif" font-size="14.00">high_Mokumana_forest</text>
</g>
<!-- heart_shaped_cavern&#45;&gt;high_Mokumana_forest -->
<g id="edge24" class="edge">
<title>heart_shaped_cavern&#45;&gt;high_Mokumana_forest</title>
<path fill="none" stroke="black" d="M253.13,-608.76C246.36,-599.28 240.86,-587.2 245,-576 246.15,-572.9 247.7,-569.9 249.5,-567.03"/>
<polygon fill="black" stroke="black" points="252.24,-569.21 255.45,-559.11 246.64,-565.01 252.24,-569.21"/>
<text text-anchor="middle" x="254" y="-579.8" font-family="Times,serif" font-size="14.00">up</text>
</g>
<!-- high_Mokumana_forest&#45;&gt;heart_shaped_cavern -->
<g id="edge25" class="edge">
<title>high_Mokumana_forest&#45;&gt;heart_shaped_cavern</title>
<path fill="none" stroke="black" d="M273.77,-558.47C272.97,-569.74 271.92,-584.67 271,-597.62"/>
<polygon fill="black" stroke="black" points="267.53,-597.07 270.32,-607.29 274.52,-597.56 267.53,-597.07"/>
<text text-anchor="middle" x="292" y="-579.8" font-family="Times,serif" font-size="14.00">down</text>
</g>
<!-- high_Mokumana_forest_edge -->
<g id="node15" class="node">
<title>high_Mokumana_forest_edge</title>
<ellipse fill="none" stroke="black" cx="156" cy="-453" rx="139.98" ry="18"/>
<text text-anchor="middle" x="156" y="-449.3" font-family="Times,serif" font-size="14.00">high_Mokumana_forest_edge</text>
</g>
<!-- high_Mokumana_forest&#45;&gt;high_Mokumana_forest_edge -->
<g id="edge26" class="edge">
<title>high_Mokumana_forest&#45;&gt;high_Mokumana_forest_edge</title>
<path fill="none" stroke="black" d="M235.64,-522.61C224.94,-517.37 213.65,-511.06 204,-504 194.49,-497.04 185.23,-488.08 177.42,-479.68"/>
<polygon fill="black" stroke="black" points="180.14,-477.47 170.86,-472.35 174.92,-482.14 180.14,-477.47"/>
<text text-anchor="middle" x="215.5" y="-492.8" font-family="Times,serif" font-size="14.00">left</text>
</g>
<!-- horn_caterpillar_cavern -->
<g id="node16" class="node">
<title>horn_caterpillar_cavern</title>
<ellipse fill="none" stroke="black" cx="431" cy="-453" rx="117.78" ry="18"/>
<text text-anchor="middle" x="431" y="-449.3" font-family="Times,serif" font-size="14.00">horn_caterpillar_cavern</text>
</g>
<!-- high_Mokumana_forest&#45;&gt;horn_caterpillar_cavern -->
<g id="edge27" class="edge">
<title>high_Mokumana_forest&#45;&gt;horn_caterpillar_cavern</title>
<path fill="none" stroke="black" d="M304.92,-522.19C322.39,-512.42 344.89,-499.92 365,-489 372.77,-484.78 381.09,-480.32 389.11,-476.06"/>
<polygon fill="black" stroke="black" points="390.51,-479.28 397.7,-471.5 387.23,-473.09 390.51,-479.28"/>
<text text-anchor="middle" x="379.5" y="-492.8" font-family="Times,serif" font-size="14.00">rght</text>
</g>
<!-- high_Mokumana_forest_edge&#45;&gt;high_Mokumana_forest -->
<g id="edge28" class="edge">
<title>high_Mokumana_forest_edge&#45;&gt;high_Mokumana_forest</title>
<path fill="none" stroke="black" d="M195.73,-470.57C206.32,-475.78 217.46,-482.02 227,-489 236.51,-495.96 245.77,-504.92 253.58,-513.32"/>
<polygon fill="black" stroke="black" points="250.86,-515.53 260.14,-520.65 256.08,-510.86 250.86,-515.53"/>
<text text-anchor="middle" x="259.5" y="-492.8" font-family="Times,serif" font-size="14.00">rght</text>
</g>
<!-- treasure_ledge -->
<g id="node17" class="node">
<title>treasure_ledge</title>
<ellipse fill="none" stroke="black" cx="156" cy="-366" rx="75.29" ry="18"/>
<text text-anchor="middle" x="156" y="-362.3" font-family="Times,serif" font-size="14.00">treasure_ledge</text>
</g>
<!-- high_Mokumana_forest_edge&#45;&gt;treasure_ledge -->
<g id="edge29" class="edge">
<title>high_Mokumana_forest_edge&#45;&gt;treasure_ledge</title>
<path fill="none" stroke="black" d="M143.16,-434.77C137.62,-425.29 133.02,-413.2 136,-402 136.7,-399.37 137.64,-396.74 138.75,-394.16"/>
<polygon fill="black" stroke="black" points="141.8,-395.87 143.24,-385.37 135.57,-392.68 141.8,-395.87"/>
<text text-anchor="middle" x="145" y="-405.8" font-family="Times,serif" font-size="14.00">up</text>
</g>
<!-- horn_caterpillar_cavern&#45;&gt;high_Mokumana_forest -->
<g id="edge30" class="edge">
<title>horn_caterpillar_cavern&#45;&gt;high_Mokumana_forest</title>
<path fill="none" stroke="black" d="M422.17,-471.11C415.73,-482 406.04,-495.59 394,-504 383.24,-511.52 370.86,-517.44 358.25,-522.1"/>
<polygon fill="black" stroke="black" points="357.39,-518.69 349.05,-525.23 359.65,-525.32 357.39,-518.69"/>
<text text-anchor="middle" x="420.5" y="-492.8" font-family="Times,serif" font-size="14.00">left</text>
</g>
<!-- telescope&#45;ledge -->
<g id="node18" class="node">
<title>telescope&#45;ledge</title>
<ellipse fill="none" stroke="black" cx="472" cy="-366" rx="76.89" ry="18"/>
<text text-anchor="middle" x="472" y="-362.3" font-family="Times,serif" font-size="14.00">telescope&#45;ledge</text>
</g>
<!-- horn_caterpillar_cavern&#45;&gt;telescope&#45;ledge -->
<g id="edge31" class="edge">
<title>horn_caterpillar_cavern&#45;&gt;telescope&#45;ledge</title>
<path fill="none" stroke="black" d="M427.98,-434.56C427.06,-424.57 427.31,-412.07 432,-402 433.78,-398.18 436.2,-394.61 438.97,-391.32"/>
<polygon fill="black" stroke="black" points="441.31,-393.92 445.88,-384.36 436.35,-388.99 441.31,-393.92"/>
<text text-anchor="middle" x="441" y="-405.8" font-family="Times,serif" font-size="14.00">up</text>
</g>
<!-- treasure_ledge&#45;&gt;high_Mokumana_forest_edge -->
<g id="edge35" class="edge">
<title>treasure_ledge&#45;&gt;high_Mokumana_forest_edge</title>
<path fill="none" stroke="black" d="M156,-384.47C156,-395.74 156,-410.67 156,-423.62"/>
<polygon fill="black" stroke="black" points="152.5,-423.29 156,-433.29 159.5,-423.29 152.5,-423.29"/>
<text text-anchor="middle" x="170" y="-405.8" font-family="Times,serif" font-size="14.00">rtrn</text>
</g>
<!-- dip -->
<g id="node20" class="node">
<title>dip</title>
<ellipse fill="none" stroke="black" cx="108" cy="-279" rx="27" ry="18"/>
<text text-anchor="middle" x="108" y="-275.3" font-family="Times,serif" font-size="14.00">dip</text>
</g>
<!-- treasure_ledge&#45;&gt;dip -->
<g id="edge36" class="edge">
<title>treasure_ledge&#45;&gt;dip</title>
<path fill="none" stroke="black" d="M107.79,-351.74C97.59,-346.63 88.08,-339.61 82,-330 76.54,-321.38 79.84,-311.49 85.68,-302.79"/>
<polygon fill="black" stroke="black" points="88.29,-305.13 91.76,-295.12 82.8,-300.78 88.29,-305.13"/>
<text text-anchor="middle" x="96.5" y="-318.8" font-family="Times,serif" font-size="14.00">rght</text>
</g>
<!-- dip_down -->
<g id="node21" class="node">
<title>dip_down</title>
<ellipse fill="none" stroke="black" cx="232" cy="-279" rx="53.09" ry="18"/>
<text text-anchor="middle" x="232" y="-275.3" font-family="Times,serif" font-size="14.00">dip_down</text>
</g>
<!-- treasure_ledge&#45;&gt;dip_down -->
<g id="edge37" class="edge">
<title>treasure_ledge&#45;&gt;dip_down</title>
<path fill="none" stroke="black" d="M161.59,-347.94C165.57,-337.61 171.69,-324.61 180,-315 184.38,-309.94 189.65,-305.29 195.14,-301.14"/>
<polygon fill="black" stroke="black" points="197.01,-304.11 203.22,-295.53 193.01,-298.36 197.01,-304.11"/>
<text text-anchor="middle" x="199" y="-318.8" font-family="Times,serif" font-size="14.00">down</text>
</g>
<!-- telescope&#45;ledge&#45;&gt;horn_caterpillar_cavern -->
<g id="edge32" class="edge">
<title>telescope&#45;ledge&#45;&gt;horn_caterpillar_cavern</title>
<path fill="none" stroke="black" d="M464.81,-384.29C460.67,-393.99 455.26,-406.27 450,-417 448.75,-419.55 447.41,-422.19 446.04,-424.82"/>
<polygon fill="black" stroke="black" points="443.1,-422.9 441.47,-433.37 449.27,-426.2 443.1,-422.9"/>
<text text-anchor="middle" x="477" y="-405.8" font-family="Times,serif" font-size="14.00">down</text>
</g>
<!-- _u.15 -->
<g id="node19" class="node">
<title>_u.15</title>
<ellipse fill="none" stroke="black" cx="598" cy="-279" rx="33.29" ry="18"/>
<text text-anchor="middle" x="598" y="-275.3" font-family="Times,serif" font-size="14.00">_u.15</text>
</g>
<!-- telescope&#45;ledge&#45;&gt;_u.15 -->
<g id="edge33" class="edge">
<title>telescope&#45;ledge&#45;&gt;_u.15</title>
<path fill="none" stroke="black" d="M488.67,-347.97C499.32,-337.65 513.76,-324.66 528,-315 534.42,-310.64 549.06,-303.2 563.3,-296.3"/>
<polygon fill="black" stroke="black" points="564.6,-299.55 572.1,-292.07 561.57,-293.24 564.6,-299.55"/>
<text text-anchor="middle" x="542.5" y="-318.8" font-family="Times,serif" font-size="14.00">rght</text>
</g>
<!-- _u.15&#45;&gt;telescope&#45;ledge -->
<g id="edge34" class="edge">
<title>_u.15&#45;&gt;telescope&#45;ledge</title>
<path fill="none" stroke="black" d="M587.83,-296.2C580.39,-306.97 569.45,-320.78 557,-330 548.24,-336.48 538.11,-342 527.96,-346.6"/>
<polygon fill="black" stroke="black" points="526.66,-343.35 518.82,-350.48 529.39,-349.79 526.66,-343.35"/>
<text text-anchor="middle" x="587" y="-318.8" font-family="Times,serif" font-size="14.00">rtrn</text>
</g>
<!-- dip&#45;&gt;treasure_ledge -->
<g id="edge38" class="edge">
<title>dip&#45;&gt;treasure_ledge</title>
<path fill="none" stroke="black" d="M116.1,-296.39C121.07,-306.24 127.68,-318.96 134,-330 135.52,-332.65 137.14,-335.39 138.79,-338.11"/>
<polygon fill="black" stroke="black" points="135.71,-339.78 143.95,-346.44 141.66,-336.09 135.71,-339.78"/>
<text text-anchor="middle" x="145.5" y="-318.8" font-family="Times,serif" font-size="14.00">left</text>
</g>
<!-- _u.18 -->
<g id="node22" class="node">
<title>_u.18</title>
<ellipse fill="none" stroke="black" cx="53" cy="-192" rx="33.29" ry="18"/>
<text text-anchor="middle" x="53" y="-188.3" font-family="Times,serif" font-size="14.00">_u.18</text>
</g>
<!-- dip&#45;&gt;_u.18 -->
<g id="edge39" class="edge">
<title>dip&#45;&gt;_u.18</title>
<path fill="none" stroke="black" d="M81.59,-274.89C61.79,-271.02 35.97,-262.36 23,-243 17.15,-234.26 20.99,-224.38 27.62,-215.72"/>
<polygon fill="black" stroke="black" points="30.15,-218.14 34.23,-208.37 24.94,-213.46 30.15,-218.14"/>
<text text-anchor="middle" x="42" y="-231.8" font-family="Times,serif" font-size="14.00">down</text>
</g>
<!-- _u.19 -->
<g id="node23" class="node">
<title>_u.19</title>
<ellipse fill="none" stroke="black" cx="157" cy="-192" rx="33.29" ry="18"/>
<text text-anchor="middle" x="157" y="-188.3" font-family="Times,serif" font-size="14.00">_u.19</text>
</g>
<!-- dip&#45;&gt;_u.19 -->
<g id="edge40" class="edge">
<title>dip&#45;&gt;_u.19</title>
<path fill="none" stroke="black" d="M116.49,-261.64C121.68,-251.8 128.54,-239.08 135,-228 136.75,-225 138.63,-221.88 140.52,-218.79"/>
<polygon fill="black" stroke="black" points="143.35,-220.87 145.68,-210.53 137.41,-217.16 143.35,-220.87"/>
<text text-anchor="middle" x="144" y="-231.8" font-family="Times,serif" font-size="14.00">up</text>
</g>
<!-- dip_down&#45;&gt;treasure_ledge -->
<g id="edge43" class="edge">
<title>dip_down&#45;&gt;treasure_ledge</title>
<path fill="none" stroke="black" d="M230.5,-297.24C228.83,-307.64 225.34,-320.64 218,-330 213.85,-335.3 208.66,-339.92 203.06,-343.93"/>
<polygon fill="black" stroke="black" points="201.2,-340.96 194.63,-349.27 204.95,-346.87 201.2,-340.96"/>
<text text-anchor="middle" x="235" y="-318.8" font-family="Times,serif" font-size="14.00">up</text>
</g>
<!-- _u.21 -->
<g id="node24" class="node">
<title>_u.21</title>
<ellipse fill="none" stroke="black" cx="247" cy="-192" rx="33.29" ry="18"/>
<text text-anchor="middle" x="247" y="-188.3" font-family="Times,serif" font-size="14.00">_u.21</text>
</g>
<!-- dip_down&#45;&gt;_u.21 -->
<g id="edge44" class="edge">
<title>dip_down&#45;&gt;_u.21</title>
<path fill="none" stroke="black" d="M229.69,-260.68C228.88,-250.97 228.67,-238.69 231,-228 231.58,-225.36 232.37,-222.67 233.3,-220.03"/>
<polygon fill="black" stroke="black" points="236.45,-221.55 237.08,-210.98 229.99,-218.86 236.45,-221.55"/>
<text text-anchor="middle" x="245.5" y="-231.8" font-family="Times,serif" font-size="14.00">rght</text>
</g>
<!-- _u.18&#45;&gt;dip -->
<g id="edge41" class="edge">
<title>_u.18&#45;&gt;dip</title>
<path fill="none" stroke="black" d="M63.67,-209.5C71.57,-221.7 82.48,-238.55 91.49,-252.49"/>
<polygon fill="black" stroke="black" points="88.46,-254.25 96.83,-260.74 94.34,-250.44 88.46,-254.25"/>
<text text-anchor="middle" x="98" y="-231.8" font-family="Times,serif" font-size="14.00">rtrn</text>
</g>
<!-- _u.19&#45;&gt;dip -->
<g id="edge42" class="edge">
<title>_u.19&#45;&gt;dip</title>
<path fill="none" stroke="black" d="M158.95,-210.17C159.32,-220.3 158.38,-233.04 153,-243 149.34,-249.79 143.73,-255.69 137.71,-260.61"/>
<polygon fill="black" stroke="black" points="136.02,-257.51 129.99,-266.22 140.13,-263.17 136.02,-257.51"/>
<text text-anchor="middle" x="172" y="-231.8" font-family="Times,serif" font-size="14.00">rtrn</text>
</g>
<!-- _u.21&#45;&gt;dip_down -->
<g id="edge45" class="edge">
<title>_u.21&#45;&gt;dip_down</title>
<path fill="none" stroke="black" d="M256.15,-209.42C260.45,-219.28 263.86,-232 260,-243 258.85,-246.27 257.26,-249.47 255.4,-252.51"/>
<polygon fill="black" stroke="black" points="252.72,-250.24 249.72,-260.4 258.4,-254.33 252.72,-250.24"/>
<text text-anchor="middle" x="276" y="-231.8" font-family="Times,serif" font-size="14.00">rtrn</text>
</g>
<!-- fosfor_lake -->
<g id="node25" class="node">
<title>fosfor_lake</title>
<ellipse fill="none" stroke="black" cx="761" cy="-1323" rx="59.59" ry="18"/>
<text text-anchor="middle" x="761" y="-1319.3" font-family="Times,serif" font-size="14.00">fosfor_lake</text>
</g>
<!-- fosfor_pool -->
<g id="node26" class="node">
<title>fosfor_pool</title>
<ellipse fill="none" stroke="black" cx="902" cy="-1323" rx="59.59" ry="18"/>
<text text-anchor="middle" x="902" y="-1319.3" font-family="Times,serif" font-size="14.00">fosfor_pool</text>
</g>
<!-- gorilla_woods_entrance -->
<g id="node27" class="node">
<title>gorilla_woods_entrance</title>
<ellipse fill="none" stroke="black" cx="899" cy="-1236" rx="114.28" ry="18"/>
<text text-anchor="middle" x="899" y="-1232.3" font-family="Times,serif" font-size="14.00">gorilla_woods_entrance</text>
</g>
<!-- fosfor_pool&#45;&gt;gorilla_woods_entrance -->
<g id="edge47" class="edge">
<title>fosfor_pool&#45;&gt;gorilla_woods_entrance</title>
<path fill="none" stroke="black" d="M884.87,-1305.27C880.47,-1299.9 876.32,-1293.61 874,-1287 871.29,-1279.28 873.08,-1271.23 876.69,-1263.89"/>
<polygon fill="black" stroke="black" points="879.66,-1265.75 881.94,-1255.4 873.7,-1262.07 879.66,-1265.75"/>
<text text-anchor="middle" x="888.5" y="-1275.8" font-family="Times,serif" font-size="14.00">rght</text>
</g>
<!-- gorilla_woods_entrance&#45;&gt;fosfor_pool -->
<g id="edge48" class="edge">
<title>gorilla_woods_entrance&#45;&gt;fosfor_pool</title>
<path fill="none" stroke="black" d="M901.39,-1254.41C902.05,-1260.02 902.67,-1266.26 903,-1272 903.39,-1278.91 903.45,-1286.37 903.33,-1293.36"/>
<polygon fill="black" stroke="black" points="899.83,-1293.25 903.04,-1303.35 906.83,-1293.46 899.83,-1293.25"/>
<text text-anchor="middle" x="914.5" y="-1275.8" font-family="Times,serif" font-size="14.00">left</text>
</g>
<!-- _u.25 -->
<g id="node28" class="node">
<title>_u.25</title>
<ellipse fill="none" stroke="black" cx="823" cy="-1149" rx="33.29" ry="18"/>
<text text-anchor="middle" x="823" y="-1145.3" font-family="Times,serif" font-size="14.00">_u.25</text>
</g>
<!-- gorilla_woods_entrance&#45;&gt;_u.25 -->
<g id="edge49" class="edge">
<title>gorilla_woods_entrance&#45;&gt;_u.25</title>
<path fill="none" stroke="black" d="M854.62,-1219.15C845.99,-1214.22 837.83,-1207.93 832,-1200 827.48,-1193.84 824.98,-1186.13 823.66,-1178.61"/>
<polygon fill="black" stroke="black" points="827.15,-1178.3 822.6,-1168.73 820.19,-1179.05 827.15,-1178.3"/>
<text text-anchor="middle" x="841" y="-1188.8" font-family="Times,serif" font-size="14.00">up</text>
</g>
<!-- gorilla_woods_cavern -->
<g id="node29" class="node">
<title>gorilla_woods_cavern</title>
<ellipse fill="none" stroke="black" cx="981" cy="-1149" rx="106.68" ry="18"/>
<text text-anchor="middle" x="981" y="-1145.3" font-family="Times,serif" font-size="14.00">gorilla_woods_cavern</text>
</g>
<!-- gorilla_woods_entrance&#45;&gt;gorilla_woods_cavern -->
<g id="edge50" class="edge">
<title>gorilla_woods_entrance&#45;&gt;gorilla_woods_cavern</title>
<path fill="none" stroke="black" d="M906.82,-1217.99C912.11,-1207.68 919.8,-1194.69 929,-1185 932.97,-1180.82 937.53,-1176.86 942.26,-1173.23"/>
<polygon fill="black" stroke="black" points="944.13,-1176.19 950.23,-1167.52 940.06,-1170.5 944.13,-1176.19"/>
<text text-anchor="middle" x="943.5" y="-1188.8" font-family="Times,serif" font-size="14.00">rght</text>
</g>
<!-- _u.25&#45;&gt;gorilla_woods_entrance -->
<g id="edge51" class="edge">
<title>_u.25&#45;&gt;gorilla_woods_entrance</title>
<path fill="none" stroke="black" d="M837.08,-1165.74C848.02,-1177.98 863.42,-1195.2 876.12,-1209.41"/>
<polygon fill="black" stroke="black" points="873.34,-1211.55 882.61,-1216.67 878.56,-1206.88 873.34,-1211.55"/>
<text text-anchor="middle" x="879" y="-1188.8" font-family="Times,serif" font-size="14.00">rtrn</text>
</g>
<!-- gorilla_woods_cavern&#45;&gt;gorilla_woods_entrance -->
<g id="edge52" class="edge">
<title>gorilla_woods_cavern&#45;&gt;gorilla_woods_entrance</title>
<path fill="none" stroke="black" d="M975.98,-1167.23C972.29,-1177.63 966.44,-1190.63 958,-1200 953.91,-1204.54 949.1,-1208.66 944.01,-1212.35"/>
<polygon fill="black" stroke="black" points="942.34,-1209.26 935.92,-1217.69 946.19,-1215.1 942.34,-1209.26"/>
<text text-anchor="middle" x="979.5" y="-1188.8" font-family="Times,serif" font-size="14.00">left</text>
</g>
<!-- gorilla_woods_mid -->
<g id="node30" class="node">
<title>gorilla_woods_mid</title>
<ellipse fill="none" stroke="black" cx="981" cy="-1062" rx="92.88" ry="18"/>
<text text-anchor="middle" x="981" y="-1058.3" font-family="Times,serif" font-size="14.00">gorilla_woods_mid</text>
</g>
<!-- gorilla_woods_cavern&#45;&gt;gorilla_woods_mid -->
<g id="edge53" class="edge">
<title>gorilla_woods_cavern&#45;&gt;gorilla_woods_mid</title>
<path fill="none" stroke="black" d="M965.68,-1131.01C961.75,-1125.63 958.05,-1119.4 956,-1113 953.5,-1105.21 955.36,-1097.13 958.98,-1089.8"/>
<polygon fill="black" stroke="black" points="961.93,-1091.67 964.19,-1081.32 955.97,-1088 961.93,-1091.67"/>
<text text-anchor="middle" x="970.5" y="-1101.8" font-family="Times,serif" font-size="14.00">rght</text>
</g>
<!-- gorilla_woods_mid&#45;&gt;gorilla_woods_cavern -->
<g id="edge54" class="edge">
<title>gorilla_woods_mid&#45;&gt;gorilla_woods_cavern</title>
<path fill="none" stroke="black" d="M983.53,-1080.11C984.66,-1089.76 985.62,-1102.05 985,-1113 984.88,-1115.06 984.73,-1117.19 984.54,-1119.33"/>
<polygon fill="black" stroke="black" points="981.08,-1118.78 983.54,-1129.08 988.05,-1119.49 981.08,-1118.78"/>
<text text-anchor="middle" x="996.5" y="-1101.8" font-family="Times,serif" font-size="14.00">left</text>
</g>
<!-- sootling_house -->
<g id="node31" class="node">
<title>sootling_house</title>
<ellipse fill="none" stroke="black" cx="968" cy="-975" rx="75.29" ry="18"/>
<text text-anchor="middle" x="968" y="-971.3" font-family="Times,serif" font-size="14.00">sootling_house</text>
</g>
<!-- gorilla_woods_mid&#45;&gt;sootling_house -->
<g id="edge55" class="edge">
<title>gorilla_woods_mid&#45;&gt;sootling_house</title>
<path fill="none" stroke="black" d="M956.69,-1044.18C951.16,-1039.04 946.03,-1032.9 943,-1026 939.62,-1018.3 941.4,-1010.09 945.22,-1002.59"/>
<polygon fill="black" stroke="black" points="948.15,-1004.51 950.59,-994.2 942.25,-1000.73 948.15,-1004.51"/>
<text text-anchor="middle" x="957.5" y="-1014.8" font-family="Times,serif" font-size="14.00">rght</text>
</g>
<!-- sootling_house&#45;&gt;gorilla_woods_mid -->
<g id="edge56" class="edge">
<title>sootling_house&#45;&gt;gorilla_woods_mid</title>
<path fill="none" stroke="black" d="M970.67,-993.47C972.4,-1004.74 974.68,-1019.67 976.66,-1032.62"/>
<polygon fill="black" stroke="black" points="973.17,-1032.95 978.14,-1042.3 980.09,-1031.89 973.17,-1032.95"/>
<text text-anchor="middle" x="986.5" y="-1014.8" font-family="Times,serif" font-size="14.00">left</text>
</g>
<!-- sootling_house_cavern -->
<g id="node32" class="node">
<title>sootling_house_cavern</title>
<ellipse fill="none" stroke="black" cx="840" cy="-888" rx="110.48" ry="18"/>
<text text-anchor="middle" x="840" y="-884.3" font-family="Times,serif" font-size="14.00">sootling_house_cavern</text>
</g>
<!-- sootling_house&#45;&gt;sootling_house_cavern -->
<g id="edge57" class="edge">
<title>sootling_house&#45;&gt;sootling_house_cavern</title>
<path fill="none" stroke="black" d="M920.75,-960.74C906.5,-955.39 891.37,-948.24 879,-939 870.41,-932.59 862.72,-923.82 856.48,-915.42"/>
<polygon fill="black" stroke="black" points="859.53,-913.68 850.94,-907.47 853.78,-917.68 859.53,-913.68"/>
<text text-anchor="middle" x="898" y="-927.8" font-family="Times,serif" font-size="14.00">down</text>
</g>
<!-- kickback_honeypot -->
<g id="node33" class="node">
<title>kickback_honeypot</title>
<ellipse fill="none" stroke="black" cx="1063" cy="-888" rx="94.78" ry="18"/>
<text text-anchor="middle" x="1063" y="-884.3" font-family="Times,serif" font-size="14.00">kickback_honeypot</text>
</g>
<!-- sootling_house&#45;&gt;kickback_honeypot -->
<g id="edge58" class="edge">
<title>sootling_house&#45;&gt;kickback_honeypot</title>
<path fill="none" stroke="black" d="M978.99,-957.02C986.17,-946.72 996.21,-933.73 1007,-924 1011.91,-919.57 1017.45,-915.37 1023.09,-911.5"/>
<polygon fill="black" stroke="black" points="1024.81,-914.55 1031.3,-906.17 1021,-908.68 1024.81,-914.55"/>
<text text-anchor="middle" x="1021.5" y="-927.8" font-family="Times,serif" font-size="14.00">rght</text>
</g>
<!-- sootling_house_cavern&#45;&gt;sootling_house -->
<g id="edge59" class="edge">
<title>sootling_house_cavern&#45;&gt;sootling_house</title>
<path fill="none" stroke="black" d="M882.19,-904.99C893.91,-910.27 906.34,-916.69 917,-924 927.28,-931.05 937.35,-940.27 945.78,-948.87"/>
<polygon fill="black" stroke="black" points="943.17,-951.2 952.59,-956.06 948.26,-946.39 943.17,-951.2"/>
<text text-anchor="middle" x="944" y="-927.8" font-family="Times,serif" font-size="14.00">up</text>
</g>
<!-- sootling_house_under -->
<g id="node34" class="node">
<title>sootling_house_under</title>
<ellipse fill="none" stroke="black" cx="822" cy="-801" rx="106.68" ry="18"/>
<text text-anchor="middle" x="822" y="-797.3" font-family="Times,serif" font-size="14.00">sootling_house_under</text>
</g>
<!-- sootling_house_cavern&#45;&gt;sootling_house_under -->
<g id="edge60" class="edge">
<title>sootling_house_cavern&#45;&gt;sootling_house_under</title>
<path fill="none" stroke="black" d="M820.42,-869.83C815.79,-864.62 811.48,-858.53 809,-852 806.37,-845.07 806.8,-837.39 808.58,-830.19"/>
<polygon fill="black" stroke="black" points="811.85,-831.44 811.76,-820.84 805.22,-829.18 811.85,-831.44"/>
<text text-anchor="middle" x="823.5" y="-840.8" font-family="Times,serif" font-size="14.00">rght</text>
</g>
<!-- kickback_honeypot&#45;&gt;sootling_house -->
<g id="edge62" class="edge">
<title>kickback_honeypot&#45;&gt;sootling_house</title>
<path fill="none" stroke="black" d="M1056.68,-906.41C1052.19,-916.87 1045.3,-929.88 1036,-939 1030.26,-944.62 1023.44,-949.54 1016.37,-953.78"/>
<polygon fill="black" stroke="black" points="1015.04,-950.51 1007.97,-958.4 1018.41,-956.65 1015.04,-950.51"/>
<text text-anchor="middle" x="1058.5" y="-927.8" font-family="Times,serif" font-size="14.00">left</text>
</g>
<!-- Mokumana_village -->
<g id="node35" class="node">
<title>Mokumana_village</title>
<ellipse fill="none" stroke="black" cx="1048" cy="-801" rx="94.78" ry="18"/>
<text text-anchor="middle" x="1048" y="-797.3" font-family="Times,serif" font-size="14.00">Mokumana_village</text>
</g>
<!-- kickback_honeypot&#45;&gt;Mokumana_village -->
<g id="edge63" class="edge">
<title>kickback_honeypot&#45;&gt;Mokumana_village</title>
<path fill="none" stroke="black" d="M1041.56,-870.13C1036.47,-864.92 1031.74,-858.75 1029,-852 1026.04,-844.72 1027.12,-836.78 1029.89,-829.42"/>
<polygon fill="black" stroke="black" points="1032.97,-831.08 1034.21,-820.56 1026.68,-828.01 1032.97,-831.08"/>
<text text-anchor="middle" x="1038" y="-840.8" font-family="Times,serif" font-size="14.00">up</text>
</g>
<!-- sootling_house_under&#45;&gt;sootling_house_cavern -->
<g id="edge61" class="edge">
<title>sootling_house_under&#45;&gt;sootling_house_cavern</title>
<path fill="none" stroke="black" d="M831.53,-819.33C834.1,-824.82 836.57,-831.02 838,-837 839.63,-843.82 840.43,-851.31 840.76,-858.37"/>
<polygon fill="black" stroke="black" points="837.26,-858.2 840.92,-868.14 844.26,-858.08 837.26,-858.2"/>
<text text-anchor="middle" x="851.5" y="-840.8" font-family="Times,serif" font-size="14.00">left</text>
</g>
<!-- Mokumana_village&#45;&gt;kickback_honeypot -->
<g id="edge64" class="edge">
<title>Mokumana_village&#45;&gt;kickback_honeypot</title>
<path fill="none" stroke="black" d="M1051.08,-819.47C1053.07,-830.74 1055.71,-845.67 1057.99,-858.62"/>
<polygon fill="black" stroke="black" points="1054.52,-859.07 1059.7,-868.31 1061.41,-857.85 1054.52,-859.07"/>
<text text-anchor="middle" x="1075" y="-840.8" font-family="Times,serif" font-size="14.00">down</text>
</g>
<!-- tall_totem_tower_zone1 -->
<g id="node36" class="node">
<title>tall_totem_tower_zone1</title>
<ellipse fill="none" stroke="black" cx="904" cy="-714" rx="116.18" ry="18"/>
<text text-anchor="middle" x="904" y="-710.3" font-family="Times,serif" font-size="14.00">tall_totem_tower_zone1</text>
</g>
<!-- Mokumana_village&#45;&gt;tall_totem_tower_zone1 -->
<g id="edge65" class="edge">
<title>Mokumana_village&#45;&gt;tall_totem_tower_zone1</title>
<path fill="none" stroke="black" d="M971.62,-790.09C954.4,-784.88 937.3,-776.97 924,-765 917.5,-759.15 913.08,-750.91 910.09,-742.79"/>
<polygon fill="black" stroke="black" points="913.52,-742.06 907.27,-733.5 906.82,-744.09 913.52,-742.06"/>
<text text-anchor="middle" x="933" y="-753.8" font-family="Times,serif" font-size="14.00">up</text>
</g>
<!-- Mokumas_pit -->
<g id="node37" class="node">
<title>Mokumas_pit</title>
<ellipse fill="none" stroke="black" cx="1167" cy="-714" rx="70.39" ry="18"/>
<text text-anchor="middle" x="1167" y="-710.3" font-family="Times,serif" font-size="14.00">Mokumas_pit</text>
</g>
<!-- Mokumana_village&#45;&gt;Mokumas_pit -->
<g id="edge66" class="edge">
<title>Mokumana_village&#45;&gt;Mokumas_pit</title>
<path fill="none" stroke="black" d="M1049.99,-782.68C1052.07,-771.99 1056.32,-758.7 1065,-750 1074.45,-740.52 1086.58,-733.61 1099.15,-728.57"/>
<polygon fill="black" stroke="black" points="1100.11,-731.94 1108.34,-725.27 1097.74,-725.35 1100.11,-731.94"/>
<text text-anchor="middle" x="1079.5" y="-753.8" font-family="Times,serif" font-size="14.00">rght</text>
</g>
<!-- tall_totem_tower_zone1&#45;&gt;Mokumana_village -->
<g id="edge67" class="edge">
<title>tall_totem_tower_zone1&#45;&gt;Mokumana_village</title>
<path fill="none" stroke="black" d="M932.53,-731.84C954.8,-744.98 985.94,-763.36 1010.27,-777.73"/>
<polygon fill="black" stroke="black" points="1008.2,-780.57 1018.59,-782.64 1011.76,-774.54 1008.2,-780.57"/>
<text text-anchor="middle" x="1003" y="-753.8" font-family="Times,serif" font-size="14.00">down</text>
</g>
<!-- _u.33 -->
<g id="node38" class="node">
<title>_u.33</title>
<ellipse fill="none" stroke="black" cx="747" cy="-627" rx="33.29" ry="18"/>
<text text-anchor="middle" x="747" y="-623.3" font-family="Times,serif" font-size="14.00">_u.33</text>
</g>
<!-- tall_totem_tower_zone1&#45;&gt;_u.33 -->
<g id="edge68" class="edge">
<title>tall_totem_tower_zone1&#45;&gt;_u.33</title>
<path fill="none" stroke="black" d="M809.75,-703.11C792.98,-697.76 776.81,-689.79 764,-678 757.76,-672.26 753.82,-664.15 751.31,-656.12"/>
<polygon fill="black" stroke="black" points="754.76,-655.47 749.01,-646.56 747.95,-657.11 754.76,-655.47"/>
<text text-anchor="middle" x="778.5" y="-666.8" font-family="Times,serif" font-size="14.00">rght</text>
</g>
<!-- tall_totem_tower_zone2 -->
<g id="node39" class="node">
<title>tall_totem_tower_zone2</title>
<ellipse fill="none" stroke="black" cx="914" cy="-627" rx="116.18" ry="18"/>
<text text-anchor="middle" x="914" y="-623.3" font-family="Times,serif" font-size="14.00">tall_totem_tower_zone2</text>
</g>
<!-- tall_totem_tower_zone1&#45;&gt;tall_totem_tower_zone2 -->
<g id="edge69" class="edge">
<title>tall_totem_tower_zone1&#45;&gt;tall_totem_tower_zone2</title>
<path fill="none" stroke="black" d="M899.73,-695.74C897.97,-686.05 896.79,-673.77 899,-663 899.48,-660.67 900.12,-658.31 900.86,-655.97"/>
<polygon fill="black" stroke="black" points="904.08,-657.36 904.38,-646.77 897.54,-654.85 904.08,-657.36"/>
<text text-anchor="middle" x="908" y="-666.8" font-family="Times,serif" font-size="14.00">up</text>
</g>
<!-- Mokumas_pit&#45;&gt;Mokumana_village -->
<g id="edge82" class="edge">
<title>Mokumas_pit&#45;&gt;Mokumana_village</title>
<path fill="none" stroke="black" d="M1143.94,-731.47C1125.94,-744.33 1100.69,-762.37 1080.61,-776.71"/>
<polygon fill="black" stroke="black" points="1078.85,-773.67 1072.74,-782.33 1082.91,-779.36 1078.85,-773.67"/>
<text text-anchor="middle" x="1125.5" y="-753.8" font-family="Times,serif" font-size="14.00">left</text>
</g>
<!-- Mokumas_ledge -->
<g id="node45" class="node">
<title>Mokumas_ledge</title>
<ellipse fill="none" stroke="black" cx="1133" cy="-627" rx="81.49" ry="18"/>
<text text-anchor="middle" x="1133" y="-623.3" font-family="Times,serif" font-size="14.00">Mokumas_ledge</text>
</g>
<!-- Mokumas_pit&#45;&gt;Mokumas_ledge -->
<g id="edge83" class="edge">
<title>Mokumas_pit&#45;&gt;Mokumas_ledge</title>
<path fill="none" stroke="black" d="M1145.91,-696.49C1140.7,-691.2 1135.8,-684.91 1133,-678 1130.32,-671.4 1129.36,-663.9 1129.29,-656.76"/>
<polygon fill="black" stroke="black" points="1132.79,-656.95 1129.79,-646.79 1125.79,-656.6 1132.79,-656.95"/>
<text text-anchor="middle" x="1142" y="-666.8" font-family="Times,serif" font-size="14.00">up</text>
</g>
<!-- postal_office -->
<g id="node46" class="node">
<title>postal_office</title>
<ellipse fill="none" stroke="black" cx="1415" cy="-627" rx="65.79" ry="18"/>
<text text-anchor="middle" x="1415" y="-623.3" font-family="Times,serif" font-size="14.00">postal_office</text>
</g>
<!-- Mokumas_pit&#45;&gt;postal_office -->
<g id="edge84" class="edge">
<title>Mokumas_pit&#45;&gt;postal_office</title>
<path fill="none" stroke="black" d="M1207.95,-698.96C1250.87,-684.25 1318.37,-661.12 1364.55,-645.29"/>
<polygon fill="black" stroke="black" points="1365.46,-648.68 1373.79,-642.13 1363.19,-642.06 1365.46,-648.68"/>
<text text-anchor="middle" x="1319.5" y="-666.8" font-family="Times,serif" font-size="14.00">rght</text>
</g>
<!-- _u.33&#45;&gt;tall_totem_tower_zone1 -->
<g id="edge70" class="edge">
<title>_u.33&#45;&gt;tall_totem_tower_zone1</title>
<path fill="none" stroke="black" d="M769.81,-640.35C794.14,-653.52 833.19,-674.66 862.9,-690.75"/>
<polygon fill="black" stroke="black" points="861.19,-693.8 871.65,-695.49 864.52,-687.65 861.19,-693.8"/>
<text text-anchor="middle" x="848" y="-666.8" font-family="Times,serif" font-size="14.00">rtrn</text>
</g>
<!-- tall_totem_tower_zone2&#45;&gt;tall_totem_tower_zone1 -->
<g id="edge71" class="edge">
<title>tall_totem_tower_zone2&#45;&gt;tall_totem_tower_zone1</title>
<path fill="none" stroke="black" d="M917.03,-645.24C918.24,-654.93 918.94,-667.22 917,-678 916.58,-680.34 916.01,-682.73 915.35,-685.11"/>
<polygon fill="black" stroke="black" points="912.07,-683.87 912.21,-694.46 918.71,-686.09 912.07,-683.87"/>
<text text-anchor="middle" x="937" y="-666.8" font-family="Times,serif" font-size="14.00">down</text>
</g>
<!-- tall_totem_tower_zone3 -->
<g id="node40" class="node">
<title>tall_totem_tower_zone3</title>
<ellipse fill="none" stroke="black" cx="869" cy="-540" rx="116.18" ry="18"/>
<text text-anchor="middle" x="869" y="-536.3" font-family="Times,serif" font-size="14.00">tall_totem_tower_zone3</text>
</g>
<!-- tall_totem_tower_zone2&#45;&gt;tall_totem_tower_zone3 -->
<g id="edge72" class="edge">
<title>tall_totem_tower_zone2&#45;&gt;tall_totem_tower_zone3</title>
<path fill="none" stroke="black" d="M888.19,-609.31C882.22,-604.18 876.57,-598 873,-591 869.66,-584.46 868.09,-576.81 867.48,-569.48"/>
<polygon fill="black" stroke="black" points="870.98,-569.51 867.25,-559.6 863.98,-569.68 870.98,-569.51"/>
<text text-anchor="middle" x="882" y="-579.8" font-family="Times,serif" font-size="14.00">up</text>
</g>
<!-- tall_totem_tower_zone3&#45;&gt;tall_totem_tower_zone2 -->
<g id="edge73" class="edge">
<title>tall_totem_tower_zone3&#45;&gt;tall_totem_tower_zone2</title>
<path fill="none" stroke="black" d="M880.42,-558.18C883.97,-563.77 887.79,-570.07 891,-576 894.85,-583.11 898.67,-590.99 902.06,-598.35"/>
<polygon fill="black" stroke="black" points="898.75,-599.54 906.04,-607.22 905.14,-596.67 898.75,-599.54"/>
<text text-anchor="middle" x="917" y="-579.8" font-family="Times,serif" font-size="14.00">down</text>
</g>
<!-- skullgand_juicery_bridge -->
<g id="node41" class="node">
<title>skullgand_juicery_bridge</title>
<ellipse fill="none" stroke="black" cx="698" cy="-453" rx="120.48" ry="18"/>
<text text-anchor="middle" x="698" y="-449.3" font-family="Times,serif" font-size="14.00">skullgand_juicery_bridge</text>
</g>
<!-- tall_totem_tower_zone3&#45;&gt;skullgand_juicery_bridge -->
<g id="edge74" class="edge">
<title>tall_totem_tower_zone3&#45;&gt;skullgand_juicery_bridge</title>
<path fill="none" stroke="black" d="M819.21,-523.39C804.05,-517.97 787.56,-511.37 773,-504 758.2,-496.51 742.8,-486.65 729.84,-477.67"/>
<polygon fill="black" stroke="black" points="731.87,-474.81 721.68,-471.9 727.82,-480.53 731.87,-474.81"/>
<text text-anchor="middle" x="784.5" y="-492.8" font-family="Times,serif" font-size="14.00">left</text>
</g>
<!-- tall_totem_tower_upper_zone3 -->
<g id="node42" class="node">
<title>tall_totem_tower_upper_zone3</title>
<ellipse fill="none" stroke="black" cx="982" cy="-453" rx="146.47" ry="18"/>
<text text-anchor="middle" x="982" y="-449.3" font-family="Times,serif" font-size="14.00">tall_totem_tower_upper_zone3</text>
</g>
<!-- tall_totem_tower_zone3&#45;&gt;tall_totem_tower_upper_zone3 -->
<g id="edge75" class="edge">
<title>tall_totem_tower_zone3&#45;&gt;tall_totem_tower_upper_zone3</title>
<path fill="none" stroke="black" d="M874.85,-521.77C879.22,-511.11 886.16,-497.83 896,-489 902.02,-483.6 908.99,-478.97 916.3,-475.02"/>
<polygon fill="black" stroke="black" points="917.63,-478.26 925.06,-470.71 914.54,-471.98 917.63,-478.26"/>
<text text-anchor="middle" x="905" y="-492.8" font-family="Times,serif" font-size="14.00">up</text>
</g>
<!-- skullgand_juicery_bridge&#45;&gt;tall_totem_tower_zone3 -->
<g id="edge76" class="edge">
<title>skullgand_juicery_bridge&#45;&gt;tall_totem_tower_zone3</title>
<path fill="none" stroke="black" d="M749.66,-469.65C764.92,-475.02 781.44,-481.57 796,-489 810.5,-496.4 825.51,-506.24 838.12,-515.24"/>
<polygon fill="black" stroke="black" points="835.88,-517.94 846.02,-521 840,-512.28 835.88,-517.94"/>
<text text-anchor="middle" x="835.5" y="-492.8" font-family="Times,serif" font-size="14.00">rght</text>
</g>
<!-- tall_totem_tower_upper_zone3&#45;&gt;tall_totem_tower_zone3 -->
<g id="edge77" class="edge">
<title>tall_totem_tower_upper_zone3&#45;&gt;tall_totem_tower_zone3</title>
<path fill="none" stroke="black" d="M959.06,-471.26C942.22,-483.92 919.15,-501.28 900.57,-515.25"/>
<polygon fill="black" stroke="black" points="898.69,-512.29 892.81,-521.09 902.9,-517.88 898.69,-512.29"/>
<text text-anchor="middle" x="951" y="-492.8" font-family="Times,serif" font-size="14.00">down</text>
</g>
<!-- _u.38 -->
<g id="node43" class="node">
<title>_u.38</title>
<ellipse fill="none" stroke="black" cx="922" cy="-366" rx="33.29" ry="18"/>
<text text-anchor="middle" x="922" y="-362.3" font-family="Times,serif" font-size="14.00">_u.38</text>
</g>
<!-- tall_totem_tower_upper_zone3&#45;&gt;_u.38 -->
<g id="edge78" class="edge">
<title>tall_totem_tower_upper_zone3&#45;&gt;_u.38</title>
<path fill="none" stroke="black" d="M936.21,-435.62C928.55,-430.81 921.6,-424.7 917,-417 913.08,-410.43 912.43,-402.5 913.27,-394.91"/>
<polygon fill="black" stroke="black" points="916.65,-395.84 915.17,-385.35 909.79,-394.48 916.65,-395.84"/>
<text text-anchor="middle" x="926" y="-405.8" font-family="Times,serif" font-size="14.00">up</text>
</g>
<!-- ivory_peaks -->
<g id="node44" class="node">
<title>ivory_peaks</title>
<ellipse fill="none" stroke="black" cx="1043" cy="-366" rx="63.89" ry="18"/>
<text text-anchor="middle" x="1043" y="-362.3" font-family="Times,serif" font-size="14.00">ivory_peaks</text>
</g>
<!-- tall_totem_tower_upper_zone3&#45;&gt;ivory_peaks -->
<g id="edge79" class="edge">
<title>tall_totem_tower_upper_zone3&#45;&gt;ivory_peaks</title>
<path fill="none" stroke="black" d="M989.9,-434.64C994.78,-424.68 1001.53,-412.18 1009,-402 1011.5,-398.59 1014.32,-395.18 1017.24,-391.89"/>
<polygon fill="black" stroke="black" points="1019.71,-394.38 1024.01,-384.7 1014.61,-389.59 1019.71,-394.38"/>
<text text-anchor="middle" x="1020.5" y="-405.8" font-family="Times,serif" font-size="14.00">left</text>
</g>
<!-- _u.38&#45;&gt;tall_totem_tower_upper_zone3 -->
<g id="edge80" class="edge">
<title>_u.38&#45;&gt;tall_totem_tower_upper_zone3</title>
<path fill="none" stroke="black" d="M933.51,-383.31C941.98,-395.31 953.68,-411.87 963.46,-425.73"/>
<polygon fill="black" stroke="black" points="960.36,-427.41 968.99,-433.56 966.08,-423.37 960.36,-427.41"/>
<text text-anchor="middle" x="969" y="-405.8" font-family="Times,serif" font-size="14.00">rtrn</text>
</g>
<!-- ivory_peaks&#45;&gt;tall_totem_tower_upper_zone3 -->
<g id="edge81" class="edge">
<title>ivory_peaks&#45;&gt;tall_totem_tower_upper_zone3</title>
<path fill="none" stroke="black" d="M1042.29,-384.43C1041.15,-394.64 1038.41,-407.39 1032,-417 1029.35,-420.97 1026.09,-424.62 1022.52,-427.95"/>
<polygon fill="black" stroke="black" points="1020.44,-425.12 1014.91,-434.16 1024.87,-430.55 1020.44,-425.12"/>
<text text-anchor="middle" x="1052.5" y="-405.8" font-family="Times,serif" font-size="14.00">rght</text>
</g>
<!-- Mokumas_ledge&#45;&gt;Mokumas_pit -->
<g id="edge85" class="edge">
<title>Mokumas_ledge&#45;&gt;Mokumas_pit</title>
<path fill="none" stroke="black" d="M1142.55,-645.18C1145.46,-650.77 1148.54,-657.07 1151,-663 1153.88,-669.96 1156.57,-677.65 1158.89,-684.85"/>
<polygon fill="black" stroke="black" points="1155.47,-685.65 1161.76,-694.18 1162.16,-683.59 1155.47,-685.65"/>
<text text-anchor="middle" x="1175" y="-666.8" font-family="Times,serif" font-size="14.00">down</text>
</g>
<!-- _u.44 -->
<g id="node47" class="node">
<title>_u.44</title>
<ellipse fill="none" stroke="black" cx="1036" cy="-540" rx="33.29" ry="18"/>
<text text-anchor="middle" x="1036" y="-536.3" font-family="Times,serif" font-size="14.00">_u.44</text>
</g>
<!-- Mokumas_ledge&#45;&gt;_u.44 -->
<g id="edge86" class="edge">
<title>Mokumas_ledge&#45;&gt;_u.44</title>
<path fill="none" stroke="black" d="M1070.47,-615.29C1057.41,-610.1 1045.15,-602.4 1037,-591 1032.63,-584.88 1031.1,-577.18 1030.99,-569.66"/>
<polygon fill="black" stroke="black" points="1034.48,-570 1031.68,-559.78 1027.49,-569.51 1034.48,-570"/>
<text text-anchor="middle" x="1048.5" y="-579.8" font-family="Times,serif" font-size="14.00">left</text>
</g>
<!-- postal_office_inside -->
<g id="node48" class="node">
<title>postal_office_inside</title>
<ellipse fill="none" stroke="black" cx="1183" cy="-540" rx="95.58" ry="18"/>
<text text-anchor="middle" x="1183" y="-536.3" font-family="Times,serif" font-size="14.00">postal_office_inside</text>
</g>
<!-- Mokumas_ledge&#45;&gt;postal_office_inside -->
<g id="edge87" class="edge">
<title>Mokumas_ledge&#45;&gt;postal_office_inside</title>
<path fill="none" stroke="black" d="M1129.66,-608.84C1128.56,-598.72 1128.74,-585.98 1134,-576 1136.13,-571.95 1138.97,-568.27 1142.2,-564.94"/>
<polygon fill="black" stroke="black" points="1144.5,-567.58 1149.75,-558.38 1139.91,-562.3 1144.5,-567.58"/>
<text text-anchor="middle" x="1148.5" y="-579.8" font-family="Times,serif" font-size="14.00">rght</text>
</g>
<!-- postal_office&#45;&gt;Mokumas_pit -->
<g id="edge89" class="edge">
<title>postal_office&#45;&gt;Mokumas_pit</title>
<path fill="none" stroke="black" d="M1394.3,-644.52C1379.44,-655.58 1358.5,-669.6 1338,-678 1307.53,-690.48 1272.12,-698.68 1241.46,-703.97"/>
<polygon fill="black" stroke="black" points="1241.18,-700.47 1231.88,-705.55 1242.32,-707.38 1241.18,-700.47"/>
<text text-anchor="middle" x="1378.5" y="-666.8" font-family="Times,serif" font-size="14.00">left</text>
</g>
<!-- _u.46 -->
<g id="node49" class="node">
<title>_u.46</title>
<ellipse fill="none" stroke="black" cx="1330" cy="-540" rx="33.29" ry="18"/>
<text text-anchor="middle" x="1330" y="-536.3" font-family="Times,serif" font-size="14.00">_u.46</text>
</g>
<!-- postal_office&#45;&gt;_u.46 -->
<g id="edge90" class="edge">
<title>postal_office&#45;&gt;_u.46</title>
<path fill="none" stroke="black" d="M1364.07,-615.41C1351.2,-610.22 1338.83,-602.49 1331,-591 1326.77,-584.78 1325.28,-577.05 1325.17,-569.54"/>
<polygon fill="black" stroke="black" points="1328.66,-569.88 1325.83,-559.67 1321.67,-569.42 1328.66,-569.88"/>
<text text-anchor="middle" x="1346" y="-579.8" font-family="Times,serif" font-size="14.00">hole</text>
</g>
<!-- lonkas_sprinkle_shop -->
<g id="node50" class="node">
<title>lonkas_sprinkle_shop</title>
<ellipse fill="none" stroke="black" cx="1486" cy="-540" rx="104.78" ry="18"/>
<text text-anchor="middle" x="1486" y="-536.3" font-family="Times,serif" font-size="14.00">lonkas_sprinkle_shop</text>
</g>
<!-- postal_office&#45;&gt;lonkas_sprinkle_shop -->
<g id="edge91" class="edge">
<title>postal_office&#45;&gt;lonkas_sprinkle_shop</title>
<path fill="none" stroke="black" d="M1419.1,-608.95C1422.21,-598.63 1427.29,-585.64 1435,-576 1438.35,-571.82 1442.32,-567.94 1446.56,-564.4"/>
<polygon fill="black" stroke="black" points="1448.44,-567.37 1454.3,-558.54 1444.21,-561.79 1448.44,-567.37"/>
<text text-anchor="middle" x="1449.5" y="-579.8" font-family="Times,serif" font-size="14.00">rght</text>
</g>
<!-- postal_office_ledge -->
<g id="node51" class="node">
<title>postal_office_ledge</title>
<ellipse fill="none" stroke="black" cx="1702" cy="-540" rx="92.88" ry="18"/>
<text text-anchor="middle" x="1702" y="-536.3" font-family="Times,serif" font-size="14.00">postal_office_ledge</text>
</g>
<!-- postal_office&#45;&gt;postal_office_ledge -->
<g id="edge92" class="edge">
<title>postal_office&#45;&gt;postal_office_ledge</title>
<path fill="none" stroke="black" d="M1458.59,-613.09C1507.44,-598.62 1586.96,-575.07 1641.74,-558.85"/>
<polygon fill="black" stroke="black" points="1642.65,-562.23 1651.24,-556.03 1640.66,-555.52 1642.65,-562.23"/>
<text text-anchor="middle" x="1584" y="-579.8" font-family="Times,serif" font-size="14.00">up</text>
</g>
<!-- _u.44&#45;&gt;Mokumas_ledge -->
<g id="edge88" class="edge">
<title>_u.44&#45;&gt;Mokumas_ledge</title>
<path fill="none" stroke="black" d="M1052.86,-555.77C1067.33,-568.46 1088.48,-586.99 1105.42,-601.83"/>
<polygon fill="black" stroke="black" points="1102.87,-604.25 1112.7,-608.21 1107.48,-598.99 1102.87,-604.25"/>
<text text-anchor="middle" x="1104" y="-579.8" font-family="Times,serif" font-size="14.00">rtrn</text>
</g>
<!-- postal_office_inside&#45;&gt;Mokumas_ledge -->
<g id="edge108" class="edge">
<title>postal_office_inside&#45;&gt;Mokumas_ledge</title>
<path fill="none" stroke="black" d="M1177.65,-558.32C1174.2,-568.26 1169.2,-580.76 1163,-591 1161.09,-594.15 1158.9,-597.3 1156.59,-600.34"/>
<polygon fill="black" stroke="black" points="1154.04,-597.93 1150.42,-607.89 1159.46,-602.36 1154.04,-597.93"/>
<text text-anchor="middle" x="1181.5" y="-579.8" font-family="Times,serif" font-size="14.00">left</text>
</g>
<!-- _u.46&#45;&gt;postal_office -->
<g id="edge93" class="edge">
<title>_u.46&#45;&gt;postal_office</title>
<path fill="none" stroke="black" d="M1345.33,-556.33C1357.79,-568.79 1375.62,-586.62 1390.12,-601.12"/>
<polygon fill="black" stroke="black" points="1387.59,-603.54 1397.14,-608.14 1392.54,-598.59 1387.59,-603.54"/>
<text text-anchor="middle" x="1391" y="-579.8" font-family="Times,serif" font-size="14.00">rtrn</text>
</g>
<!-- lonkas_sprinkle_shop&#45;&gt;postal_office -->
<g id="edge94" class="edge">
<title>lonkas_sprinkle_shop&#45;&gt;postal_office</title>
<path fill="none" stroke="black" d="M1480.91,-558.46C1477.33,-568.69 1471.78,-581.43 1464,-591 1460.34,-595.5 1455.97,-599.69 1451.37,-603.5"/>
<polygon fill="black" stroke="black" points="1449.42,-600.58 1443.56,-609.41 1453.64,-606.17 1449.42,-600.58"/>
<text text-anchor="middle" x="1483.5" y="-579.8" font-family="Times,serif" font-size="14.00">left</text>
</g>
<!-- postal_office_ledge&#45;&gt;postal_office -->
<g id="edge95" class="edge">
<title>postal_office_ledge&#45;&gt;postal_office</title>
<path fill="none" stroke="black" d="M1672.51,-557.54C1651.92,-568.46 1623.47,-582.31 1597,-591 1560.88,-602.86 1519.34,-611.22 1485.07,-616.8"/>
<polygon fill="black" stroke="black" points="1484.57,-613.33 1475.24,-618.35 1485.66,-620.25 1484.57,-613.33"/>
<text text-anchor="middle" x="1651" y="-579.8" font-family="Times,serif" font-size="14.00">down</text>
</g>
<!-- waterfall_ledge -->
<g id="node52" class="node">
<title>waterfall_ledge</title>
<ellipse fill="none" stroke="black" cx="1702" cy="-453" rx="78.79" ry="18"/>
<text text-anchor="middle" x="1702" y="-449.3" font-family="Times,serif" font-size="14.00">waterfall_ledge</text>
</g>
<!-- postal_office_ledge&#45;&gt;waterfall_ledge -->
<g id="edge96" class="edge">
<title>postal_office_ledge&#45;&gt;waterfall_ledge</title>
<path fill="none" stroke="black" d="M1686.68,-522.01C1682.75,-516.63 1679.05,-510.4 1677,-504 1674.5,-496.21 1676.36,-488.13 1679.98,-480.8"/>
<polygon fill="black" stroke="black" points="1682.93,-482.67 1685.19,-472.32 1676.97,-479 1682.93,-482.67"/>
<text text-anchor="middle" x="1691.5" y="-492.8" font-family="Times,serif" font-size="14.00">rght</text>
</g>
<!-- waterfall_ledge&#45;&gt;postal_office_ledge -->
<g id="edge97" class="edge">
<title>waterfall_ledge&#45;&gt;postal_office_ledge</title>
<path fill="none" stroke="black" d="M1704.39,-471.41C1705.05,-477.02 1705.67,-483.26 1706,-489 1706.4,-496.02 1706.15,-503.58 1705.62,-510.65"/>
<polygon fill="black" stroke="black" points="1702.16,-510.09 1704.68,-520.38 1709.12,-510.77 1702.16,-510.09"/>
<text text-anchor="middle" x="1717.5" y="-492.8" font-family="Times,serif" font-size="14.00">left</text>
</g>
<!-- popups_ledge -->
<g id="node53" class="node">
<title>popups_ledge</title>
<ellipse fill="none" stroke="black" cx="1702" cy="-366" rx="69.59" ry="18"/>
<text text-anchor="middle" x="1702" y="-362.3" font-family="Times,serif" font-size="14.00">popups_ledge</text>
</g>
<!-- waterfall_ledge&#45;&gt;popups_ledge -->
<g id="edge98" class="edge">
<title>waterfall_ledge&#45;&gt;popups_ledge</title>
<path fill="none" stroke="black" d="M1686.68,-435.01C1682.75,-429.63 1679.05,-423.4 1677,-417 1674.43,-408.99 1676.47,-400.68 1680.28,-393.19"/>
<polygon fill="black" stroke="black" points="1683.16,-395.19 1685.51,-384.86 1677.23,-391.46 1683.16,-395.19"/>
<text text-anchor="middle" x="1691.5" y="-405.8" font-family="Times,serif" font-size="14.00">rght</text>
</g>
<!-- popups_ledge&#45;&gt;waterfall_ledge -->
<g id="edge99" class="edge">
<title>popups_ledge&#45;&gt;waterfall_ledge</title>
<path fill="none" stroke="black" d="M1704.39,-384.41C1705.05,-390.02 1705.67,-396.26 1706,-402 1706.4,-409.02 1706.15,-416.58 1705.62,-423.65"/>
<polygon fill="black" stroke="black" points="1702.16,-423.09 1704.68,-433.38 1709.12,-423.77 1702.16,-423.09"/>
<text text-anchor="middle" x="1717.5" y="-405.8" font-family="Times,serif" font-size="14.00">left</text>
</g>
<!-- waterfall_pool -->
<g id="node54" class="node">
<title>waterfall_pool</title>
<ellipse fill="none" stroke="black" cx="1701" cy="-279" rx="74.99" ry="18"/>
<text text-anchor="middle" x="1701" y="-275.3" font-family="Times,serif" font-size="14.00">waterfall_pool</text>
</g>
<!-- popups_ledge&#45;&gt;waterfall_pool -->
<g id="edge100" class="edge">
<title>popups_ledge&#45;&gt;waterfall_pool</title>
<path fill="none" stroke="black" d="M1683.67,-348.46C1678.95,-343.09 1674.5,-336.76 1672,-330 1669,-321.89 1671.31,-313.57 1675.69,-306.1"/>
<polygon fill="black" stroke="black" points="1678.46,-308.24 1681.49,-298.09 1672.79,-304.14 1678.46,-308.24"/>
<text text-anchor="middle" x="1691" y="-318.8" font-family="Times,serif" font-size="14.00">down</text>
</g>
<!-- waterfall_pool&#45;&gt;popups_ledge -->
<g id="edge101" class="edge">
<title>waterfall_pool&#45;&gt;popups_ledge</title>
<path fill="none" stroke="black" d="M1706.36,-297.28C1707.85,-302.88 1709.26,-309.15 1710,-315 1710.89,-322.04 1710.42,-329.61 1709.37,-336.68"/>
<polygon fill="black" stroke="black" points="1705.95,-335.94 1707.46,-346.43 1712.82,-337.29 1705.95,-335.94"/>
<text text-anchor="middle" x="1719" y="-318.8" font-family="Times,serif" font-size="14.00">up</text>
</g>
<!-- zos_ledge -->
<g id="node55" class="node">
<title>zos_ledge</title>
<ellipse fill="none" stroke="black" cx="1701" cy="-192" rx="51.99" ry="18"/>
<text text-anchor="middle" x="1701" y="-188.3" font-family="Times,serif" font-size="14.00">zos_ledge</text>
</g>
<!-- waterfall_pool&#45;&gt;zos_ledge -->
<g id="edge102" class="edge">
<title>waterfall_pool&#45;&gt;zos_ledge</title>
<path fill="none" stroke="black" d="M1687.73,-261.12C1684.18,-255.65 1680.83,-249.34 1679,-243 1676.75,-235.2 1678.47,-227.02 1681.75,-219.59"/>
<polygon fill="black" stroke="black" points="1684.71,-221.48 1686.45,-211.03 1678.57,-218.11 1684.71,-221.48"/>
<text text-anchor="middle" x="1690.5" y="-231.8" font-family="Times,serif" font-size="14.00">left</text>
</g>
<!-- zos_ledge&#45;&gt;waterfall_pool -->
<g id="edge103" class="edge">
<title>zos_ledge&#45;&gt;waterfall_pool</title>
<path fill="none" stroke="black" d="M1701.63,-210.12C1701.92,-219.78 1702.16,-232.06 1702,-243 1701.97,-245.05 1701.93,-247.17 1701.89,-249.31"/>
<polygon fill="black" stroke="black" points="1698.39,-248.96 1701.64,-259.04 1705.39,-249.14 1698.39,-248.96"/>
<text text-anchor="middle" x="1716.5" y="-231.8" font-family="Times,serif" font-size="14.00">rght</text>
</g>
<!-- long_well -->
<g id="node56" class="node">
<title>long_well</title>
<ellipse fill="none" stroke="black" cx="1701" cy="-105" rx="52.79" ry="18"/>
<text text-anchor="middle" x="1701" y="-101.3" font-family="Times,serif" font-size="14.00">long_well</text>
</g>
<!-- zos_ledge&#45;&gt;long_well -->
<g id="edge104" class="edge">
<title>zos_ledge&#45;&gt;long_well</title>
<path fill="none" stroke="black" d="M1683.58,-174.72C1678.9,-169.27 1674.46,-162.83 1672,-156 1668.99,-147.64 1671.53,-139.07 1676.15,-131.45"/>
<polygon fill="black" stroke="black" points="1678.82,-133.72 1681.94,-123.6 1673.19,-129.57 1678.82,-133.72"/>
<text text-anchor="middle" x="1691" y="-144.8" font-family="Times,serif" font-size="14.00">down</text>
</g>
<!-- long_well&#45;&gt;zos_ledge -->
<g id="edge105" class="edge">
<title>long_well&#45;&gt;zos_ledge</title>
<path fill="none" stroke="black" d="M1706.68,-123.06C1709.24,-132.69 1711.39,-144.97 1710,-156 1709.72,-158.19 1709.35,-160.45 1708.92,-162.7"/>
<polygon fill="black" stroke="black" points="1705.55,-161.71 1706.7,-172.25 1712.37,-163.29 1705.55,-161.71"/>
<text text-anchor="middle" x="1719" y="-144.8" font-family="Times,serif" font-size="14.00">up</text>
</g>
<!-- gorilla_woods_lower_zone -->
<g id="node57" class="node">
<title>gorilla_woods_lower_zone</title>
<ellipse fill="none" stroke="black" cx="1701" cy="-18" rx="126.98" ry="18"/>
<text text-anchor="middle" x="1701" y="-14.3" font-family="Times,serif" font-size="14.00">gorilla_woods_lower_zone</text>
</g>
<!-- long_well&#45;&gt;gorilla_woods_lower_zone -->
<g id="edge106" class="edge">
<title>long_well&#45;&gt;gorilla_woods_lower_zone</title>
<path fill="none" stroke="black" d="M1687.73,-87.12C1684.18,-81.65 1680.83,-75.34 1679,-69 1676.81,-61.41 1678.38,-53.46 1681.49,-46.2"/>
<polygon fill="black" stroke="black" points="1684.51,-47.96 1686.17,-37.49 1678.35,-44.64 1684.51,-47.96"/>
<text text-anchor="middle" x="1690.5" y="-57.8" font-family="Times,serif" font-size="14.00">left</text>
</g>
<!-- gorilla_woods_lower_zone&#45;&gt;long_well -->
<g id="edge107" class="edge">
<title>gorilla_woods_lower_zone&#45;&gt;long_well</title>
<path fill="none" stroke="black" d="M1701.63,-36.12C1701.92,-45.78 1702.16,-58.06 1702,-69 1701.97,-71.05 1701.93,-73.17 1701.89,-75.31"/>
<polygon fill="black" stroke="black" points="1698.39,-74.96 1701.64,-85.04 1705.39,-75.14 1698.39,-74.96"/>
<text text-anchor="middle" x="1716.5" y="-57.8" font-family="Times,serif" font-size="14.00">rght</text>
</g>
<!-- gorilla_woods -->
<g id="node58" class="node">
<title>gorilla_woods</title>
<ellipse fill="none" stroke="black" cx="1051" cy="-1323" rx="71.49" ry="18"/>
<text text-anchor="middle" x="1051" y="-1319.3" font-family="Times,serif" font-size="14.00">gorilla_woods</text>
</g>
<!-- Mokumanas_pit -->
<g id="node59" class="node">
<title>Mokumanas_pit</title>
<ellipse fill="none" stroke="black" cx="1222" cy="-1323" rx="81.49" ry="18"/>
<text text-anchor="middle" x="1222" y="-1319.3" font-family="Times,serif" font-size="14.00">Mokumanas_pit</text>
</g>
<!-- A = &quot;O&quot; -->
<g id="node60" class="node">
<title>A = &quot;O&quot;</title>
<ellipse fill="none" stroke="black" cx="1363" cy="-1323" rx="41.69" ry="18"/>
<text text-anchor="middle" x="1363" y="-1319.3" font-family="Times,serif" font-size="14.00">A = &quot;O&quot;</text>
</g>
<!-- B = &quot;bash&quot; -->
<g id="node61" class="node">
<title>B = &quot;bash&quot;</title>
<ellipse fill="none" stroke="black" cx="1477" cy="-1323" rx="53.89" ry="18"/>
<text text-anchor="middle" x="1477" y="-1319.3" font-family="Times,serif" font-size="14.00">B = &quot;bash&quot;</text>
</g>
<!-- A = &quot;[]&quot; -->
<g id="node62" class="node">
<title>A = &quot;[]&quot;</title>
<ellipse fill="none" stroke="black" cx="1591" cy="-1323" rx="41.69" ry="18"/>
<text text-anchor="middle" x="1591" y="-1319.3" font-family="Times,serif" font-size="14.00">A = &quot;[]&quot;</text>
</g>
</g>
</svg>
