\relax 
\providecommand\zref@newlabel[2]{}
\providecommand\hyper@newdestlabel[2]{}
\providecommand\AtEndDvi@Check{}
\AtEndDvi@Check
\providecommand\HyperFirstAtBeginDocument{\AtBeginDocument}
\HyperFirstAtBeginDocument{\ifx\hyper@anchor\@undefined
\global\let\oldcontentsline\contentsline
\gdef\contentsline#1#2#3#4{\oldcontentsline{#1}{#2}{#3}}
\global\let\oldnewlabel\newlabel
\gdef\newlabel#1#2{\newlabelxx{#1}#2}
\gdef\newlabelxx#1#2#3#4#5#6{\oldnewlabel{#1}{{#2}{#3}}}
\AtEndDocument{\ifx\hyper@anchor\@undefined
\let\contentsline\oldcontentsline
\let\newlabel\oldnewlabel
\fi}
\fi}
\global\let\hyper@last\relax 
\gdef\HyperFirstAtBeginDocument#1{#1}
\providecommand*\HyPL@Entry[1]{}
\bibstyle{ACM-Reference-Format}
\citation{super_metroid}
\citation{castlevania_symphony_of_the_night}
\citation{metroidvania_com}
\citation{metroid_prime}
\citation{ori_and_the_blind_forest}
\citation{jewett2021game}
\citation{osborn2021mappyland,si2017believable,stahlke2020synthesizing}
\citation{dahlskog2015patterns}
\citation{dormans2010adventures,smith2018graph,zhan2018taking}
\citation{moura2011visualizing}
\citation{jamshidi2021narrative}
\citation{peer2021structuring}
\citation{dormans2010adventures,brown2016boss}
\HyPL@Entry{0<</S/D>>}
\@writefile{toc}{\contentsline {section}{Abstract}{1}{section*.1}\protected@file@percent }
\@writefile{toc}{\contentsline {section}{Metroidvania Games and Exploration}{1}{section*.5}\protected@file@percent }
\newlabel{metroidvania-games-and-exploration}{{}{1}{Metroidvania Games and Exploration}{section*.5}{}}
\citation{maptroid}
\bibdata{refs.bib}
\bibcite{brown2016boss}{{1}{2016}{{Brown}}{{Brown}}}
\bibcite{dahlskog2015patterns}{{2}{2015}{{Dahlskog et~al\unhbox \voidb@x \hbox {.}}}{{Dahlskog, Bj{\"o}rk, and Togelius}}}
\bibcite{dormans2010adventures}{{3}{2010}{{Dormans}}{{Dormans}}}
\bibcite{castlevania_symphony_of_the_night}{{4}{1997}{{Hagihara}}{{Hagihara}}}
\bibcite{jamshidi2021narrative}{{5}{2021}{{Jamshidi and Pati}}{{Jamshidi and Pati}}}
\bibcite{jewett2021game}{{6}{2021}{{Jewett}}{{Jewett}}}
\bibcite{maptroid}{{7}{2020}{{lozzajp}}{{lozzajp}}}
\bibcite{ori_and_the_blind_forest}{{8}{2015}{{Mahler}}{{Mahler}}}
\bibcite{moura2011visualizing}{{9}{2011}{{Moura et~al\unhbox \voidb@x \hbox {.}}}{{Moura, El-Nasr, and Shaw}}}
\bibcite{osborn2021mappyland}{{10}{2021}{{Osborn et~al\unhbox \voidb@x \hbox {.}}}{{Osborn, Summerville, Dailey, and Lim}}}
\@writefile{toc}{\contentsline {subsection}{The \texttt  {exploration} Library}{2}{section*.6}\protected@file@percent }
\newlabel{the-exploration-library}{{}{2}{\texorpdfstring {The \texttt {exploration} Library}{The exploration Library}}{section*.6}{}}
\@writefile{toc}{\contentsline {subsection}{Acknowledgements}{2}{section*.7}\protected@file@percent }
\newlabel{acknowledgements}{{}{2}{Acknowledgements}{section*.7}{}}
\@writefile{toc}{\contentsline {section}{References}{2}{section*.9}\protected@file@percent }
\bibcite{metroid_prime}{{11}{2002}{{Pacini}}{{Pacini}}}
\bibcite{metroidvania_com}{{12}{2014}{{Parish}}{{Parish}}}
\bibcite{peer2021structuring}{{13}{2021}{{Peer et~al\unhbox \voidb@x \hbox {.}}}{{Peer, Brunec, Newcombe, and Epstein}}}
\bibcite{super_metroid}{{14}{1994}{{Sakamoto}}{{Sakamoto}}}
\bibcite{si2017believable}{{15}{2017}{{Si}}{{Si}}}
\bibcite{smith2018graph}{{16}{2018}{{Smith et~al\unhbox \voidb@x \hbox {.}}}{{Smith, Padget, and Vidler}}}
\bibcite{stahlke2020synthesizing}{{17}{2020}{{Stahlke}}{{Stahlke}}}
\bibcite{zhan2018taking}{{18}{2019}{{Zhan et~al\unhbox \voidb@x \hbox {.}}}{{Zhan, Aytemiz, and Smith}}}
\newlabel{tocindent-1}{0pt}
\newlabel{tocindent0}{0pt}
\newlabel{tocindent1}{0pt}
\newlabel{tocindent2}{0pt}
\newlabel{tocindent3}{0pt}
\newlabel{TotPages}{{3}{3}{}{page.3}{}}
\zref@newlabel{LastPage}{\default{}\page{3}\abspage{3}}
