Whole exploration metrics:
meanRevisits,1.4375

Per-decision metrics:
Metric ↓/Decision →,Start,_u.0,_u.1,coin_room,above_coin_room,platforms,_u.3,_u.4,dangerplat,_u.5,_u.6,spikes,_u.7,coins,longhall,_u.8,_u.9,pit,_u.10,_u.11,spikecoin,exit,_u.12,bigdoor,_u.13,Dirtmouth,_u.14,_u.15,well,_u.16,_u.17,lockedRoom,pulleys,pillars,_u.19,Temple,_u.20,_u.21,groan,_u.22,glowing,_u.23,_u.24,_u.25,maps,_u.26,_u.27,_u.28,monsterarms,_u.29,poisonlake,_u.30,_u.31,bugs,_u.32,guys,_u.33,spikey,_u.34,_u.35,cage,_u.36,steps,_u.37,_u.38,_u.39,_u.40,bossbug,_u.41,_u.42,mines,_u.43,_u.44,_u.45,rockfloor,_u.46,_u.47,_u.48,_u.49,spiked_wall,_u.50,_u.51,Dirtmouth_shop,_u.52,spikerain,_u.53,_u.54,_u.55,_u.56
isKnown,True,False,False,True,False,True,False,False,True,False,False,True,False,True,True,False,False,True,False,False,True,True,False,True,False,True,False,False,True,False,False,False,True,True,False,True,False,False,True,False,True,False,False,False,True,False,False,False,True,False,True,False,False,True,False,True,False,True,False,False,True,False,True,False,False,False,False,True,False,False,True,False,False,False,True,False,False,False,False,True,False,False,True,False,True,False,False,False,False
revisitCount,1,0,0,0,0,0,0,0,1,0,0,1,0,0,0,0,0,1,0,0,0,0,0,0,0,4,0,0,6,0,0,0,8,5,0,1,0,0,1,0,0,0,0,0,1,0,0,0,1,0,0,0,0,3,0,2,0,3,0,0,0,0,4,0,0,0,0,1,0,0,1,0,0,0,0,0,0,0,0,0,0,0,0,0,1,0,0,0,0

Per-step metrics:
Step ↓/Metric →,unexploredCount,traversableUnexploredCount,meanActions,meanBranches
0,0,0,,
1,2,2,0.0,2.0
2,2,2,0.0,2.0
3,2,2,0.0,2.0
4,3,3,0.0,2.3333333333333335
5,4,4,0.0,2.5
6,4,4,0.0,2.4
7,3,3,0.0,2.1666666666666665
8,3,3,0.0,2.1666666666666665
9,3,3,0.0,2.1666666666666665
10,4,4,0.0,2.2857142857142856
11,5,5,0.0,2.375
12,4,4,0.0,2.2222222222222223
13,4,4,0.0,2.2222222222222223
14,4,4,0.0,2.2
15,4,4,0.0,2.1818181818181817
16,5,4,0.0,2.25
17,6,5,0.0,2.3076923076923075
18,7,5,0.0,2.3846153846153846
19,7,5,0.0,2.3846153846153846
20,6,4,0.0,2.2857142857142856
21,6,4,0.0,2.2857142857142856
22,6,4,0.0,2.2666666666666666
23,5,3,0.0,2.1875
24,5,3,0.0,2.1875
25,5,3,0.0,2.1875
26,7,5,0.0,2.3125
27,6,4,0.0,2.235294117647059
28,7,5,0.0,2.2941176470588234
29,7,5,0.0,2.2777777777777777
30,7,5,0.04,2.2777777777777777
31,9,7,0.037037037037037035,2.388888888888889
32,10,8,0.034482758620689655,2.4210526315789473
33,11,9,0.06666666666666667,2.473684210526316
34,11,9,0.06451612903225806,2.45
35,11,9,0.0625,2.4285714285714284
36,11,9,0.0625,2.4285714285714284
37,12,10,0.06060606060606061,2.4761904761904763
38,12,10,0.06060606060606061,2.4761904761904763
39,12,10,0.058823529411764705,2.4545454545454546
40,12,10,0.05714285714285714,2.4347826086956523
41,13,11,0.05405405405405406,2.4583333333333335
42,13,11,0.05263157894736842,2.44
43,13,11,0.05263157894736842,2.44
44,16,14,0.047619047619047616,2.5384615384615383
45,17,15,0.045454545454545456,2.5555555555555554
46,17,15,0.06818181818181818,2.5555555555555554
47,17,15,0.06818181818181818,2.5555555555555554
48,19,17,0.06382978723404255,2.607142857142857
49,19,17,0.0625,2.586206896551724
50,19,17,0.0625,2.586206896551724
51,19,17,0.0625,2.586206896551724
52,20,18,0.061224489795918366,2.6206896551724137
53,20,18,0.061224489795918366,2.6206896551724137
54,21,19,0.06,2.6551724137931036
55,22,20,0.058823529411764705,2.689655172413793
56,23,21,0.05660377358490566,2.7
57,23,21,0.05660377358490566,2.7
58,23,21,0.05660377358490566,2.7
59,23,21,0.05660377358490566,2.7
60,23,21,0.05660377358490566,2.7
61,23,21,0.05660377358490566,2.7
62,23,21,0.05660377358490566,2.7
63,23,21,0.05660377358490566,2.7
64,23,21,0.05660377358490566,2.7
65,22,21,0.05660377358490566,2.6451612903225805
66,22,21,0.05660377358490566,2.6451612903225805
67,22,21,0.05660377358490566,2.6451612903225805
68,22,21,0.05660377358490566,2.6451612903225805
69,22,21,0.05660377358490566,2.6451612903225805
70,23,22,0.05555555555555555,2.6774193548387095
71,23,22,0.05454545454545454,2.65625
72,21,20,0.05660377358490566,2.65625
73,21,20,0.05660377358490566,2.65625
74,21,20,0.07547169811320754,2.65625
75,21,20,0.07547169811320754,2.65625
76,21,20,0.07547169811320754,2.65625
77,21,20,0.07547169811320754,2.65625
78,21,20,0.07547169811320754,2.65625
79,21,20,0.07547169811320754,2.65625
80,22,21,0.07407407407407407,2.6875
81,24,23,0.07142857142857142,2.75
82,24,23,0.07142857142857142,2.75

"Per-decision-per-step, metrics (one table per metric):"
actionCount
Step ↓/Decision →,Start,_u.0,_u.1,coin_room,above_coin_room,platforms,_u.3,_u.4,dangerplat,_u.5,_u.6,spikes,_u.7,coins,longhall,_u.8,_u.9,pit,_u.10,_u.11,spikecoin,exit,_u.12,bigdoor,_u.13,Dirtmouth,_u.14,_u.15,well,_u.16,_u.17,lockedRoom,pulleys,pillars,_u.19,Temple,_u.20,_u.21,groan,_u.22,glowing,_u.23,_u.24,_u.25,maps,_u.26,_u.27,_u.28,monsterarms,_u.29,poisonlake,_u.30,_u.31,bugs,_u.32,guys,_u.33,spikey,_u.34,_u.35,cage,_u.36,steps,_u.37,_u.38,_u.39,_u.40,bossbug,_u.41,_u.42,mines,_u.43,_u.44,_u.45,rockfloor,_u.46,_u.47,_u.48,_u.49,spiked_wall,_u.50,_u.51,Dirtmouth_shop,_u.52,spikerain,_u.53,_u.54,_u.55,_u.56
0,,,,,,,,,,,,,,,,,,,,,,,,,,,,,,,,,,,,,,,,,,,,,,,,,,,,,,,,,,,,,,,,,,,,,,,,,,,,,,,,,,,,,,,,,
1,0,0,0,,,,,,,,,,,,,,,,,,,,,,,,,,,,,,,,,,,,,,,,,,,,,,,,,,,,,,,,,,,,,,,,,,,,,,,,,,,,,,,,,,,,,,
2,0,0,,0,0,,,,,,,,,,,,,,,,,,,,,,,,,,,,,,,,,,,,,,,,,,,,,,,,,,,,,,,,,,,,,,,,,,,,,,,,,,,,,,,,,,,,
3,0,0,,0,0,,,,,,,,,,,,,,,,,,,,,,,,,,,,,,,,,,,,,,,,,,,,,,,,,,,,,,,,,,,,,,,,,,,,,,,,,,,,,,,,,,,,
4,0,,,0,0,0,0,0,,,,,,,,,,,,,,,,,,,,,,,,,,,,,,,,,,,,,,,,,,,,,,,,,,,,,,,,,,,,,,,,,,,,,,,,,,,,,,,,,
5,0,,,0,0,0,,0,0,0,0,,,,,,,,,,,,,,,,,,,,,,,,,,,,,,,,,,,,,,,,,,,,,,,,,,,,,,,,,,,,,,,,,,,,,,,,,,,,,,
6,0,,,0,0,0,,0,0,,0,0,0,,,,,,,,,,,,,,,,,,,,,,,,,,,,,,,,,,,,,,,,,,,,,,,,,,,,,,,,,,,,,,,,,,,,,,,,,,,,
7,0,,,0,0,0,,0,0,,0,0,,0,,,,,,,,,,,,,,,,,,,,,,,,,,,,,,,,,,,,,,,,,,,,,,,,,,,,,,,,,,,,,,,,,,,,,,,,,,,
8,0,,,0,0,0,,0,0,,0,0,,0,,,,,,,,,,,,,,,,,,,,,,,,,,,,,,,,,,,,,,,,,,,,,,,,,,,,,,,,,,,,,,,,,,,,,,,,,,,
9,0,,,0,0,0,,0,0,,0,0,,0,,,,,,,,,,,,,,,,,,,,,,,,,,,,,,,,,,,,,,,,,,,,,,,,,,,,,,,,,,,,,,,,,,,,,,,,,,,
10,0,,,0,0,0,,0,0,,,0,,0,0,0,0,,,,,,,,,,,,,,,,,,,,,,,,,,,,,,,,,,,,,,,,,,,,,,,,,,,,,,,,,,,,,,,,,,,,,,,,
11,0,,,0,0,0,,0,0,,,0,,0,0,,0,0,0,0,,,,,,,,,,,,,,,,,,,,,,,,,,,,,,,,,,,,,,,,,,,,,,,,,,,,,,,,,,,,,,,,,,,,,
12,0,,,0,0,0,,0,0,,,0,,0,0,,0,0,,0,0,,,,,,,,,,,,,,,,,,,,,,,,,,,,,,,,,,,,,,,,,,,,,,,,,,,,,,,,,,,,,,,,,,,,
13,0,,,0,0,0,,0,0,,,0,,0,0,,0,0,,0,0,,,,,,,,,,,,,,,,,,,,,,,,,,,,,,,,,,,,,,,,,,,,,,,,,,,,,,,,,,,,,,,,,,,,
14,0,,,0,0,0,,0,0,,,0,,0,0,,0,0,,,0,0,0,,,,,,,,,,,,,,,,,,,,,,,,,,,,,,,,,,,,,,,,,,,,,,,,,,,,,,,,,,,,,,,,,,
15,0,,,0,0,0,,0,0,,,0,,0,0,,0,0,,,0,0,,0,0,,,,,,,,,,,,,,,,,,,,,,,,,,,,,,,,,,,,,,,,,,,,,,,,,,,,,,,,,,,,,,,,
16,0,,,0,0,0,,0,0,,,0,,0,0,,0,0,,,0,0,,0,,0,0,0,,,,,,,,,,,,,,,,,,,,,,,,,,,,,,,,,,,,,,,,,,,,,,,,,,,,,,,,,,,,,
17,0,,,0,0,0,,0,0,,,0,,0,0,,0,0,,,0,0,,0,,0,0,,0,0,0,,,,,,,,,,,,,,,,,,,,,,,,,,,,,,,,,,,,,,,,,,,,,,,,,,,,,,,,,,
18,0,,,0,0,0,,0,0,,,0,,0,0,,0,0,,,0,0,,0,,0,0,,0,0,0,0,,,,,,,,,,,,,,,,,,,,,,,,,,,,,,,,,,,,,,,,,,,,,,,,,,,,,,,,,
19,0,,,0,0,0,,0,0,,,0,,0,0,,0,0,,,0,0,,0,,0,0,,0,0,0,0,,,,,,,,,,,,,,,,,,,,,,,,,,,,,,,,,,,,,,,,,,,,,,,,,,,,,,,,,
20,0,,,0,0,0,,0,0,,,0,,0,0,,0,0,,,0,0,,0,,0,0,,0,,0,0,0,,,,,,,,,,,,,,,,,,,,,,,,,,,,,,,,,,,,,,,,,,,,,,,,,,,,,,,,
21,0,,,0,0,0,,0,0,,,0,,0,0,,0,0,,,0,0,,0,,0,0,,0,,0,0,0,,,,,,,,,,,,,,,,,,,,,,,,,,,,,,,,,,,,,,,,,,,,,,,,,,,,,,,,
22,0,,,0,0,0,,0,0,,,0,,0,0,,0,0,,,0,0,,0,,0,0,,0,,,0,0,0,0,,,,,,,,,,,,,,,,,,,,,,,,,,,,,,,,,,,,,,,,,,,,,,,,,,,,,,
23,0,,,0,0,0,,0,0,,,0,,0,0,,0,0,,,0,0,,0,,0,0,,0,,,0,0,0,,0,,,,,,,,,,,,,,,,,,,,,,,,,,,,,,,,,,,,,,,,,,,,,,,,,,,,,
24,0,,,0,0,0,,0,0,,,0,,0,0,,0,0,,,0,0,,0,,0,0,,0,,,0,0,0,,0,,,,,,,,,,,,,,,,,,,,,,,,,,,,,,,,,,,,,,,,,,,,,,,,,,,,,
25,0,,,0,0,0,,0,0,,,0,,0,0,,0,0,,,0,0,,0,,0,0,,0,,,0,0,0,,0,,,,,,,,,,,,,,,,,,,,,,,,,,,,,,,,,,,,,,,,,,,,,,,,,,,,,
26,0,,,0,0,0,,0,0,,,0,,0,0,,0,0,,,0,0,,0,,0,0,,0,,,0,0,0,,0,0,0,,,,,,,,,,,,,,,,,,,,,,,,,,,,,,,,,,,,,,,,,,,,,,,,,,,
27,0,,,0,0,0,,0,0,,,0,,0,0,,0,0,,,0,0,,0,,0,0,,0,,,0,0,0,,0,,0,0,,,,,,,,,,,,,,,,,,,,,,,,,,,,,,,,,,,,,,,,,,,,,,,,,,
28,0,,,0,0,0,,0,0,,,0,,0,0,,0,0,,,0,0,,0,,0,0,,0,,,0,0,0,,0,,0,0,0,,,,,,,,,,,,,,,,,,,,,,,,,,,,,,,,,,,,,,,,,,,,,,,,,
29,0,,,0,0,0,,0,0,,,0,,0,0,,0,0,,,0,0,,0,,0,0,,0,,,0,0,0,,0,,0,0,,0,0,,,,,,,,,,,,,,,,,,,,,,,,,,,,,,,,,,,,,,,,,,,,,,,
30,0,,,0,0,0,,0,0,,,0,,0,0,,0,0,,,0,0,,0,,0,0,,0,,,0,0,0,,0,,0,0,,1,0,,,,,,,,,,,,,,,,,,,,,,,,,,,,,,,,,,,,,,,,,,,,,,,
31,0,,,0,0,0,,0,0,,,0,,0,0,,0,0,,,0,0,,0,,0,0,,0,,,0,0,0,,0,,0,0,,1,0,0,0,,,,,,,,,,,,,,,,,,,,,,,,,,,,,,,,,,,,,,,,,,,,,
32,0,,,0,0,0,,0,0,,,0,,0,0,,0,0,,,0,0,,0,,0,0,,0,,,0,0,0,,0,,0,0,,1,0,0,,0,0,0,,,,,,,,,,,,,,,,,,,,,,,,,,,,,,,,,,,,,,,,,,
33,0,,,0,0,0,,0,0,,,0,,0,0,,0,0,,,0,0,,0,,0,0,,0,,,0,0,0,,0,,0,0,,1,0,0,,1,0,0,0,,,,,,,,,,,,,,,,,,,,,,,,,,,,,,,,,,,,,,,,,
34,0,,,0,0,0,,0,0,,,0,,0,0,,0,0,,,0,0,,0,,0,0,,0,,,0,0,0,,0,,0,0,,1,0,0,,1,0,0,,0,0,,,,,,,,,,,,,,,,,,,,,,,,,,,,,,,,,,,,,,,
35,0,,,0,0,0,,0,0,,,0,,0,0,,0,0,,,0,0,,0,,0,0,,0,,,0,0,0,,0,,0,0,,1,0,0,,1,0,0,,0,,0,0,,,,,,,,,,,,,,,,,,,,,,,,,,,,,,,,,,,,,
36,0,,,0,0,0,,0,0,,,0,,0,0,,0,0,,,0,0,,0,,0,0,,0,,,0,0,0,,0,,0,0,,1,0,0,,1,0,0,,0,,0,0,,,,,,,,,,,,,,,,,,,,,,,,,,,,,,,,,,,,,
37,0,,,0,0,0,,0,0,,,0,,0,0,,0,0,,,0,0,,0,,0,0,,0,,,0,0,0,,0,,0,0,,1,0,0,,1,0,0,,0,,0,0,0,,,,,,,,,,,,,,,,,,,,,,,,,,,,,,,,,,,,
38,0,,,0,0,0,,0,0,,,0,,0,0,,0,0,,,0,0,,0,,0,0,,0,,,0,0,0,,0,,0,0,,1,0,0,,1,0,0,,0,,0,0,0,,,,,,,,,,,,,,,,,,,,,,,,,,,,,,,,,,,,
39,0,,,0,0,0,,0,0,,,0,,0,0,,0,0,,,0,0,,0,,0,0,,0,,,0,0,0,,0,,0,0,,1,0,,,1,0,0,,0,,0,0,0,0,0,,,,,,,,,,,,,,,,,,,,,,,,,,,,,,,,,,
40,0,,,0,0,0,,0,0,,,0,,0,0,,0,0,,,0,0,,0,,0,0,,0,,,0,0,0,,0,,0,0,,1,0,,,1,0,0,,0,,0,0,0,0,,0,0,,,,,,,,,,,,,,,,,,,,,,,,,,,,,,,,
41,0,,,0,0,0,,0,0,,,0,,0,0,,0,0,,,0,0,,0,,0,0,,0,,,0,0,0,,0,,0,0,,1,0,,,1,0,0,,0,,0,0,0,0,,0,,0,0,0,,,,,,,,,,,,,,,,,,,,,,,,,,,,,
42,0,,,0,0,0,,0,0,,,0,,0,0,,0,0,,,0,0,,0,,0,0,,0,,,0,0,0,,0,,0,0,,1,0,,,1,0,0,,0,,0,0,0,0,,0,,0,0,,0,0,,,,,,,,,,,,,,,,,,,,,,,,,,,
43,0,,,0,0,0,,0,0,,,0,,0,0,,0,0,,,0,0,,0,,0,0,,0,,,0,0,0,,0,,0,0,,1,0,,,1,0,0,,0,,0,0,0,0,,0,,0,0,,0,0,,,,,,,,,,,,,,,,,,,,,,,,,,,
44,0,,,0,0,0,,0,0,,,0,,0,0,,0,0,,,0,0,,0,,0,0,,0,,,0,0,0,,0,,0,0,,1,0,,,1,0,0,,0,,0,0,0,0,,0,,0,,,0,0,0,0,0,0,0,,,,,,,,,,,,,,,,,,,,,,
45,0,,,0,0,0,,0,0,,,0,,0,0,,0,0,,,0,0,,0,,0,0,,0,,,0,0,0,,0,,0,0,,1,0,,,1,0,0,,0,,0,0,0,0,,0,,0,,,0,0,0,0,0,0,,0,0,0,,,,,,,,,,,,,,,,,,,
46,0,,,0,0,0,,0,0,,,0,,0,0,,0,0,,,0,0,,0,,0,0,,0,,,0,0,0,,0,,0,0,,1,0,,,1,0,0,,0,,0,0,0,0,,0,,0,,,0,0,0,0,0,0,,1,0,0,,,,,,,,,,,,,,,,,,,
47,0,,,0,0,0,,0,0,,,0,,0,0,,0,0,,,0,0,,0,,0,0,,0,,,0,0,0,,0,,0,0,,1,0,,,1,0,0,,0,,0,0,0,0,,0,,0,,,0,0,0,0,0,0,,1,0,0,,,,,,,,,,,,,,,,,,,
48,0,,,0,0,0,,0,0,,,0,,0,0,,0,0,,,0,0,,0,,0,0,,0,,,0,0,0,,0,,0,0,,1,0,,,1,0,0,,0,,0,0,0,0,,0,,0,,,0,0,0,0,,0,,1,0,0,0,0,0,0,,,,,,,,,,,,,,,
49,0,,,0,0,0,,0,0,,,0,,0,0,,0,0,,,0,0,,0,,0,0,,0,,,0,0,0,,0,,0,0,,1,0,,,1,0,0,,0,,0,0,0,0,,0,,0,,,0,0,0,0,,0,,1,0,0,0,0,0,,0,0,,,,,,,,,,,,,
50,0,,,0,0,0,,0,0,,,0,,0,0,,0,0,,,0,0,,0,,0,0,,0,,,0,0,0,,0,,0,0,,1,0,,,1,0,0,,0,,0,0,0,0,,0,,0,,,0,0,0,0,,0,,1,0,0,0,0,0,,0,0,,,,,,,,,,,,,
51,0,,,0,0,0,,0,0,,,0,,0,0,,0,0,,,0,0,,0,,0,0,,0,,,0,0,0,,0,,0,0,,1,0,,,1,0,0,,0,,0,0,0,0,,0,,0,,,0,0,0,0,,0,,1,0,0,0,0,0,,0,0,,,,,,,,,,,,,
52,0,,,0,0,0,,0,0,,,0,,0,0,,0,0,,,0,0,,0,,0,0,,0,,,0,0,0,,0,,0,0,,1,0,,,1,0,0,,0,,0,0,0,0,,0,,0,,,0,0,0,0,,0,,1,0,0,0,0,0,,0,0,0,,,,,,,,,,,,
53,0,,,0,0,0,,0,0,,,0,,0,0,,0,0,,,0,0,,0,,0,0,,0,,,0,0,0,,0,,0,0,,1,0,,,1,0,0,,0,,0,0,0,0,,0,,0,,,0,0,0,0,,0,,1,0,0,0,0,0,,0,0,0,,,,,,,,,,,,
54,0,,,0,0,0,,0,0,,,0,,0,0,,0,0,,,0,0,,0,,0,0,,0,,,0,0,0,,0,,0,0,,1,0,,,1,0,0,,0,,0,0,0,0,,0,,0,,,0,0,0,0,,0,,1,0,0,0,0,0,,0,0,0,0,,,,,,,,,,,
55,0,,,0,0,0,,0,0,,,0,,0,0,,0,0,,,0,0,,0,,0,0,,0,,,0,0,0,,0,,0,0,,1,0,,,1,0,0,,0,,0,0,0,0,,0,,0,,,0,0,0,0,,0,,1,0,0,0,0,0,,0,0,0,0,0,,,,,,,,,,
56,0,,,0,0,0,,0,0,,,0,,0,0,,0,0,,,0,0,,0,,0,0,,0,,,0,0,0,,0,,0,0,,1,0,,,1,0,0,,0,,0,0,0,0,,0,,0,,,0,0,0,0,,0,,1,0,0,0,0,0,,0,0,0,0,,0,0,0,,,,,,,
57,0,,,0,0,0,,0,0,,,0,,0,0,,0,0,,,0,0,,0,,0,0,,0,,,0,0,0,,0,,0,0,,1,0,,,1,0,0,,0,,0,0,0,0,,0,,0,,,0,0,0,0,,0,,1,0,0,0,0,0,,0,0,0,0,,0,0,0,,,,,,,
58,0,,,0,0,0,,0,0,,,0,,0,0,,0,0,,,0,0,,0,,0,0,,0,,,0,0,0,,0,,0,0,,1,0,,,1,0,0,,0,,0,0,0,0,,0,,0,,,0,0,0,0,,0,,1,0,0,0,0,0,,0,0,0,0,,0,0,0,,,,,,,
59,0,,,0,0,0,,0,0,,,0,,0,0,,0,0,,,0,0,,0,,0,0,,0,,,0,0,0,,0,,0,0,,1,0,,,1,0,0,,0,,0,0,0,0,,0,,0,,,0,0,0,0,,0,,1,0,0,0,0,0,,0,0,0,0,,0,0,0,,,,,,,
60,0,,,0,0,0,,0,0,,,0,,0,0,,0,0,,,0,0,,0,,0,0,,0,,,0,0,0,,0,,0,0,,1,0,,,1,0,0,,0,,0,0,0,0,,0,,0,,,0,0,0,0,,0,,1,0,0,0,0,0,,0,0,0,0,,0,0,0,,,,,,,
61,0,,,0,0,0,,0,0,,,0,,0,0,,0,0,,,0,0,,0,,0,0,,0,,,0,0,0,,0,,0,0,,1,0,,,1,0,0,,0,,0,0,0,0,,0,,0,,,0,0,0,0,,0,,1,0,0,0,0,0,,0,0,0,0,,0,0,0,,,,,,,
62,0,,,0,0,0,,0,0,,,0,,0,0,,0,0,,,0,0,,0,,0,0,,0,,,0,0,0,,0,,0,0,,1,0,,,1,0,0,,0,,0,0,0,0,,0,,0,,,0,0,0,0,,0,,1,0,0,0,0,0,,0,0,0,0,,0,0,0,,,,,,,
63,0,,,0,0,0,,0,0,,,0,,0,0,,0,0,,,0,0,,0,,0,0,,0,,,0,0,0,,0,,0,0,,1,0,,,1,0,0,,0,,0,0,0,0,,0,,0,,,0,0,0,0,,0,,1,0,0,0,0,0,,0,0,0,0,,0,0,0,,,,,,,
64,0,,,0,0,0,,0,0,,,0,,0,0,,0,0,,,0,0,,0,,0,0,,0,,,0,0,0,,0,,0,0,,1,0,,,1,0,0,,0,,0,0,0,0,,0,,0,,,0,0,0,0,,0,,1,0,0,0,0,0,,0,0,0,0,,0,0,0,,,,,,,
65,0,,,0,0,0,,0,0,,,0,,0,0,,0,0,,,0,0,,0,,0,,,0,,,0,0,0,,0,,0,0,,1,0,,,1,0,0,,0,,0,0,0,0,,0,,0,,,0,0,0,0,,0,,1,0,0,0,0,0,,0,0,0,0,,0,0,0,0,,,,,,
66,0,,,0,0,0,,0,0,,,0,,0,0,,0,0,,,0,0,,0,,0,,,0,,,0,0,0,,0,,0,0,,1,0,,,1,0,0,,0,,0,0,0,0,,0,,0,,,0,0,0,0,,0,,1,0,0,0,0,0,,0,0,0,0,,0,0,0,0,,,,,,
67,0,,,0,0,0,,0,0,,,0,,0,0,,0,0,,,0,0,,0,,0,,,0,,,0,0,0,,0,,0,0,,1,0,,,1,0,0,,0,,0,0,0,0,,0,,0,,,0,0,0,0,,0,,1,0,0,0,0,0,,0,0,0,0,,0,0,0,0,,,,,,
68,0,,,0,0,0,,0,0,,,0,,0,0,,0,0,,,0,0,,0,,0,,,0,,,0,0,0,,0,,0,0,,1,0,,,1,0,0,,0,,0,0,0,0,,0,,0,,,0,0,0,0,,0,,1,0,0,0,0,0,,0,0,0,0,,0,0,0,0,,,,,,
69,0,,,0,0,0,,0,0,,,0,,0,0,,0,0,,,0,0,,0,,0,,,0,,,0,0,0,,0,,0,0,,1,0,,,1,0,0,,0,,0,0,0,0,,0,,0,,,0,0,0,0,,0,,1,0,0,0,0,0,,0,0,0,0,,0,0,0,0,,,,,,
70,0,,,0,0,0,,0,0,,,0,,0,0,,0,0,,,0,0,,0,,0,,,0,,,0,0,0,,0,,0,0,,1,0,,,1,0,0,,0,,0,0,0,0,,0,,0,,,0,0,0,0,,0,,1,0,0,0,0,0,,0,0,0,0,,0,0,0,0,0,,,,,
71,0,,,0,0,0,,0,0,,,0,,0,0,,0,0,,,0,0,,0,,0,,,0,,,0,0,0,,0,,0,0,,1,0,,,1,0,0,,0,,0,0,0,0,,0,,0,,,0,0,0,0,,0,,1,0,0,0,0,0,,0,0,0,0,,0,0,0,0,,0,0,,,
72,0,,,0,0,0,,0,0,,,0,,0,0,,0,0,,,0,0,,0,,0,,,0,,,0,0,0,,0,,0,0,,1,0,,,1,0,0,,0,,0,0,0,0,,0,,0,,,0,0,0,0,,,,1,0,0,0,0,0,,0,0,0,0,,0,0,0,0,,0,,,,
73,0,,,0,0,0,,0,0,,,0,,0,0,,0,0,,,0,0,,0,,0,,,0,,,0,0,0,,0,,0,0,,1,0,,,1,0,0,,0,,0,0,0,0,,0,,0,,,0,0,0,0,,,,1,0,0,0,0,0,,0,0,0,0,,0,0,0,0,,0,,,,
74,0,,,0,0,0,,0,0,,,0,,0,0,,0,0,,,0,0,,0,,0,,,0,,,0,0,0,,0,,0,0,,1,0,,,1,0,0,,0,,0,0,0,0,,0,,0,,,0,0,0,0,,,,2,0,0,0,0,0,,0,0,0,0,,0,0,0,0,,0,,,,
75,0,,,0,0,0,,0,0,,,0,,0,0,,0,0,,,0,0,,0,,0,,,0,,,0,0,0,,0,,0,0,,1,0,,,1,0,0,,0,,0,0,0,0,,0,,0,,,0,0,0,0,,,,2,0,0,0,0,0,,0,0,0,0,,0,0,0,0,,0,,,,
76,0,,,0,0,0,,0,0,,,0,,0,0,,0,0,,,0,0,,0,,0,,,0,,,0,0,0,,0,,0,0,,1,0,,,1,0,0,,0,,0,0,0,0,,0,,0,,,0,0,0,0,,,,2,0,0,0,0,0,,0,0,0,0,,0,0,0,0,,0,,,,
77,0,,,0,0,0,,0,0,,,0,,0,0,,0,0,,,0,0,,0,,0,,,0,,,0,0,0,,0,,0,0,,1,0,,,1,0,0,,0,,0,0,0,0,,0,,0,,,0,0,0,0,,,,2,0,0,0,0,0,,0,0,0,0,,0,0,0,0,,0,,,,
78,0,,,0,0,0,,0,0,,,0,,0,0,,0,0,,,0,0,,0,,0,,,0,,,0,0,0,,0,,0,0,,1,0,,,1,0,0,,0,,0,0,0,0,,0,,0,,,0,0,0,0,,,,2,0,0,0,0,0,,0,0,0,0,,0,0,0,0,,0,,,,
79,0,,,0,0,0,,0,0,,,0,,0,0,,0,0,,,0,0,,0,,0,,,0,,,0,0,0,,0,,0,0,,1,0,,,1,0,0,,0,,0,0,0,0,,0,,0,,,0,0,0,0,,,,2,0,0,0,0,0,,0,0,0,0,,0,0,0,0,,0,,,,
80,0,,,0,0,0,,0,0,,,0,,0,0,,0,0,,,0,0,,0,,0,,,0,,,0,0,0,,0,,0,0,,1,0,,,1,0,0,,0,,0,0,0,0,,0,,0,,,0,0,0,0,,,,2,0,0,0,0,0,,0,0,0,0,,0,0,0,0,,0,,0,,
81,0,,,0,0,0,,0,0,,,0,,0,0,,0,0,,,0,0,,0,,0,,,0,,,0,0,0,,0,,0,0,,1,0,,,1,0,0,,0,,0,0,0,0,,0,,0,,,0,0,0,0,,,,2,0,0,0,0,0,,0,0,0,0,,0,0,0,0,,0,,0,0,0
82,0,,,0,0,0,,0,0,,,0,,0,0,,0,0,,,0,0,,0,,0,,,0,,,0,0,0,,0,,0,0,,1,0,,,1,0,0,,0,,0,0,0,0,,0,,0,,,0,0,0,0,,,,2,0,0,0,0,0,,0,0,0,0,,0,0,0,0,,0,,0,0,0
branchCount
Step ↓/Decision →,Start,_u.0,_u.1,coin_room,above_coin_room,platforms,_u.3,_u.4,dangerplat,_u.5,_u.6,spikes,_u.7,coins,longhall,_u.8,_u.9,pit,_u.10,_u.11,spikecoin,exit,_u.12,bigdoor,_u.13,Dirtmouth,_u.14,_u.15,well,_u.16,_u.17,lockedRoom,pulleys,pillars,_u.19,Temple,_u.20,_u.21,groan,_u.22,glowing,_u.23,_u.24,_u.25,maps,_u.26,_u.27,_u.28,monsterarms,_u.29,poisonlake,_u.30,_u.31,bugs,_u.32,guys,_u.33,spikey,_u.34,_u.35,cage,_u.36,steps,_u.37,_u.38,_u.39,_u.40,bossbug,_u.41,_u.42,mines,_u.43,_u.44,_u.45,rockfloor,_u.46,_u.47,_u.48,_u.49,spiked_wall,_u.50,_u.51,Dirtmouth_shop,_u.52,spikerain,_u.53,_u.54,_u.55,_u.56
0,,,,,,,,,,,,,,,,,,,,,,,,,,,,,,,,,,,,,,,,,,,,,,,,,,,,,,,,,,,,,,,,,,,,,,,,,,,,,,,,,,,,,,,,,
1,2,,,,,,,,,,,,,,,,,,,,,,,,,,,,,,,,,,,,,,,,,,,,,,,,,,,,,,,,,,,,,,,,,,,,,,,,,,,,,,,,,,,,,,,,
2,2,,,2,,,,,,,,,,,,,,,,,,,,,,,,,,,,,,,,,,,,,,,,,,,,,,,,,,,,,,,,,,,,,,,,,,,,,,,,,,,,,,,,,,,,,
3,2,,,2,,,,,,,,,,,,,,,,,,,,,,,,,,,,,,,,,,,,,,,,,,,,,,,,,,,,,,,,,,,,,,,,,,,,,,,,,,,,,,,,,,,,,
4,2,,,2,,3,,,,,,,,,,,,,,,,,,,,,,,,,,,,,,,,,,,,,,,,,,,,,,,,,,,,,,,,,,,,,,,,,,,,,,,,,,,,,,,,,,,
5,2,,,2,,3,,,3,,,,,,,,,,,,,,,,,,,,,,,,,,,,,,,,,,,,,,,,,,,,,,,,,,,,,,,,,,,,,,,,,,,,,,,,,,,,,,,,
6,2,,,2,,3,,,3,,,2,,,,,,,,,,,,,,,,,,,,,,,,,,,,,,,,,,,,,,,,,,,,,,,,,,,,,,,,,,,,,,,,,,,,,,,,,,,,,
7,2,,,2,,3,,,3,,,2,,1,,,,,,,,,,,,,,,,,,,,,,,,,,,,,,,,,,,,,,,,,,,,,,,,,,,,,,,,,,,,,,,,,,,,,,,,,,,
8,2,,,2,,3,,,3,,,2,,1,,,,,,,,,,,,,,,,,,,,,,,,,,,,,,,,,,,,,,,,,,,,,,,,,,,,,,,,,,,,,,,,,,,,,,,,,,,
9,2,,,2,,3,,,3,,,2,,1,,,,,,,,,,,,,,,,,,,,,,,,,,,,,,,,,,,,,,,,,,,,,,,,,,,,,,,,,,,,,,,,,,,,,,,,,,,
10,2,,,2,,3,,,3,,,2,,1,3,,,,,,,,,,,,,,,,,,,,,,,,,,,,,,,,,,,,,,,,,,,,,,,,,,,,,,,,,,,,,,,,,,,,,,,,,,
11,2,,,2,,3,,,3,,,2,,1,3,,,3,,,,,,,,,,,,,,,,,,,,,,,,,,,,,,,,,,,,,,,,,,,,,,,,,,,,,,,,,,,,,,,,,,,,,,,
12,2,,,2,,3,,,3,,,2,,1,3,,,3,,,1,,,,,,,,,,,,,,,,,,,,,,,,,,,,,,,,,,,,,,,,,,,,,,,,,,,,,,,,,,,,,,,,,,,,
13,2,,,2,,3,,,3,,,2,,1,3,,,3,,,1,,,,,,,,,,,,,,,,,,,,,,,,,,,,,,,,,,,,,,,,,,,,,,,,,,,,,,,,,,,,,,,,,,,,
14,2,,,2,,3,,,3,,,2,,1,3,,,3,,,1,2,,,,,,,,,,,,,,,,,,,,,,,,,,,,,,,,,,,,,,,,,,,,,,,,,,,,,,,,,,,,,,,,,,,
15,2,,,2,,3,,,3,,,2,,1,3,,,3,,,1,2,,2,,,,,,,,,,,,,,,,,,,,,,,,,,,,,,,,,,,,,,,,,,,,,,,,,,,,,,,,,,,,,,,,,
16,2,,,2,,3,,,3,,,2,,1,3,,,3,,,1,2,,2,,3,,,,,,,,,,,,,,,,,,,,,,,,,,,,,,,,,,,,,,,,,,,,,,,,,,,,,,,,,,,,,,,
17,2,,,2,,3,,,3,,,2,,1,3,,,3,,,1,2,,2,,3,,,3,,,,,,,,,,,,,,,,,,,,,,,,,,,,,,,,,,,,,,,,,,,,,,,,,,,,,,,,,,,,
18,2,,,2,,3,,,3,,,2,,1,3,,,3,,,1,2,,2,,4,,,3,,,,,,,,,,,,,,,,,,,,,,,,,,,,,,,,,,,,,,,,,,,,,,,,,,,,,,,,,,,,
19,2,,,2,,3,,,3,,,2,,1,3,,,3,,,1,2,,2,,4,,,3,,,,,,,,,,,,,,,,,,,,,,,,,,,,,,,,,,,,,,,,,,,,,,,,,,,,,,,,,,,,
20,2,,,2,,3,,,3,,,2,,1,3,,,3,,,1,2,,2,,4,,,3,,,,1,,,,,,,,,,,,,,,,,,,,,,,,,,,,,,,,,,,,,,,,,,,,,,,,,,,,,,,,
21,2,,,2,,3,,,3,,,2,,1,3,,,3,,,1,2,,2,,4,,,3,,,,1,,,,,,,,,,,,,,,,,,,,,,,,,,,,,,,,,,,,,,,,,,,,,,,,,,,,,,,,
22,2,,,2,,3,,,3,,,2,,1,3,,,3,,,1,2,,2,,4,,,3,,,,1,2,,,,,,,,,,,,,,,,,,,,,,,,,,,,,,,,,,,,,,,,,,,,,,,,,,,,,,,
23,2,,,2,,3,,,3,,,2,,1,3,,,3,,,1,2,,2,,4,,,3,,,,1,2,,1,,,,,,,,,,,,,,,,,,,,,,,,,,,,,,,,,,,,,,,,,,,,,,,,,,,,,
24,2,,,2,,3,,,3,,,2,,1,3,,,3,,,1,2,,2,,4,,,3,,,,1,2,,1,,,,,,,,,,,,,,,,,,,,,,,,,,,,,,,,,,,,,,,,,,,,,,,,,,,,,
25,2,,,2,,3,,,3,,,2,,1,3,,,3,,,1,2,,2,,4,,,3,,,,1,2,,1,,,,,,,,,,,,,,,,,,,,,,,,,,,,,,,,,,,,,,,,,,,,,,,,,,,,,
26,2,,,2,,3,,,3,,,2,,1,3,,,3,,,1,2,,2,,4,,,3,,,,3,2,,1,,,,,,,,,,,,,,,,,,,,,,,,,,,,,,,,,,,,,,,,,,,,,,,,,,,,,
27,2,,,2,,3,,,3,,,2,,1,3,,,3,,,1,2,,2,,4,,,3,,,,3,2,,1,,,1,,,,,,,,,,,,,,,,,,,,,,,,,,,,,,,,,,,,,,,,,,,,,,,,,,
28,2,,,2,,3,,,3,,,2,,1,3,,,3,,,1,2,,2,,4,,,3,,,,4,2,,1,,,1,,,,,,,,,,,,,,,,,,,,,,,,,,,,,,,,,,,,,,,,,,,,,,,,,,
29,2,,,2,,3,,,3,,,2,,1,3,,,3,,,1,2,,2,,4,,,3,,,,4,2,,1,,,1,,2,,,,,,,,,,,,,,,,,,,,,,,,,,,,,,,,,,,,,,,,,,,,,,,,
30,2,,,2,,3,,,3,,,2,,1,3,,,3,,,1,2,,2,,4,,,3,,,,4,2,,1,,,1,,2,,,,,,,,,,,,,,,,,,,,,,,,,,,,,,,,,,,,,,,,,,,,,,,,
31,2,,,2,,3,,,3,,,2,,1,3,,,3,,,1,2,,2,,4,,,3,,,,6,2,,1,,,1,,2,,,,,,,,,,,,,,,,,,,,,,,,,,,,,,,,,,,,,,,,,,,,,,,,
32,2,,,2,,3,,,3,,,2,,1,3,,,3,,,1,2,,2,,4,,,3,,,,6,2,,1,,,1,,2,,,,3,,,,,,,,,,,,,,,,,,,,,,,,,,,,,,,,,,,,,,,,,,,,
33,2,,,2,,3,,,3,,,2,,1,3,,,3,,,1,2,,2,,4,,,3,,,,6,2,,1,,,1,,2,,,,4,,,,,,,,,,,,,,,,,,,,,,,,,,,,,,,,,,,,,,,,,,,,
34,2,,,2,,3,,,3,,,2,,1,3,,,3,,,1,2,,2,,4,,,3,,,,6,2,,1,,,1,,2,,,,4,,,,2,,,,,,,,,,,,,,,,,,,,,,,,,,,,,,,,,,,,,,,,
35,2,,,2,,3,,,3,,,2,,1,3,,,3,,,1,2,,2,,4,,,3,,,,6,2,,1,,,1,,2,,,,4,,,,2,,2,,,,,,,,,,,,,,,,,,,,,,,,,,,,,,,,,,,,,,
36,2,,,2,,3,,,3,,,2,,1,3,,,3,,,1,2,,2,,4,,,3,,,,6,2,,1,,,1,,2,,,,4,,,,2,,2,,,,,,,,,,,,,,,,,,,,,,,,,,,,,,,,,,,,,,
37,2,,,2,,3,,,3,,,2,,1,3,,,3,,,1,2,,2,,4,,,3,,,,6,2,,1,,,1,,2,,,,5,,,,2,,2,,,,,,,,,,,,,,,,,,,,,,,,,,,,,,,,,,,,,,
38,2,,,2,,3,,,3,,,2,,1,3,,,3,,,1,2,,2,,4,,,3,,,,6,2,,1,,,1,,2,,,,5,,,,2,,2,,,,,,,,,,,,,,,,,,,,,,,,,,,,,,,,,,,,,,
39,2,,,2,,3,,,3,,,2,,1,3,,,3,,,1,2,,2,,4,,,3,,,,6,2,,1,,,1,,2,,,,5,,,,2,,2,,,2,,,,,,,,,,,,,,,,,,,,,,,,,,,,,,,,,,,
40,2,,,2,,3,,,3,,,2,,1,3,,,3,,,1,2,,2,,4,,,3,,,,6,2,,1,,,1,,2,,,,5,,,,2,,2,,,2,,2,,,,,,,,,,,,,,,,,,,,,,,,,,,,,,,,,
41,2,,,2,,3,,,3,,,2,,1,3,,,3,,,1,2,,2,,4,,,3,,,,6,2,,1,,,1,,2,,,,5,,,,2,,2,,,2,,2,,3,,,,,,,,,,,,,,,,,,,,,,,,,,,,,,,
42,2,,,2,,3,,,3,,,2,,1,3,,,3,,,1,2,,2,,4,,,3,,,,6,2,,1,,,1,,2,,,,5,,,,2,,2,,,2,,2,,3,,,2,,,,,,,,,,,,,,,,,,,,,,,,,,,,
43,2,,,2,,3,,,3,,,2,,1,3,,,3,,,1,2,,2,,4,,,3,,,,6,2,,1,,,1,,2,,,,5,,,,2,,2,,,2,,2,,3,,,2,,,,,,,,,,,,,,,,,,,,,,,,,,,,
44,2,,,2,,3,,,3,,,2,,1,3,,,3,,,1,2,,2,,4,,,3,,,,6,2,,1,,,1,,2,,,,5,,,,2,,2,,,2,,2,,3,,,2,,5,,,,,,,,,,,,,,,,,,,,,,,,,,
45,2,,,2,,3,,,3,,,2,,1,3,,,3,,,1,2,,2,,4,,,3,,,,6,2,,1,,,1,,2,,,,5,,,,2,,2,,,2,,2,,3,,,2,,5,,,,,3,,,,,,,,,,,,,,,,,,,,,
46,2,,,2,,3,,,3,,,2,,1,3,,,3,,,1,2,,2,,4,,,3,,,,6,2,,1,,,1,,2,,,,5,,,,2,,2,,,2,,2,,3,,,2,,5,,,,,3,,,,,,,,,,,,,,,,,,,,,
47,2,,,2,,3,,,3,,,2,,1,3,,,3,,,1,2,,2,,4,,,3,,,,6,2,,1,,,1,,2,,,,5,,,,2,,2,,,2,,2,,3,,,2,,5,,,,,3,,,,,,,,,,,,,,,,,,,,,
48,2,,,2,,3,,,3,,,2,,1,3,,,3,,,1,2,,2,,4,,,3,,,,6,2,,1,,,1,,2,,,,5,,,,2,,2,,,2,,2,,3,,,2,,5,,,,,3,,,4,,,,,,,,,,,,,,,,,,
49,2,,,2,,3,,,3,,,2,,1,3,,,3,,,1,2,,2,,4,,,3,,,,6,2,,1,,,1,,2,,,,5,,,,2,,2,,,2,,2,,3,,,2,,5,,,,,3,,,4,,,,2,,,,,,,,,,,,,,
50,2,,,2,,3,,,3,,,2,,1,3,,,3,,,1,2,,2,,4,,,3,,,,6,2,,1,,,1,,2,,,,5,,,,2,,2,,,2,,2,,3,,,2,,5,,,,,3,,,4,,,,2,,,,,,,,,,,,,,
51,2,,,2,,3,,,3,,,2,,1,3,,,3,,,1,2,,2,,4,,,3,,,,6,2,,1,,,1,,2,,,,5,,,,2,,2,,,2,,2,,3,,,2,,5,,,,,3,,,4,,,,2,,,,,,,,,,,,,,
52,2,,,2,,3,,,3,,,2,,1,3,,,3,,,1,2,,2,,4,,,3,,,,6,2,,1,,,1,,2,,,,5,,,,2,,2,,,2,,2,,4,,,2,,5,,,,,3,,,4,,,,2,,,,,,,,,,,,,,
53,2,,,2,,3,,,3,,,2,,1,3,,,3,,,1,2,,2,,4,,,3,,,,6,2,,1,,,1,,2,,,,5,,,,2,,2,,,2,,2,,4,,,2,,5,,,,,3,,,4,,,,2,,,,,,,,,,,,,,
54,2,,,2,,3,,,3,,,2,,1,3,,,3,,,1,2,,2,,4,,,3,,,,6,2,,1,,,1,,2,,,,5,,,,2,,2,,,3,,2,,4,,,2,,5,,,,,3,,,4,,,,2,,,,,,,,,,,,,,
55,2,,,2,,3,,,3,,,2,,1,3,,,3,,,1,2,,2,,4,,,3,,,,7,2,,1,,,1,,2,,,,5,,,,2,,2,,,3,,2,,4,,,2,,5,,,,,3,,,4,,,,2,,,,,,,,,,,,,,
56,2,,,2,,3,,,3,,,2,,1,3,,,3,,,1,2,,2,,4,,,3,,,,7,2,,1,,,1,,2,,,,5,,,,2,,2,,,3,,2,,4,,,2,,5,,,,,3,,,4,,,,2,,,,,3,,,,,,,,,
57,2,,,2,,3,,,3,,,2,,1,3,,,3,,,1,2,,2,,4,,,3,,,,7,2,,1,,,1,,2,,,,5,,,,2,,2,,,3,,2,,4,,,2,,5,,,,,3,,,4,,,,2,,,,,3,,,,,,,,,
58,2,,,2,,3,,,3,,,2,,1,3,,,3,,,1,2,,2,,4,,,3,,,,7,2,,1,,,1,,2,,,,5,,,,2,,2,,,3,,2,,4,,,2,,5,,,,,3,,,4,,,,2,,,,,3,,,,,,,,,
59,2,,,2,,3,,,3,,,2,,1,3,,,3,,,1,2,,2,,4,,,3,,,,7,2,,1,,,1,,2,,,,5,,,,2,,2,,,3,,2,,4,,,2,,5,,,,,3,,,4,,,,2,,,,,3,,,,,,,,,
60,2,,,2,,3,,,3,,,2,,1,3,,,3,,,1,2,,2,,4,,,3,,,,7,2,,1,,,1,,2,,,,5,,,,2,,2,,,3,,2,,4,,,2,,5,,,,,3,,,4,,,,2,,,,,3,,,,,,,,,
61,2,,,2,,3,,,3,,,2,,1,3,,,3,,,1,2,,2,,4,,,3,,,,7,2,,1,,,1,,2,,,,5,,,,2,,2,,,3,,2,,4,,,2,,5,,,,,3,,,4,,,,2,,,,,3,,,,,,,,,
62,2,,,2,,3,,,3,,,2,,1,3,,,3,,,1,2,,2,,4,,,3,,,,7,2,,1,,,1,,2,,,,5,,,,2,,2,,,3,,2,,4,,,2,,5,,,,,3,,,4,,,,2,,,,,3,,,,,,,,,
63,2,,,2,,3,,,3,,,2,,1,3,,,3,,,1,2,,2,,4,,,3,,,,7,2,,1,,,1,,2,,,,5,,,,2,,2,,,3,,2,,4,,,2,,5,,,,,3,,,4,,,,2,,,,,3,,,,,,,,,
64,2,,,2,,3,,,3,,,2,,1,3,,,3,,,1,2,,2,,4,,,3,,,,7,2,,1,,,1,,2,,,,5,,,,2,,2,,,3,,2,,4,,,2,,5,,,,,3,,,4,,,,2,,,,,3,,,,,,,,,
65,2,,,2,,3,,,3,,,2,,1,3,,,3,,,1,2,,2,,4,,,3,,,,7,2,,1,,,1,,2,,,,5,,,,2,,2,,,3,,2,,4,,,2,,5,,,,,3,,,4,,,,2,,,,,3,,,1,,,,,,
66,2,,,2,,3,,,3,,,2,,1,3,,,3,,,1,2,,2,,4,,,3,,,,7,2,,1,,,1,,2,,,,5,,,,2,,2,,,3,,2,,4,,,2,,5,,,,,3,,,4,,,,2,,,,,3,,,1,,,,,,
67,2,,,2,,3,,,3,,,2,,1,3,,,3,,,1,2,,2,,4,,,3,,,,7,2,,1,,,1,,2,,,,5,,,,2,,2,,,3,,2,,4,,,2,,5,,,,,3,,,4,,,,2,,,,,3,,,1,,,,,,
68,2,,,2,,3,,,3,,,2,,1,3,,,3,,,1,2,,2,,4,,,3,,,,7,2,,1,,,1,,2,,,,5,,,,2,,2,,,3,,2,,4,,,2,,5,,,,,3,,,4,,,,2,,,,,3,,,1,,,,,,
69,2,,,2,,3,,,3,,,2,,1,3,,,3,,,1,2,,2,,4,,,3,,,,7,2,,1,,,1,,2,,,,5,,,,2,,2,,,3,,2,,4,,,2,,5,,,,,3,,,4,,,,2,,,,,3,,,1,,,,,,
70,2,,,2,,3,,,3,,,2,,1,3,,,3,,,1,2,,2,,4,,,3,,,,7,3,,1,,,1,,2,,,,5,,,,2,,2,,,3,,2,,4,,,2,,5,,,,,3,,,4,,,,2,,,,,3,,,1,,,,,,
71,2,,,2,,3,,,3,,,2,,1,3,,,3,,,1,2,,2,,4,,,3,,,,7,3,,1,,,1,,2,,,,5,,,,2,,2,,,3,,2,,4,,,2,,5,,,,,3,,,4,,,,2,,,,,3,,,1,,2,,,,
72,2,,,2,,3,,,3,,,2,,1,3,,,3,,,1,2,,2,,4,,,3,,,,7,3,,1,,,1,,2,,,,5,,,,2,,2,,,3,,2,,4,,,2,,5,,,,,3,,,4,,,,2,,,,,3,,,1,,2,,,,
73,2,,,2,,3,,,3,,,2,,1,3,,,3,,,1,2,,2,,4,,,3,,,,7,3,,1,,,1,,2,,,,5,,,,2,,2,,,3,,2,,4,,,2,,5,,,,,3,,,4,,,,2,,,,,3,,,1,,2,,,,
74,2,,,2,,3,,,3,,,2,,1,3,,,3,,,1,2,,2,,4,,,3,,,,7,3,,1,,,1,,2,,,,5,,,,2,,2,,,3,,2,,4,,,2,,5,,,,,3,,,4,,,,2,,,,,3,,,1,,2,,,,
75,2,,,2,,3,,,3,,,2,,1,3,,,3,,,1,2,,2,,4,,,3,,,,7,3,,1,,,1,,2,,,,5,,,,2,,2,,,3,,2,,4,,,2,,5,,,,,3,,,4,,,,2,,,,,3,,,1,,2,,,,
76,2,,,2,,3,,,3,,,2,,1,3,,,3,,,1,2,,2,,4,,,3,,,,7,3,,1,,,1,,2,,,,5,,,,2,,2,,,3,,2,,4,,,2,,5,,,,,3,,,4,,,,2,,,,,3,,,1,,2,,,,
77,2,,,2,,3,,,3,,,2,,1,3,,,3,,,1,2,,2,,4,,,3,,,,7,3,,1,,,1,,2,,,,5,,,,2,,2,,,3,,2,,4,,,2,,5,,,,,3,,,4,,,,2,,,,,3,,,1,,2,,,,
78,2,,,2,,3,,,3,,,2,,1,3,,,3,,,1,2,,2,,4,,,3,,,,7,3,,1,,,1,,2,,,,5,,,,2,,2,,,3,,2,,4,,,2,,5,,,,,3,,,4,,,,2,,,,,3,,,1,,2,,,,
79,2,,,2,,3,,,3,,,2,,1,3,,,3,,,1,2,,2,,4,,,3,,,,7,3,,1,,,1,,2,,,,5,,,,2,,2,,,3,,2,,4,,,2,,5,,,,,3,,,4,,,,2,,,,,3,,,1,,2,,,,
80,2,,,2,,3,,,3,,,2,,1,3,,,3,,,1,2,,2,,4,,,3,,,,7,3,,1,,,1,,2,,,,5,,,,2,,2,,,3,,2,,5,,,2,,5,,,,,3,,,4,,,,2,,,,,3,,,1,,2,,,,
81,2,,,2,,3,,,3,,,2,,1,3,,,3,,,1,2,,2,,4,,,3,,,,7,3,,1,,,1,,2,,,,5,,,,2,,2,,,3,,4,,5,,,2,,5,,,,,3,,,4,,,,2,,,,,3,,,1,,2,,,,
82,2,,,2,,3,,,3,,,2,,1,3,,,3,,,1,2,,2,,4,,,3,,,,7,3,,1,,,1,,2,,,,5,,,,2,,2,,,3,,4,,5,,,2,,5,,,,,3,,,4,,,,2,,,,,3,,,1,,2,,,,
